<?xml version="1.0" encoding="utf-8"?>
<!-- Generator: Adobe Illustrator 18.0.0, SVG Export Plug-In . SVG Version: 6.00 Build 0)  -->
<!DOCTYPE svg PUBLIC "-//W3C//DTD SVG 1.1//EN" "http://www.w3.org/Graphics/SVG/1.1/DTD/svg11.dtd">
<svg xmlns:cc="http://creativecommons.org/ns#" xmlns:dc="http://purl.org/dc/elements/1.1/" xmlns="http://www.w3.org/2000/svg" xmlns:svg="http://www.w3.org/2000/svg" xmlns:rdf="http://www.w3.org/1999/02/22-rdf-syntax-ns#" xmlns:inkscape="http://www.inkscape.org/namespaces/inkscape" xmlns:sodipodi="http://sodipodi.sourceforge.net/DTD/sodipodi-0.dtd" xmlns:xlink="http://www.w3.org/1999/xlink" version="1.1" id="mapsvg_0_1_-4_0_1" x="0px" y="0px" viewBox="0 0 9600 6716" xml:space="preserve">




<g id="Z_1_-4">
	<g id="Z_1_-4_B">
		
			<path id="Z_1_-4_B34" d="    M2547,2304.8h-472.2l-76.9,122.5v535.4l53,131.5h834.5l252.1-260.6h909.5v-155.8l43.9-45.6l-30.8-32.2l74.8-74.6l-46-45.8    l-75.1,74.1l-31.1-31.1v-165.1l118-118.9v-134.2l-124.5-72.6l-76.6-31.4l-35.7-10.5h-41.3l-957.8-1L2547,2304.8z" class="P1_-4_0"/>
		<path id="Z_1_-4_B33" d="M3052,2595.8v-70.2l26.7-24.4l797.3-0.4v5.6    h-81.2l0.1,58h69l0.1,4.5h-769.1v66.8l-1.8,8.3c-1.6,2-3.3,3.9-4.9,5.9l-6.9,3.3l-7.8,0.9c-2.6-0.5-5.3-0.9-7.9-1.4l-6.9-3.6    c-1.6-2-3.3-3.9-4.9-5.9c-1.8-7.6-1.8-8-1.8-8" class="P1_-4_1"/>
		<path id="Z_1_-4_B32" d="M2988.5,2597.1    v34.2H2940v-11.5l35.3-35.4L2988.5,2597.1z" class="P1_-4_1"/>
		
			<path id="Z_1_-4_B31" d="    M2191.8,3013.7v72.8h-137l-28.4-72.8H2191.8z" class="P1_-4_2"/>
		
			<path id="Z_1_-4_B29" d="    M2080.1,2313h109.6v75h-159.9L2080.1,2313z" class="P1_-4_2"/>
		
			<path id="Z_1_-4_B27" d="    M2908.3,2318.9l1.8-1.8l159,159.1l-32.7,32.7l-2-2l31-31L2908.3,2318.9z" class="P1_-4_2"/>
		
			<path id="Z_1_-4_B26" d="    M2833.8,2282.1l2.2-2.3l91.9,91.8l-2.1,2.5L2833.8,2282.1L2833.8,2282.1z" class="P1_-4_2"/>
		<path id="Z_1_-4_B25" d="M3029.5,2597.1v56.2    h-15l-0.4-56.2H3029.5z" class="P1_-4_1"/>
		<path id="Z_1_-4_B23" d="M2938.1,2019.2    v43.4h-7.8v-29.9l-16.8-15.3l3-6.5L2938.1,2019.2z" class="P1_-4_1"/>
		
			<path id="Z_1_-4_B22" d="    M3900,2007l71,28l124,71.5h-93.7l-9.2-19.6h-2.5v-12.6h-33.4l-7.2-4.7l-5.5-7.1h-111.3l-0.6-66.6h32L3900,2007z" class="P1_-4_2"/>
		
			<path id="Z_1_-4_B21" d="    M2060.7,2536.6h5.9v330h-5.9V2536.6z" class="P1_-4_2"/>
		<path id="Z_1_-4_B20" d="    M2186.1,2500.5c-11.4,0-26.7,3.9-39.7,13.4c-13,9.4-23.5,25-23.5,46.8v283.8c0,32.6,31.4,57.5,62.6,57.5h5v-10h-5    c-25.8,0-52.6-21.5-52.6-47.5v-283.8c0-18.7,8.4-30.7,19.4-38.7s24.8-11.5,33.8-11.5h5v-10H2186.1z" class="P1_-4_1"/>
		<polygon id="Z_1_-4_B19" points="2191.8,3013.7     2848.1,3013.7 2880.1,3086.5 2191.8,3086.5   " class="P1_-4_3"/>
		
			<path id="Z_1_-4_B18" d="    M2185.4,2755.6h714.2v71.6h-65.7l0.2,73.3h-648.6L2185.4,2755.6z" class="P1_-4_3"/>
		
			<rect id="Z_1_-4_B17" x="2185.4" y="2506" width="385.1" height="142.6" class="P1_-4_3"/>
		<polygon id="Z_1_-4_B16" points="2189.7,2313.4     2549.1,2313.4 2596.1,2387.9 2189.7,2387.9   " class="P1_-4_3"/>
		
			<rect id="Z_1_-4_B15" x="3023.9" y="2748.7" width="1015.4" height="78.1" class="P1_-4_3"/>
		
			<rect id="Z_1_-4_B14" x="3094.9" y="2571.4" width="776.9" height="66.8" class="P1_-4_3"/>
		
			<rect id="Z_1_-4_B13" x="3076.4" y="2432.9" width="795.4" height="64.8" class="P1_-4_4"/>
		
			<path id="Z_1_-4_B12" d="    M2950.1,2177.4l1037.3,0l0,141h-949.5l-113.9-114L2950.1,2177.4z" class="P1_-4_4"/>
		<polygon id="Z_1_-4_B11" points="    2938.1,1996.4 3830.3,1996.4 3841.1,2009 3841.1,2062.6 2938.1,2062.6   " class="P1_-4_5"/>
		
			<path id="Z_1_-4_B10" d="    M2549.1,2313.4l304.7-303.9l60.6,60.6l-318.4,317.8L2549.1,2313.4z" class="P1_-4_6"/>
		
			<path id="Z_1_-4_B9" d="    M2687.5,2425.7l142.6-142.6l54.5,53.6l-140.5,145.5L2687.5,2425.7L2687.5,2425.7z" class="P1_-4_6"/>
		<polygon id="Z_1_-4_B7" points="3020.9,2842.4     3073.4,2894.9 2881.1,3085.5 2848.1,3013.7   " class="P1_-4_3"/>
		<polygon id="Z_1_-4_B5" points="3017.9,2839.5     3073.4,2894.9 3118.2,2850.1 3093.6,2825.4 3017.9,2825.4   " class="P1_-4_2"/>
		<path id="Z_1_-4_B4" d="M3037.5,2469.4l-1.5-3.3    l-2-3.1l-2.7-2.8l-3.1-2.9l-65.9-65.9l-21.4,22.1l-63.6-63.6l-133.3,132.4l-18.2-18.2l-31.8,32.4v21h9.3v48.9h119.8l65,65    l-0.5,12.3h12.8l0.2-11.5h11.4v-3.1h-21.2l-102.7-102.6l60.8-62.5l-38-38l61.7-61.6l31,31.1l-45,44.2l27.6,27.6l-48.8,48.8    l82.2,82.4l112.1-112.4l3.8-4.1l1.8-3.8l0.4-4.8L3037.5,2469.4z" class="P1_-4_7"/>
		
			<rect id="Z_1_-4_B3" x="3017.9" y="2742" width="6" height="83.5" class="P1_-4_7"/>
		<polygon id="Z_1_-4_B2" points="3973.2,2564.9 3995.4,2542.7 4013.9,2561.3 4089.1,2486.1 4128,2525     4052.8,2600.2 4084.8,2632.2 4048.7,2668.3 3973.2,2592.9   " class="P1_-4_1"/>
		<rect id="Z_1_-4_B35" x="3962.5" y="2740.5" width="79" height="88.3" class="P1_-4_1"/>
	</g>
	<g id="Z_1_-4_A">
		<rect id="Z_1_-4_A1" x="3006" y="2558" width="10" height="11" class="P1_-4_8"/>
	</g>
	<g id="Z_1_-4_I">
		
			<use xlink:href="#parking_voiture_handicape" width="132.7" height="132.6" id="sZ_1_-4_I10" x="-66.4" y="-66.3" transform="matrix(0.3767 0 0 -0.3767 2866.9524 2788.8052)" style="overflow:visible;"/>
		
			<use xlink:href="#parking_voiture_handicape" width="132.7" height="132.6" id="sZ_1_-4_I9" x="-66.4" y="-66.3" transform="matrix(0.3767 0 0 -0.3767 3238.4524 2787.3052)" style="overflow:visible;"/>
		
			<use xlink:href="#parking_voiture_handicape" width="132.7" height="132.6" id="sZ_1_-4_I8" x="-66.4" y="-66.3" transform="matrix(0.3767 0 0 -0.3767 3235.9524 2603.8052)" style="overflow:visible;"/>
		
			<use xlink:href="#escalier" width="132.7" height="132.6" id="sZ_1_-4_I7" x="-66.4" y="-66.3" transform="matrix(0.3767 0 0 -0.3767 2172.9292 2348.8325)" style="overflow:visible;"/>
		
			<use xlink:href="#escalier" width="132.7" height="132.6" id="sZ_1_-4_I6" x="-66.4" y="-66.3" transform="matrix(0.3767 0 0 -0.3767 2171.3796 3051.0825)" style="overflow:visible;"/>
		
			<use xlink:href="#escalier" width="132.7" height="132.6" id="sZ_1_-4_I5" x="-66.4" y="-66.3" transform="matrix(0.3767 0 0 -0.3767 2858.8013 2404.4634)" style="overflow:visible;"/>
		
			<use xlink:href="#escalier" width="132.7" height="132.6" id="sZ_1_-4_I4" x="-66.4" y="-66.3" transform="matrix(0.3767 0 0 -0.3767 3072.8013 2632.2825)" style="overflow:visible;"/>
		
			<use xlink:href="#escalier" width="132.7" height="132.6" id="sZ_1_-4_I3" x="-66.4" y="-66.3" transform="matrix(0.3767 0 0 -0.3767 4036.4897 2634.5178)" style="overflow:visible;"/>
		
			<use xlink:href="#escalier" width="132.7" height="132.6" id="sZ_1_-4_I2" x="-66.4" y="-66.3" transform="matrix(0.3767 0 0 -0.3767 3948.4316 2059.8826)" style="overflow:visible;"/>
		
			<use xlink:href="#ascenseur" width="132.7" height="132.6" id="sZ_1_-4_I1" x="-66.4" y="-66.3" transform="matrix(0.3767 0 0 -0.3767 2975.4507 2517.416)" style="overflow:visible;"/>
	</g>
	<g id="Z_1_-4_D">
		
			<path id="Z_1_-4_D3" style="fill:none;stroke:#78D6D9;stroke-width:5;" d="    M2191.8,2578.6h382"/>
		
			<path id="Z_1_-4_D2" style="fill:none;stroke:#78D6D9;stroke-width:5;" d="    M2189.7,2827.2h709.9"/>
		
			<path id="Z_1_-4_D1" style="fill:none;stroke:#78D6D9;stroke-width:5;" d="    M2978.7,2248.3h1008.7"/>
	</g>
	<g id="Z_1_-4_R">
		
		
	</g>
</g>
<symbol id="ascenseur" viewBox="-61 -61 122 122">
	<path style="fill:#009393;" d="M61,0c0-33.7-27.3-61-61-61S-61-33.7-61,0s27.3,61,61,61S61,33.7,61,0z"/>
	<path style="fill:#009393;" d="M0,61c-33.7,0-61-27.3-61-61s27.3-61,61-61c33.7,0,61,27.3,61,61S33.7,61,0,61z M0-52.1   c-28.8,0-52.1,23.3-52.1,52.1S-28.8,52.1,0,52.1c28.8,0,52.1-23.3,52.1-52.1S28.8-52.1,0-52.1z"/>
	<path style="fill:#009393;stroke:#FFFFFF;stroke-width:8;stroke-miterlimit:10;" d="M52.1,0c0-28.8-23.3-52.1-52.1-52.1   S-52.1-28.8-52.1,0S-28.8,52.1,0,52.1S52.1,28.8,52.1,0z"/>
	<g>
		<path style="fill:#FFFFFF;" d="M18.6,10.1H-18c-3.1,0-5.6-2.5-5.6-5.6v-33.6c0-3.1,2.5-5.6,5.6-5.6h36.6c3.1,0,5.6,2.5,5.6,5.6    V4.5C24.2,7.5,21.7,10.1,18.6,10.1z M19.7-29.2c0-0.6-0.5-1.1-1.1-1.1H-18c-0.6,0-1.1,0.5-1.1,1.1V4.5c0,0.6,0.5,1.1,1.1,1.1h36.6    c0.6,0,1.1-0.5,1.1-1.1V-29.2z"/>
		<path style="fill:#FFFFFF;" d="M-10.2,1.1c1.2,0,2.2-1,2.2-2.2s-1-2.2-2.2-2.2s-2.2,1-2.2,2.2S-11.4,1.1-10.2,1.1z"/>
		<path style="fill:#FFFFFF;" d="M0.3,1.1c1.2,0,2.2-1,2.2-2.2s-1-2.2-2.2-2.2s-2.2,1-2.2,2.2S-0.9,1.1,0.3,1.1z"/>
		<path style="fill:#FFFFFF;" d="M10.8,1.1c1.2,0,2.2-1,2.2-2.2s-1-2.2-2.2-2.2s-2.2,1-2.2,2.2S9.5,1.1,10.8,1.1z"/>
		<path style="fill:#FFFFFF;" d="M-7.2-4.1h-6c-0.8,0-1.5-0.7-1.5-1.6v-8c0-0.7,0.5-1.4,1.1-1.5V-25c0-0.8,0.7-1.5,1.5-1.5    s1.5,0.7,1.5,1.5v9.7h0.7V-25c0-0.8,0.7-1.5,1.5-1.5c0.8,0,1.5,0.7,1.5,1.5v9.8c0.6,0.2,1.1,0.8,1.1,1.5v8    C-5.7-4.9-6.3-4.1-7.2-4.1z"/>
		<path style="fill:#FFFFFF;" d="M3.3-4.1h-6c-0.8,0-1.5-0.7-1.5-1.6v-8c0-0.7,0.5-1.4,1.1-1.5V-25c0-0.8,0.7-1.5,1.5-1.5    s1.5,0.7,1.5,1.5v9.7h0.7V-25c0-0.8,0.7-1.5,1.5-1.5s1.5,0.7,1.5,1.5v9.8c0.6,0.2,1.1,0.8,1.1,1.5v8C4.8-4.9,4.1-4.1,3.3-4.1z"/>
		<path style="fill:#FFFFFF;" d="M13.7-4.1h-6c-0.8,0-1.5-0.7-1.5-1.6v-8c0-0.7,0.5-1.4,1.1-1.5V-25c0-0.8,0.7-1.5,1.5-1.5    s1.5,0.7,1.5,1.5v9.7h0.7V-25c0-0.8,0.7-1.5,1.5-1.5c0.8,0,1.5,0.7,1.5,1.5v9.8c0.6,0.2,1.1,0.8,1.1,1.5v8    C15.2-4.9,14.6-4.1,13.7-4.1z"/>
		<path style="fill:#FFFFFF;" d="M-2.1,28.6l-7.5,7.5c-1.2,1.2-3.1,1.2-4.2,0c0,0,0,0,0,0l-7.5-7.5c-1.2-1.2-1.2-3.1,0-4.2    c1.2-1.2,3.1-1.2,4.2,0l2.4,2.4V16c0-1.6,1.3-3,3-3c1.6,0,3,1.3,3,3v10.7l2.4-2.4c1.2-1.2,3.1-1.2,4.2,0S-0.9,27.4-2.1,28.6z"/>
		<path style="fill:#FFFFFF;" d="M21.8,25.6c-1.2,1.2-3.1,1.2-4.2,0l-2.4-2.4v10.7c0,1.6-1.3,3-3,3c-1.6,0-3-1.3-3-3V23.2l-2.4,2.4    c-1.2,1.2-3.1,1.2-4.2,0c-1.2-1.2-1.2-3.1,0-4.2l7.5-7.5l0,0c0.2-0.2,0.5-0.4,0.7-0.5c1.1-0.6,2.6-0.4,3.5,0.5l0,0l7.5,7.5    C23,22.5,23,24.4,21.8,25.6z"/>
	</g>
</symbol>
<symbol id="escalier" viewBox="-61 -61 122 122">
	<path style="fill:#009393;" d="M61,0c0-33.7-27.3-61-61-61S-61-33.7-61,0s27.3,61,61,61S61,33.7,61,0z"/>
	<path style="fill:#009393;" d="M0,61c-33.7,0-61-27.3-61-61s27.3-61,61-61S61-33.7,61,0S33.7,61,0,61z M0-52.1   c-28.8,0-52.1,23.3-52.1,52.1S-28.8,52.1,0,52.1c28.8,0,52.1-23.3,52.1-52.1S28.8-52.1,0-52.1z"/>
	<path style="fill:#009393;stroke:#FFFFFF;stroke-width:8;stroke-miterlimit:10;" d="M52.1,0c0-28.8-23.3-52.1-52.1-52.1   S-52.1-28.8-52.1,0S-28.8,52.1,0,52.1S52.1,28.8,52.1,0z"/>
	<path style="fill:#FFFFFF;" d="M31.1,21.8c0-1.1-0.9-2-2-2h-9.4v-9.4c0-1.1-0.9-2-2-2H8.3l0-9.3C8.3-2,7.3-3,6.2-3h-9.3v-9.4   c0-1.1-0.9-2-2-2h-9.4v-9.4c0-1.1-0.9-2-2-2h-13.1c-1.1,0-2,0.9-2,2v1.7c0,1.1,0.9,2,2,2h9.4v9.4c0,1.1,0.9,2,2,2h9.4v9.4   c0,1.1,0.9,2,2,2h9.4v9.4c0,1.1,0.9,2,2,2H14v9.4c0,1.1,0.9,2,2,2h13.1c1.1,0,2-0.9,2-2V21.8z"/>
</symbol>
<symbol id="parking_voiture_handicape" viewBox="-61 -61 122 122">
	<path style="fill:#009393;" d="M61,0c0-33.7-27.3-61-61-61S-61-33.7-61,0s27.3,61,61,61S61,33.7,61,0z"/>
	<path style="fill:#009393;" d="M0,61c-33.7,0-61-27.3-61-61s27.3-61,61-61S61-33.7,61,0S33.7,61,0,61z M0-52.1   c-28.8,0-52.1,23.3-52.1,52.1S-28.8,52.1,0,52.1c28.8,0,52.1-23.3,52.1-52.1S28.8-52.1,0-52.1z"/>
	<path style="fill:#009393;stroke:#FFFFFF;stroke-width:8;stroke-miterlimit:10;" d="M52.1,0c0-28.8-23.3-52.1-52.1-52.1   S-52.1-28.8-52.1,0S-28.8,52.1,0,52.1S52.1,28.8,52.1,0z"/>
	<g>
		<g>
			<path style="fill:#FFFFFF;" d="M-12.1,31h-12.5c-2.6,0-4-1.4-4-4v-40c0-2.5,1.4-4,3.8-4c2.4,0,3.8,1.5,3.8,4V0.4h9.3     c9.5,0,16.1,6.3,16.1,15.2C4.4,24.6-2.4,31-12.1,31z M-12.3,6.8l-8.6,0v17.8h8.6c5,0,8.7-3.7,8.7-8.9C-3.6,10.5-7.3,6.8-12.3,6.8     z"/>
		</g>
		<g>
			<path style="fill:#FFFFFF;" d="M14.3-7.8c0-1.1,0-2,0-3.1c0.5,0,0.8,0,1.2,0c2.8,0,5.6,0,8.4,0c1.2,0,2.1-0.5,2.7-1.5     c2.1-3.7,4.2-7.3,6.3-11c0.2-0.4,0.4-0.9,0.5-1.4c0.1-1-0.3-1.8-1.2-2.3c-0.8-0.4-1.9-0.2-2.6,0.5c-0.3,0.3-0.6,0.7-0.8,1     c-1.5,2.6-3.1,5.2-4.5,7.9c-0.3,0.6-0.7,0.8-1.3,0.8c-3.9,0-7.7,0-11.6,0c-3,0-4.4,1.3-4.7,4.3C6.4-8.9,6.2-5.1,6-1.4     C5.9,0.9,7.4,2.7,9.5,2.9c2.3,0.1,4-1.4,4.2-3.8C13.8-2,13.9-3,14-4.2c2.2,0,4.4,0,6.5,0c0.4,0,0.9,0,1.3-0.1     c1-0.2,1.6-1,1.5-1.8c-0.1-0.9-0.7-1.6-1.7-1.6c-1.6-0.1-3.1,0-4.7,0C16-7.8,15.1-7.8,14.3-7.8z"/>
			<path style="fill:#FFFFFF;" d="M23.8-21.5c0.7-1.2,1.3-2.2,1.8-3.2c0.1-0.2,0.1-0.6-0.1-0.9c-3-6.3-10.4-9.7-17.2-7.9     c-7,1.8-11.7,8.2-11.3,15.3c0.3,4.9,2.5,8.8,6.4,11.6c0.2,0.1,0.3,0.2,0.6,0.3c0.1-1.1,0.2-2.2,0.2-3.2c0-0.3-0.3-0.7-0.5-1     c-6.3-6.3-3.9-17,4.6-19.8c6.2-2.1,13.1,1.4,15.1,7.7C23.5-22.3,23.6-22,23.8-21.5z"/>
			<path style="fill:#FFFFFF;" d="M9.5,11.6c2.2,0,4-1.7,4-4c0-2.2-1.8-4-4-4c-2.1,0-4,1.8-4,3.9C5.5,9.8,7.3,11.6,9.5,11.6z"/>
		</g>
	</g>
</symbol>
<defs id="defs_1_-4">
<style type="text/css" id="polygons_css_1_-4">.P1_-4_0{fill:#FFFFFF;stroke:#888888;stroke-width:10;stroke-linecap:square;}
.P1_-4_1{fill:#C0C0C0;}
.P1_-4_2{fill:#C0C0C0;stroke:#C0C0C0;stroke-width:5;stroke-linecap:square;}
.P1_-4_3{fill:#CAEFF0;stroke:#CAEFF0;stroke-width:5;}
.P1_-4_4{fill:#CAEFF0;stroke:#CAEFF0;stroke-width:5.0591;}
.P1_-4_5{fill:#CAEFF0;stroke:#CAEFF0;stroke-width:5.2451;}
.P1_-4_6{fill:#CAEFF0;stroke:#CAEFF0;stroke-width:3.1518;}
.P1_-4_7{fill:#C0C0C0;stroke:#C0C0C0;stroke-width:3;stroke-linecap:square;}
.P1_-4_8{fill:#FFFFFF;}
.P1_-4_9{fill:#E53225;}
</style>
</defs>
</svg>
