<?xml version="1.0" encoding="utf-8"?>
<!-- Generator: Adobe Illustrator 18.0.0, SVG Export Plug-In . SVG Version: 6.00 Build 0)  -->
<!DOCTYPE svg PUBLIC "-//W3C//DTD SVG 1.1//EN" "http://www.w3.org/Graphics/SVG/1.1/DTD/svg11.dtd">
<svg xmlns:cc="http://creativecommons.org/ns#" xmlns:dc="http://purl.org/dc/elements/1.1/" xmlns:inkscape="http://www.inkscape.org/namespaces/inkscape" xmlns="http://www.w3.org/2000/svg" xmlns:svg="http://www.w3.org/2000/svg" xmlns:rdf="http://www.w3.org/1999/02/22-rdf-syntax-ns#" xmlns:sodipodi="http://sodipodi.sourceforge.net/DTD/sodipodi-0.dtd" xmlns:xlink="http://www.w3.org/1999/xlink" version="1.1" id="mapsvg_0_2_2_0_1" x="0px" y="0px" viewBox="0 0 9600 6716" xml:space="preserve">






<g id="Z_2_2">
	<g id="Z_2_2_B">
		<path id="Z_2_2_B100" d="M7566.9,2126.7v83.8H7468    v-337.3h-467.1v85h-98.1v-85h-635.2v65.6h-85.1v632.6h64.7l-0.1,83.3h696.4l120.7,121.5v257.9h88v64.4h603.8h153.6v-87.3h63    v-668.4v-216.2H7566.9z M7085.5,2444.7h-687.1v-351.9h504.4v-85.2h98.1v335.3h84.6V2444.7z M7755.9,2883.6h-479V2508    c0,0,0,0-11.6-5.2c14.2-33.5-5.6-59.3-47.1-48.6c-4-9.5-4-9.5-4-9.5h-39l0.1-101.8H7468V2260h98.9v82.9h189V2883.6z" class="P2_2_0"/>
		<polygon id="Z_2_2_B38" points="7967.3,3004.6     7967.3,2959.1 7909.8,2959.1 7909.8,2973.3 7885.7,2973.3 7885.4,3004.6   " class="P2_2_1"/>
		<polygon id="Z_2_2_B37" points="7159.1,3093.9     7201.5,3093.9 7201.5,3035.1 7186.2,3035.1 7186.2,3009.9 7159.1,3009.9   " class="P2_2_1"/>
		<polygon id="Z_2_2_B36" points="6245.2,2521.6     6245.2,2533.9 6268.1,2533.9 6268.1,2567.6 6187.6,2567.2 6187.6,2521.6   " class="P2_2_1"/>
		<path id="Z_2_2_B35" d="M7214.6,2458.3    c-4.7-8.5-4.7-8.5-4.7-8.5l-37.1,0v77.5c0,0,0,0,3.5-3.1C7178.5,2486,7191,2468.9,7214.6,2458.3z" class="P2_2_2"/>
		<path id="Z_2_2_B34" d="M7194.4,2548.8    c77.4,0,77.4,0,77.4,0v-38c0,0,0,0-10.6-4.9C7247.9,2532.6,7218.1,2543.6,7194.4,2548.8z" class="P2_2_2"/>
		
			<rect id="Z_2_2_B32" x="7024.9" y="2449.9" width="115.6" height="86.4" class="P2_2_2"/>
		
			<rect id="Z_2_2_B31" x="6313.1" y="2004.4" width="80.7" height="83.9" class="P2_2_2"/>
		
			<rect id="Z_2_2_B18" x="7129.9" y="2004.4" width="208.6" height="208.9" class="P2_2_2"/>
		<polygon id="Z_2_2_B17" points="7201.5,3093.9     7277,3093.9 7277,3009.6 7186.2,3009.9 7186.2,3035.1 7201.5,3035.1   " class="P2_2_2"/>
		
			<rect id="Z_2_2_B16" x="7193.1" y="2883.6" width="78.8" height="85.1" class="P2_2_2"/>
		<polygon id="Z_2_2_B14" points="6393.9,1877.2     6316,1877.3 6316,1936.4 6309,1936.4 6309,1961.9 6393.9,1961.9   " class="P2_2_2"/>
		
			<rect id="Z_2_2_B10" x="6393.9" y="1877.2" width="42.9" height="75.7" class="P2_2_2"/>
		
			<rect id="Z_2_2_B9" x="7759" y="2256.1" width="83.7" height="83.2" class="P2_2_2"/>
		<polygon id="Z_2_2_B8" points="7759,2131.8     7837.3,2132 7837.3,2186.2 7851.6,2186.2 7851.6,2212.8 7759,2212.8   " class="P2_2_2"/>
		
			<rect id="Z_2_2_B7" x="7759" y="2886.7" width="83.7" height="82.3" class="P2_2_2"/>
		<polygon id="Z_2_2_B6" points="7885.7,2973.3     7909.8,2973.3 7909.8,2959.1 7967.3,2959.1 7967.5,2886.7 7885.9,2886.7   " class="P2_2_2"/>
		
			<rect id="Z_2_2_B5" x="6313.1" y="2444.9" width="80" height="83.2" class="P2_2_2"/>
		<polygon id="Z_2_2_B2" points="6245.2,2521.6     6187.6,2521.6 6187.6,2444.9 6268.1,2444.9 6268.1,2533.9 6245.2,2533.9   " class="P2_2_2"/>
		<polygon id="Z_2_2_B80" points="7875.6,2592.9 7875.6,2589.7 7970.1,2589.7 7970.1,2592.9   " class="P2_2_3"/>
		<polygon id="Z_2_2_B81" points="7758.1,2592.9 7758.1,2589.7 7853.9,2589.7 7853.9,2592.9   " class="P2_2_3"/>
		<polygon id="Z_2_2_B82" points="7502.7,2886.7 7505.9,2886.7 7505.9,2976.8 7502.7,2976.8   " class="P2_2_3"/>
		<polygon id="Z_2_2_B83" points="7503,3000.7 7506.2,3000.7 7506.2,3097.3 7503,3097.3   " class="P2_2_3"/>
		<polygon id="Z_2_2_B84" points="7837.3,2132     7878.5,2131.8 7878.5,2212.8 7851.6,2212.8 7851.6,2186.2 7837.3,2186.2   " class="P2_2_1"/>
		<polygon id="Z_2_2_B85" points="6271.4,1877.3     6316,1877.3 6316,1936.4 6309,1936.4 6309,1961.9 6271.4,1961.9   " class="P2_2_1"/>
	</g>
	<g id="Z_2_2_A">
		<polygon id="Z_2_2_A72" points="7271.9,2548.8     7194.4,2548.8 7184.3,2557.1 7184.3,2680.6 7271.9,2680.6   " class="P2_2_4"/>
		
			<rect id="Z_2_2_A71" x="7184.3" y="2741.7" width="87.6" height="41.2" class="P2_2_5"/>
		
			<rect id="Z_2_2_A70" x="7184.3" y="2825" width="87.6" height="58.6" class="P2_2_5"/>
		
			<rect id="Z_2_2_A68" x="7069.2" y="2888.6" width="84.8" height="57" class="P2_2_6"/>
		
			<rect id="Z_2_2_A67" x="7069.2" y="2969" width="84.8" height="60.2" class="P2_2_6"/>
		<polygon id="Z_2_2_A91" points="7139.4,2716.6     7159.3,2716.6 7159.3,2611.6 7108,2560.3 7084.9,2560.3 7084.9,2578.6 7053,2578.6 7053,2560.3 6898.2,2560.3 6898.2,2649.8     6946.9,2649.8 7069.2,2774.3 7069.2,2825.5 7140.3,2825.5   " class="P2_2_4"/>
		
			<rect id="Z_2_2_A65" x="7883.5" y="2131.8" width="83.8" height="121.7" class="P2_2_6"/>
		<polygon id="Z_2_2_A64" points="7880.3,2339.1     7880.3,2380.2 7876.3,2380.2 7876.3,2382.6 7895.3,2404.6 7895.3,2524.8 7878.3,2575.5 7878.3,2587.2 7967.3,2587.2 7967.3,2339       " class="P2_2_4"/>
		
			<rect id="Z_2_2_A63" x="7883.5" y="2278.2" width="83.8" height="60.8" class="P2_2_6"/>
		<polygon id="Z_2_2_A61" points="7878.3,2595.4     7878.3,2609.6 7851.6,2678.6 7851.6,2741.1 7878.3,2815.4 7878.3,2833 7909.3,2833 7909.3,2886.7 7967.5,2886.7 7967.2,2757     7904.3,2757 7904.3,2716.7 7967.2,2716.7 7967.3,2595.4   " class="P2_2_4"/>
		<polygon id="Z_2_2_A59" points="7850.6,2548.8     7823.6,2548.8 7823.6,2587.5 7760.8,2587.2 7761.3,2339.3 7846.7,2339.3 7846.7,2380.2 7850.6,2380.2 7850.6,2396.8     7868.2,2415.4 7868.2,2522.8 7850.7,2574   " class="P2_2_4"/>
		<polygon id="Z_2_2_A58" points="7760.8,2595.4     7761.3,2839.3 7761.3,2886.7 7847.5,2886.7 7847.5,2833 7849.6,2833 7849.6,2821.1 7822.6,2748.1 7822.6,2737.3 7794.6,2737.3     7794.6,2694.7 7822.6,2694.7 7822.6,2674.4 7851.6,2603.8 7851.6,2595.4   " class="P2_2_4"/>
		
			<rect id="Z_2_2_A56" x="7823.6" y="2548.8" width="27" height="38.7" class="P2_2_6"/>
		
			<rect id="Z_2_2_A55" x="7794.6" y="2694.7" width="28" height="42.6" class="P2_2_6"/>
		<polygon id="Z_2_2_A54" points="7571,2247.3     7625,2247.3 7649.6,2256.4 7677.8,2256.4 7703.4,2247.3 7717,2247.3 7717,2249.8 7759,2249.8 7759,2339.3 7571,2339.3   " class="P2_2_4"/>
		<polygon id="Z_2_2_A53" points="7571,2131.8     7717,2131.8 7717,2222.4 7703.4,2222.4 7677.8,2231.6 7649.6,2231.6 7625,2222.4 7612.7,2222.4 7612.7,2191.6 7571,2191.6   " class="P2_2_4"/>
		
			<rect id="Z_2_2_A52" x="7382.2" y="2253.7" width="81" height="85.5" class="P2_2_6"/>
		
			<rect id="Z_2_2_A51" x="7317" y="2253.7" width="65.2" height="85.5" class="P2_2_6"/>
		
			<rect id="Z_2_2_A50" x="7254.5" y="2253.7" width="62.5" height="85.5" class="P2_2_6"/>
		
			<rect id="Z_2_2_A49" x="7174.1" y="2253.7" width="80.4" height="85.5" class="P2_2_6"/>
		
			<rect id="Z_2_2_A48" x="7006.8" y="2082.6" width="97.2" height="130.7" class="P2_2_6"/>
		<polygon id="Z_2_2_A47" points="7104,2253.7     7104,2213.3 7006.8,2213.3 7006.8,2339.3 7090.4,2339.3 7090.4,2449.9 7140.4,2449.9 7140.4,2253.7   " class="P2_2_7"/>
		
			<rect id="Z_2_2_A46" x="7006.8" y="2004.4" width="97.2" height="78.2" class="P2_2_6"/>
		<polygon id="Z_2_2_A45" points="7006,1878.8     7006,1967.5 7130.6,1967.5 7130.6,1979.5 7364.8,1979.5 7364.8,2004.4 7463.2,2004.4 7463.2,1878.8   " class="P2_2_4"/>
		
			<rect id="Z_2_2_A44" x="7364.8" y="2072.2" width="98.4" height="141.1" class="P2_2_5"/>
		
			<rect id="Z_2_2_A43" x="7364.6" y="1970" width="98.4" height="42.2" class="P2_2_5"/>
		
			<rect id="Z_2_2_A42" x="7364.6" y="2012.2" width="98.4" height="59.7" class="P2_2_5"/>
		<polygon id="Z_2_2_A41" points="6709.8,1877.2     6625.3,1877.2 6436.8,1877.2 6436.8,1952.9 6460.7,1952.9 6460.7,1970.2 6625.3,1970.2 6625.3,1929.3 6709.8,1929.3     6709.8,1970.2 6897.3,1970.2 6897.3,1877.2   " class="P2_2_4"/>
		
			<rect id="Z_2_2_A40" x="6710.1" y="1996.6" width="187.2" height="91.7" class="P2_2_4"/>
		
			<rect id="Z_2_2_A39" x="6667" y="1929.3" width="42.7" height="40.9" class="P2_2_5"/>
		
			<rect id="Z_2_2_A38" x="6625.3" y="1929.3" width="41.7" height="40.9" class="P2_2_5"/>
		
			<rect id="Z_2_2_A37" x="6393.9" y="1996.6" width="317.5" height="91.7" class="P2_2_4"/>
		
			<rect id="Z_2_2_A36" x="6528.9" y="1996.6" width="59.7" height="91.7" class="P2_2_5"/>
		
			<rect id="Z_2_2_A35" x="6393.9" y="1996.6" width="135" height="91.7" class="P2_2_5"/>
		
			<rect id="Z_2_2_A34" x="7508.1" y="2888.7" width="251" height="85.6" class="P2_2_4"/>
		<polygon id="Z_2_2_A33" points="7508.4,3002.9     7508.4,3093.9 7550,3093.9 7759,3093.9 7759,3002.9 7614.6,3002.9 7614.6,3030.3 7570.7,3030.3 7570.7,3002.9   " class="P2_2_4"/>
		<polygon id="Z_2_2_A32" points="7500.2,3002.9     7457,3002.9 7422,2992.9 7366.9,2992.9 7322,3002.9 7277,3002.9 7277,3093.9 7464.8,3093.9 7500.2,3093.9   " class="P2_2_4"/>
		<polygon id="Z_2_2_A29" points="7277,2974.3     7322,2974.3 7360.9,2966.9 7429,2966.9 7457,2974.3 7500.2,2974.3 7500.2,2888.7 7318.7,2888.7 7318.7,2915.3 7277.3,2915.3   " class="P2_2_4"/>
		
			<rect id="Z_2_2_A26" x="6302" y="2298.7" width="91.1" height="146.2" class="P2_2_4"/>
		
			<rect id="Z_2_2_A25" x="6302" y="2088.3" width="91.1" height="163" class="P2_2_4"/>
		
			<rect id="Z_2_2_A23" x="6302" y="2256.7" width="91.1" height="42.1" class="P2_2_5"/>
		<polygon id="Z_2_2_A22" points="6232.2,2298.7     6232.2,2256.7 6187.6,2256.7 6187.6,2298.7 6187.6,2444.9 6272.4,2444.9 6272.4,2298.7   " class="P2_2_4"/>
		<polygon id="Z_2_2_A21" points="6187.6,2088.3     6187.6,2213.3 6187.6,2256.7 6232.2,2256.7 6232.2,2212.8 6272.4,2212.8 6272.4,2088.3   " class="P2_2_4"/>
		
			<rect id="Z_2_2_A20" x="6232.2" y="2213.3" width="40.2" height="43.4" class="P2_2_5"/>
		
			<rect id="Z_2_2_A19" x="6232.2" y="2256.7" width="40.2" height="42.1" class="P2_2_5"/>
		
			<rect id="Z_2_2_A18" x="6187.6" y="2030.3" width="78.7" height="52.9" class="P2_2_6"/>
		
			<rect id="Z_2_2_A17" x="6187.6" y="1943" width="78.7" height="58" class="P2_2_6"/>
		
			<rect id="Z_2_2_A16" x="7764" y="3009.6" width="57.4" height="84.3" class="P2_2_6"/>
		
			<rect id="Z_2_2_A15" x="7842.8" y="3009.6" width="64" height="84.3" class="P2_2_6"/>
		
			<rect id="Z_2_2_A13" x="6393.1" y="2449.9" width="234.8" height="86.4" class="P2_2_4"/>
		<polygon id="Z_2_2_A12" points="6708.9,2560.3     6708.9,2600.7 6627.9,2600.7 6627.9,2560.3 6395.3,2560.3 6395.3,2649.8 6627.9,2649.8 6708.9,2649.8 6898.2,2649.8     6898.2,2560.3   " class="P2_2_4"/>
		
			<rect id="Z_2_2_A11" x="6708.9" y="2449.9" width="189.3" height="86.4" class="P2_2_4"/>
		
			<rect id="Z_2_2_A10" x="6898.2" y="2449.9" width="126.7" height="86.4" class="P2_2_4"/>
		
			<rect id="Z_2_2_A9" x="6627.9" y="2560.3" width="40.5" height="40.4" class="P2_2_5"/>
		
			<rect id="Z_2_2_A8" x="6331.8" y="2567.2" width="58.1" height="82.6" class="P2_2_6"/>
		
			<rect id="Z_2_2_A7" x="6248.8" y="2567.2" width="56.4" height="82.6" class="P2_2_6"/>
		
			<rect id="Z_2_2_A6" x="6668.4" y="2560.3" width="40.5" height="40.4" class="P2_2_5"/>
		
			<rect id="Z_2_2_A5" x="6610.9" y="2449.9" width="40.5" height="86.4" class="P2_2_5"/>
		
			<rect id="Z_2_2_A4" x="6651.4" y="2449.9" width="40.5" height="86.4" class="P2_2_5"/>
		
			<rect id="Z_2_2_A3" x="7184.3" y="2783" width="87.6" height="42" class="P2_2_5"/>
		
			<rect id="Z_2_2_A62" x="7717" y="2131.8" width="42" height="59.8" class="P2_2_6"/>
		
			<rect id="Z_2_2_A60" x="7717" y="2191.7" width="42" height="25.6" class="P2_2_6"/>
		
			<rect id="Z_2_2_A30" x="7277.3" y="2888.7" width="41.4" height="26.6" class="P2_2_6"/>
		
			<rect id="Z_2_2_A80" x="7758.6" y="2780.4" width="65.7" height="40.3" class="P2_2_6"/>
		<polygon id="Z_2_2_A81" points="7906.3,2886.7     7878.4,2886.7 7878.3,2838 7906.3,2838   " class="P2_2_6"/>
		
			<rect id="Z_2_2_A82" x="7908.8" y="2716.7" width="58.4" height="40.3" class="P2_2_6"/>
		
			<rect id="Z_2_2_A83" x="7895.3" y="2443.7" width="72" height="40.3" class="P2_2_6"/>
		
			<rect id="Z_2_2_A84" x="7571" y="2191.6" width="42" height="25.6" class="P2_2_6"/>
		
			<rect id="Z_2_2_A85" x="7570.7" y="3002.9" width="41.9" height="27.8" class="P2_2_6"/>
		
			<rect id="Z_2_2_A86" x="7277" y="2947.6" width="41.4" height="26.6" class="P2_2_6"/>
		
			<rect id="Z_2_2_A87" x="7632.3" y="2946.5" width="41.9" height="27.8" class="P2_2_6"/>
		
			<rect id="Z_2_2_A88" x="6188.2" y="2392.2" width="84.2" height="52.7" class="P2_2_5"/>
		
			<polygon id="Z_2_2_A89" points="    6460.7,1952.9 6460.7,1969.9 6496.9,1969.9 6496.9,1877.9 6437.2,1877.9 6437.2,1952.9   " class="P2_2_5"/>
		
			<rect id="Z_2_2_A90" x="6588.6" y="1996.6" width="44.4" height="91.7" class="P2_2_5"/>
		
			<rect id="Z_2_2_A92" x="7069.2" y="2825.5" width="84.4" height="58.2" class="P2_2_5"/>
		
			<rect id="Z_2_2_A93" x="7184.3" y="2683.5" width="87.6" height="58.2" class="P2_2_5"/>
		
			<rect id="Z_2_2_A94" x="6691.9" y="2449.9" width="40.5" height="86.4" class="P2_2_5"/>
		
			<rect id="Z_2_2_A95" x="6732.4" y="2449.9" width="40.5" height="86.4" class="P2_2_5"/>
		
			<rect id="Z_2_2_A96" x="6570.4" y="2449.9" width="40.5" height="86.4" class="P2_2_5"/>
		
			<rect id="Z_2_2_A97" x="6772.9" y="2449.9" width="63.3" height="86.4" class="P2_2_5"/>
		
			<rect id="Z_2_2_A98" x="6836.3" y="2449.9" width="63.3" height="86.4" class="P2_2_5"/>
		
			<rect id="Z_2_2_A99" x="6899.6" y="2449.9" width="63.3" height="86.4" class="P2_2_5"/>
	</g>
	<g id="Z_2_2_L">
	</g>
	<g id="Z_2_2_I">
		
			<use xlink:href="#escalier" width="132.7" height="132.6" id="sZ_2_2_I16" x="-66.4" y="-66.3" transform="matrix(0.3767 0 0 -0.3767 7221.1348 2499.8723)" style="overflow:visible;"/>
		
			<use xlink:href="#escalier" width="132.7" height="132.6" id="sZ_2_2_I15" x="-66.4" y="-66.3" transform="matrix(0.3767 0 0 -0.3767 6217.0732 2488.3276)" style="overflow:visible;"/>
		
			<use xlink:href="#WC" width="132.7" height="132.6" id="sZ_2_2_I14" x="-66.4" y="-66.3" transform="matrix(0.3767 0 0 -0.3767 6353.6533 2491.9014)" style="overflow:visible;"/>
		
			<use xlink:href="#WC" width="132.7" height="132.6" id="sZ_2_2_I13" x="-66.4" y="-66.3" transform="matrix(0.3767 0 0 -0.3767 6349.4917 2048.2773)" style="overflow:visible;"/>
		
			<use xlink:href="#escalier" width="132.7" height="132.6" id="sZ_2_2_I12" x="-66.4" y="-66.3" transform="matrix(0.3767 0 0 -0.3767 6354.4551 1905.0338)" style="overflow:visible;"/>
		
			<use xlink:href="#escalier" width="132.7" height="132.6" id="sZ_2_2_I11" x="-66.4" y="-66.3" transform="matrix(0.3767 0 0 -0.3767 7189.9399 2063.9158)" style="overflow:visible;"/>
		
			<use xlink:href="#escalier" width="132.7" height="132.6" id="sZ_2_2_I9" x="-66.4" y="-66.3" transform="matrix(0.3767 0 0 -0.3767 7800.6772 2160.7705)" style="overflow:visible;"/>
		
			<use xlink:href="#WC" width="132.7" height="132.6" id="sZ_2_2_I8" x="-66.4" y="-66.3" transform="matrix(0.3767 0 0 -0.3767 7800.8438 2297.0247)" style="overflow:visible;"/>
		
			<use xlink:href="#WC" width="132.7" height="132.6" id="sZ_2_2_I7" x="-66.4" y="-66.3" transform="matrix(0.3767 0 0 -0.3767 7801.4521 2929.4019)" style="overflow:visible;"/>
		
			<use xlink:href="#escalier" width="132.7" height="132.6" id="sZ_2_2_I6" x="-66.4" y="-66.3" transform="matrix(0.3767 0 0 -0.3767 7926.5215 2930.5417)" style="overflow:visible;"/>
		
			<use xlink:href="#escalier" width="132.7" height="132.6" id="sZ_2_2_I5" x="-66.4" y="-66.3" transform="matrix(0.3767 0 0 -0.3767 7229.5713 3065.5127)" style="overflow:visible;"/>
		
			<use xlink:href="#cafe" width="132.7" height="132.6" id="sZ_2_2_A47" x="-66.4" y="-66.3" transform="matrix(0.3767 0 0 -0.3767 7071.4453 2285.2029)" style="overflow:visible;"/>
		
			<use xlink:href="#WC" width="132.7" height="132.6" id="sZ_2_2_I3" x="-66.4" y="-66.3" transform="matrix(0.3767 0 0 -0.3767 7189.9399 2133.0615)" style="overflow:visible;"/>
		
			<use xlink:href="#WC" width="132.7" height="132.6" id="sZ_2_2_I2" x="-66.4" y="-66.3" transform="matrix(0.3767 0 0 -0.3767 7235.4092 2926.1497)" style="overflow:visible;"/>
		
			<use xlink:href="#ascenseur" width="132.7" height="132.6" id="sZ_2_2_I1" x="-66.4" y="-66.3" transform="matrix(0.3767 0 0 -0.3767 7194.4937 2194.2983)" style="overflow:visible;"/>
	</g>
	<g id="Z_2_2_D">
	</g>
	<g id="Z_2_2_R">
		
		
	</g>
</g>
<g id="Repères">
</g>
<symbol id="WC" viewBox="-61 -61 122 122">
	<path style="fill:#009393;" d="M61,0c0-33.7-27.3-61-61-61S-61-33.7-61,0s27.3,61,61,61S61,33.7,61,0z"/>
	<path style="fill:#009393;" d="M0,61c-33.7,0-61-27.3-61-61s27.3-61,61-61c33.7,0,61,27.3,61,61S33.7,61,0,61z M0-52.1   c-28.8,0-52.1,23.3-52.1,52.1S-28.8,52.1,0,52.1c28.8,0,52.1-23.3,52.1-52.1S28.8-52.1,0-52.1z"/>
	<path style="fill:#009393;stroke:#FFFFFF;stroke-width:8;stroke-miterlimit:10;" d="M52.1,0c0-28.8-23.3-52.1-52.1-52.1   S-52.1-28.8-52.1,0S-28.8,52.1,0,52.1S52.1,28.8,52.1,0z"/>
	<g>
		<polygon style="fill:#FFFFFF;" points="4.8,32.5 4.8,-32.7 -1.3,-32.7 -1.3,32.5   "/>
		<path style="fill:#FFFFFF;" d="M1.7-0.1"/>
		<path style="fill:#FFFFFF;" d="M-20.7,22.3c3,0,5.4,2.4,5.4,5.4c0,3-2.4,5.4-5.4,5.4c-3,0-5.4-2.4-5.4-5.4    C-26,24.7-23.6,22.3-20.7,22.3L-20.7,22.3z"/>
		<path style="fill:#FFFFFF;" d="M-20.7,27.7"/>
		<path style="fill:#FFFFFF;" d="M-21.5-11.8v-18.8c0-3.4-5-3.4-5,0v18.8h-6.7l7.2,24.9h-1.2l-4.2-14.2c-1-3.1-5.3-1.8-4.3,1.5    l4.7,15.5c0.5,1.8,2.7,4.9,6.6,4.9h3.5l0,0h3.9c3.8,0,6.1-3.1,6.6-4.9l4.7-15.4C-4.7-2.9-9-4.2-10-1l-4.2,14.2h-1.2l7.2-24.9h-6.7    v-18.8c0-3.3-5-3.3-5,0v18.8L-21.5-11.8L-21.5-11.8z"/>
		<path style="fill:#FFFFFF;" d="M17.7,20.8c-3.8,0-6.8-3.1-6.8-7V-2.8c0-3.2,4.6-3.2,4.7,0v15.2h1.1v-42.1c0-4.3,6.2-4.2,6.2,0    v24.6h1.1v-24.6c0-4.2,6.2-4.3,6.2,0v42.1h1.1V-2.8c0-3.3,4.6-3.3,4.6,0v16.5c0,3.6-2.7,7.1-6.9,7.1L17.7,20.8L17.7,20.8z"/>
		<path style="fill:#FFFFFF;" d="M23.3,22.3c2.9,0,5.4,2.4,5.4,5.4c0,3-2.4,5.4-5.4,5.4c-3,0-5.4-2.4-5.4-5.4    C18,24.7,20.4,22.3,23.3,22.3L23.3,22.3z"/>
		<path style="fill:#FFFFFF;" d="M23.3,27.7"/>
	</g>
</symbol>
<symbol id="ascenseur" viewBox="-61 -61 122 122">
	<path style="fill:#009393;" d="M61,0c0-33.7-27.3-61-61-61S-61-33.7-61,0s27.3,61,61,61S61,33.7,61,0z"/>
	<path style="fill:#009393;" d="M0,61c-33.7,0-61-27.3-61-61s27.3-61,61-61c33.7,0,61,27.3,61,61S33.7,61,0,61z M0-52.1   c-28.8,0-52.1,23.3-52.1,52.1S-28.8,52.1,0,52.1c28.8,0,52.1-23.3,52.1-52.1S28.8-52.1,0-52.1z"/>
	<path style="fill:#009393;stroke:#FFFFFF;stroke-width:8;stroke-miterlimit:10;" d="M52.1,0c0-28.8-23.3-52.1-52.1-52.1   S-52.1-28.8-52.1,0S-28.8,52.1,0,52.1S52.1,28.8,52.1,0z"/>
	<g>
		<path style="fill:#FFFFFF;" d="M18.6,10.1H-18c-3.1,0-5.6-2.5-5.6-5.6v-33.6c0-3.1,2.5-5.6,5.6-5.6h36.6c3.1,0,5.6,2.5,5.6,5.6    V4.5C24.2,7.5,21.7,10.1,18.6,10.1z M19.7-29.2c0-0.6-0.5-1.1-1.1-1.1H-18c-0.6,0-1.1,0.5-1.1,1.1V4.5c0,0.6,0.5,1.1,1.1,1.1h36.6    c0.6,0,1.1-0.5,1.1-1.1V-29.2z"/>
		<path style="fill:#FFFFFF;" d="M-10.2,1.1c1.2,0,2.2-1,2.2-2.2s-1-2.2-2.2-2.2s-2.2,1-2.2,2.2S-11.4,1.1-10.2,1.1z"/>
		<path style="fill:#FFFFFF;" d="M0.3,1.1c1.2,0,2.2-1,2.2-2.2s-1-2.2-2.2-2.2s-2.2,1-2.2,2.2S-0.9,1.1,0.3,1.1z"/>
		<path style="fill:#FFFFFF;" d="M10.8,1.1c1.2,0,2.2-1,2.2-2.2s-1-2.2-2.2-2.2s-2.2,1-2.2,2.2S9.5,1.1,10.8,1.1z"/>
		<path style="fill:#FFFFFF;" d="M-7.2-4.1h-6c-0.8,0-1.5-0.7-1.5-1.6v-8c0-0.7,0.5-1.4,1.1-1.5V-25c0-0.8,0.7-1.5,1.5-1.5    s1.5,0.7,1.5,1.5v9.7h0.7V-25c0-0.8,0.7-1.5,1.5-1.5c0.8,0,1.5,0.7,1.5,1.5v9.8c0.6,0.2,1.1,0.8,1.1,1.5v8    C-5.7-4.9-6.3-4.1-7.2-4.1z"/>
		<path style="fill:#FFFFFF;" d="M3.3-4.1h-6c-0.8,0-1.5-0.7-1.5-1.6v-8c0-0.7,0.5-1.4,1.1-1.5V-25c0-0.8,0.7-1.5,1.5-1.5    s1.5,0.7,1.5,1.5v9.7h0.7V-25c0-0.8,0.7-1.5,1.5-1.5s1.5,0.7,1.5,1.5v9.8c0.6,0.2,1.1,0.8,1.1,1.5v8C4.8-4.9,4.1-4.1,3.3-4.1z"/>
		<path style="fill:#FFFFFF;" d="M13.7-4.1h-6c-0.8,0-1.5-0.7-1.5-1.6v-8c0-0.7,0.5-1.4,1.1-1.5V-25c0-0.8,0.7-1.5,1.5-1.5    s1.5,0.7,1.5,1.5v9.7h0.7V-25c0-0.8,0.7-1.5,1.5-1.5c0.8,0,1.5,0.7,1.5,1.5v9.8c0.6,0.2,1.1,0.8,1.1,1.5v8    C15.2-4.9,14.6-4.1,13.7-4.1z"/>
		<path style="fill:#FFFFFF;" d="M-2.1,28.6l-7.5,7.5c-1.2,1.2-3.1,1.2-4.2,0c0,0,0,0,0,0l-7.5-7.5c-1.2-1.2-1.2-3.1,0-4.2    c1.2-1.2,3.1-1.2,4.2,0l2.4,2.4V16c0-1.6,1.3-3,3-3c1.6,0,3,1.3,3,3v10.7l2.4-2.4c1.2-1.2,3.1-1.2,4.2,0S-0.9,27.4-2.1,28.6z"/>
		<path style="fill:#FFFFFF;" d="M21.8,25.6c-1.2,1.2-3.1,1.2-4.2,0l-2.4-2.4v10.7c0,1.6-1.3,3-3,3c-1.6,0-3-1.3-3-3V23.2l-2.4,2.4    c-1.2,1.2-3.1,1.2-4.2,0c-1.2-1.2-1.2-3.1,0-4.2l7.5-7.5l0,0c0.2-0.2,0.5-0.4,0.7-0.5c1.1-0.6,2.6-0.4,3.5,0.5l0,0l7.5,7.5    C23,22.5,23,24.4,21.8,25.6z"/>
	</g>
</symbol>
<symbol id="cafe" viewBox="-61 -61 122 122">
	<path style="fill:#009393;" d="M61,0c0-33.7-27.3-61-61-61S-61-33.7-61,0s27.3,61,61,61S61,33.7,61,0z"/>
	<path style="fill:#009393;" d="M0,61c-33.7,0-61-27.3-61-61s27.3-61,61-61S61-33.7,61,0S33.7,61,0,61z M0-52.1   c-28.8,0-52.1,23.3-52.1,52.1S-28.8,52.1,0,52.1c28.8,0,52.1-23.3,52.1-52.1S28.8-52.1,0-52.1z"/>
	<path style="fill:none;stroke:#FFFFFF;stroke-width:8;stroke-miterlimit:10;" d="M52.1,0c0-28.8-23.3-52.1-52.1-52.1   S-52.1-28.8-52.1,0S-28.8,52.1,0,52.1S52.1,28.8,52.1,0z"/>
	<g>
		<g>
			<g>
				<path style="fill:#FFFFFF;" d="M-7.8,11.2c-0.3,0-0.6,0.1-0.9,0.4c-0.5,0.5-0.5,1.3,0,1.8c1.6,1.5,1.8,3.6,0.5,5.4      c-2.1,3.3-2,6.4,0.4,8.8c0.5,0.5,1.3,0.5,1.8,0c0.5-0.5,0.5-1.3,0-1.8c-0.6-0.6-2.3-2.3-0.1-5.8c1.8-2.8,1.5-6.2-0.9-8.5      C-7.2,11.3-7.5,11.2-7.8,11.2L-7.8,11.2z"/>
			</g>
		</g>
		<g>
			<g>
				<path style="fill:#FFFFFF;" d="M-1.9,11.2c-0.3,0-0.6,0.1-0.9,0.4c-0.5,0.5-0.5,1.3,0,1.8c1.6,1.5,1.8,3.6,0.5,5.4      c-2.1,3.3-2,6.4,0.4,8.8c0.5,0.5,1.3,0.5,1.8,0c0.5-0.5,0.5-1.3,0-1.8c-0.6-0.6-2.3-2.3-0.1-5.8c1.8-2.8,1.5-6.2-0.9-8.5      C-1.3,11.3-1.6,11.2-1.9,11.2L-1.9,11.2z"/>
			</g>
		</g>
		<g>
			<g>
				<path style="fill:#FFFFFF;" d="M4,11.2c-0.3,0-0.6,0.1-0.9,0.4c-0.5,0.5-0.5,1.3,0,1.8c1.6,1.5,1.8,3.6,0.5,5.4      c-2.1,3.3-2,6.4,0.4,8.8c0.5,0.5,1.3,0.5,1.8,0s0.5-1.3,0-1.8c-0.6-0.6-2.3-2.3-0.1-5.8c1.8-2.8,1.5-6.2-0.9-8.5      C4.6,11.3,4.3,11.2,4,11.2L4,11.2z"/>
			</g>
		</g>
		<path style="fill:#FFFFFF;" d="M-26.6-23.1v-0.8c0-2.1,1.7-3.7,3.7-3.7h42.9c2.1,0,3.7,1.7,3.7,3.7v0.8H-26.6z"/>
		<path style="fill:#FFFFFF;" d="M24.8,6.6h-7.2c-0.1,0-0.1,0-0.2,0c-0.1,0-0.1,0-0.2,0h-38.6c-1.4,0-2.5-1.1-2.5-2.5v-7.8    c0-8.9,6-15.3,14.5-18.1H5.2C13-19.2,18.7-13.7,19.6-6h5.2c2.4,0,4.3,1.9,4.3,4.3v4C29.1,4.7,27.1,6.6,24.8,6.6z M25.8-1.6    c0-0.6-0.5-1.1-1.1-1.1h-5v6.1h5c0.6,0,1.1-0.5,1.1-1.1V-1.6z"/>
	</g>
</symbol>
<symbol id="escalier" viewBox="-61 -61 122 122">
	<path style="fill:#009393;" d="M61,0c0-33.7-27.3-61-61-61S-61-33.7-61,0s27.3,61,61,61S61,33.7,61,0z"/>
	<path style="fill:#009393;" d="M0,61c-33.7,0-61-27.3-61-61s27.3-61,61-61S61-33.7,61,0S33.7,61,0,61z M0-52.1   c-28.8,0-52.1,23.3-52.1,52.1S-28.8,52.1,0,52.1c28.8,0,52.1-23.3,52.1-52.1S28.8-52.1,0-52.1z"/>
	<path style="fill:#009393;stroke:#FFFFFF;stroke-width:8;stroke-miterlimit:10;" d="M52.1,0c0-28.8-23.3-52.1-52.1-52.1   S-52.1-28.8-52.1,0S-28.8,52.1,0,52.1S52.1,28.8,52.1,0z"/>
	<path style="fill:#FFFFFF;" d="M31.1,21.8c0-1.1-0.9-2-2-2h-9.4v-9.4c0-1.1-0.9-2-2-2H8.3l0-9.3C8.3-2,7.3-3,6.2-3h-9.3v-9.4   c0-1.1-0.9-2-2-2h-9.4v-9.4c0-1.1-0.9-2-2-2h-13.1c-1.1,0-2,0.9-2,2v1.7c0,1.1,0.9,2,2,2h9.4v9.4c0,1.1,0.9,2,2,2h9.4v9.4   c0,1.1,0.9,2,2,2h9.4v9.4c0,1.1,0.9,2,2,2H14v9.4c0,1.1,0.9,2,2,2h13.1c1.1,0,2-0.9,2-2V21.8z"/>
</symbol>
<defs id="defs_2_2">
<style type="text/css" id="polygons_css_2_2">.P2_2_0{fill:#6CAFBC;stroke:#888888;stroke-width:10;stroke-linecap:square;}
.P2_2_1{fill:#95B5B7;stroke:#95B5B7;stroke-width:5;stroke-miterlimit:10;}
.P2_2_2{fill:#C0C0C0;stroke:#C0C0C0;stroke-width:5;stroke-linecap:square;}
.P2_2_3{fill:#B8C5C7;}
.P2_2_4{fill:#DAEBEE;stroke:#DAEBEE;stroke-width:5;stroke-linecap:square;}
.P2_2_5{fill:#B6D7DD;stroke:#B8C5C7;stroke-width:5;stroke-linecap:square;}
.P2_2_6{fill:#E260E6;stroke:#D931DF;stroke-width:5;stroke-linecap:square;}
.P2_2_7{fill:#FFED47;stroke:#DFCE31;stroke-width:5;stroke-linecap:square;}
.P2_2_8{fill:#FF0000;}
</style>
</defs>
</svg>
