<?xml version="1.0" encoding="utf-8"?>
<!-- Generator: Adobe Illustrator 18.0.0, SVG Export Plug-In . SVG Version: 6.00 Build 0)  -->
<!DOCTYPE svg PUBLIC "-//W3C//DTD SVG 1.1//EN" "http://www.w3.org/Graphics/SVG/1.1/DTD/svg11.dtd">
<svg xmlns:cc="http://creativecommons.org/ns#" xmlns:dc="http://purl.org/dc/elements/1.1/" xmlns:rdf="http://www.w3.org/1999/02/22-rdf-syntax-ns#" xmlns="http://www.w3.org/2000/svg" xmlns:svg="http://www.w3.org/2000/svg" xmlns:sodipodi="http://sodipodi.sourceforge.net/DTD/sodipodi-0.dtd" xmlns:inkscape="http://www.inkscape.org/namespaces/inkscape" xmlns:xlink="http://www.w3.org/1999/xlink" version="1.1" id="mapsvg_0_5_-1_0_1" x="0px" y="0px" viewBox="0 0 9600 6716" xml:space="preserve">







<g id="Z_5_-1">
	<g id="Z_5_-1_B">
		<path id="Z_5_-1_B8" d="M3376.3,1996.4h488.9l27.4,6    l23.3,9.8l192.2,108.1V2225h80.5l54.1,9.9l46.8,21.1l35.6,28.4l6.6,5.9l27.7,29.8l19.8,33.5l58.7-33.5h396.4l0,562.3    c0,0-71.4,68.6-85.2,93.6c-13.8,25.1-36.3,73.9-38.2,141.1c-89,0-461.5,0-461.5,0s0.7-44.2-29.7-79.1    c-30.3-34.9-79.5-48.1-79.5-48.1h-32h-731.8V1996.4z" class="P5_-1_0"/>
		<path id="Z_5_-1_B9" d="M4437.7,2320l-58.7,33.5    l1.3,67.7h-128.6l5.8-32.8l24,5l20.5-5.2l11.5-22.2l-1.2-17.5l-10.8-17l-16.8-17.5l-18.8-7l-16.2-0.2l-15.8,7.2l-9,12.8l-1.5,16.8    l12.5,21.5l-32.9,7h-60.6l-15.5,13.5l-110-114l-27,28.5l111,119l-124.2-0.5l0.5-146l39.7-1l37.5,1l53.5-47.4v-104.7l-192.2-108.1    l-23.3-9.8l-27.4-6h-488.9v993.4H4108h32c0,0,49.2,13.1,79.5,48.1c30.3,34.9,29.7,79.1,29.7,79.1s372.5,0,461.5,0    c2-67.2,24.4-116.1,38.2-141.1c13.8-25.1,85.2-93.6,85.2-93.6V2320H4437.7z M4088.5,2640.6l-112.2-114.3l0.2-60l124.4,0.5l9,11    l-41.9,39l32.9,33.7l36.8-32.9l7.2,7.1l-1.7,115.7L4088.5,2640.6z M4381.6,2499.5h-118.9l-34.1,37v104.1l-17.7,0V2525l40.7-41.7    l129.7,0.4L4381.6,2499.5z" class="P5_-1_1"/>
		<polygon id="Z_5_-1_B10" points="4513,2937.9 4673,2778.9 4672.9,2759.5 4672,2571.9 4526,2439.9     4500,2439.9 4500,2484.9 4381.3,2483.6 4381.6,2499.5 4262.7,2499.5 4228.7,2536.6 4228.7,2640.6 4215,2646.9 4212,2841.9     4214.7,2844.3 4319,2937.9   " class="P5_-1_2"/>
		
			<rect id="Z_5_-1_B7" x="3527.9" y="2568.7" width="212.6" height="181.8" class="P5_-1_3"/>
		
			<rect id="Z_5_-1_B6" x="3381.4" y="2568.7" width="105.8" height="179.3" class="P5_-1_3"/>
		<polygon id="Z_5_-1_B5" points="3705.3,2272.4     3381.4,2272.4 3381.4,2507.7 3705.3,2507.7 3719,2487 3719,2291.1   " class="P5_-1_3"/>
		<polygon id="Z_5_-1_B4" points="3865,2001.4     3381.4,2001.4 3381.4,2211.3 3796.2,2211.3 3796.2,2263.4 4054.5,2263.4 4102.9,2219.2 4102.9,2123.2 3913.2,2016.7 3891,2007.1       " class="P5_-1_3"/>
		
			<rect id="Z_5_-1_B3" x="4649.5" y="2324.9" width="179.6" height="147.3" class="P5_-1_3"/>
		<polygon id="Z_5_-1_B2" points="4496.6,2324.9     4496.6,2400.7 4596.5,2400.7 4596.5,2438.3 4631.2,2472.2 4649.5,2472.2 4649.5,2400.7 4649.5,2324.9   " class="P5_-1_3"/>
		<polygon id="Z_5_-1_B1" points="4047.4,2729.7     4047.4,2729.7 4046.7,2729.7 4046.7,2674 4079.5,2642.6 3968.4,2528.4 3968.4,2431.3 3968.4,2292.7 3781.3,2292.7 3781.3,2431.3     3781.3,2568.7 3740.5,2568.7 3740.5,2750.5 3929.1,2750.5 3929.1,2835.6 4047.4,2835.6 4074.9,2835.6 4074.9,2798.3     4113.5,2798.3 4113.5,2729.7   " class="P5_-1_3"/>
	</g>
	<g id="Z_5_-1_A">
		
			<rect id="Z_5_-1_A16" x="3383.7" y="2878.1" width="144.2" height="106.7" class="P5_-1_4"/>
		
			<rect id="Z_5_-1_A15" x="3383.7" y="2748" width="103.6" height="130.1" class="P5_-1_4"/>
		
			<rect id="Z_5_-1_A14" x="3527.9" y="2878.1" width="106.6" height="106.7" class="P5_-1_4"/>
		
			<rect id="Z_5_-1_A13" x="3527.9" y="2750.5" width="74.9" height="85.1" class="P5_-1_4"/>
		
			<rect id="Z_5_-1_A12" x="3602.8" y="2750.5" width="74.9" height="85.1" class="P5_-1_4"/>
		
			<rect id="Z_5_-1_A11" x="3677.7" y="2750.5" width="125.7" height="85.1" class="P5_-1_4"/>
		
			<rect id="Z_5_-1_A10" x="3803.4" y="2750.5" width="125.7" height="85.1" class="P5_-1_4"/>
		
			<rect id="Z_5_-1_A9" x="4723.4" y="2686.3" width="105.8" height="125.7" class="P5_-1_4"/>
		<polygon id="Z_5_-1_A8" points="4829.1,2560.5     4829.1,2686.3 4723.4,2686.3 4723.4,2560.6   " class="P5_-1_4"/>
		<polygon id="Z_5_-1_A7" points="4829.1,2472.1     4829.1,2560.5 4723.4,2560.6 4723.4,2472.2   " class="P5_-1_4"/>
		
			<rect id="Z_5_-1_A6" x="3634.5" y="2878.1" width="84.4" height="106.7" class="P5_-1_4"/>
		
			<rect id="Z_5_-1_A5" x="3719" y="2878.1" width="84.4" height="106.7" class="P5_-1_4"/>
		
			<rect id="Z_5_-1_A4" x="3803.4" y="2878.1" width="85.7" height="106.7" class="P5_-1_4"/>
		
			<rect id="Z_5_-1_A3" x="3889.1" y="2878.1" width="142.2" height="106.7" class="P5_-1_4"/>
		<path id="Z_5_-1_A2" d="M4719.8,2811.9v-52.7l-46.9,0.2l0.1,19.4l-160,159h-194l-104.3-93.6    c0,68.2,0,157.1,0,181.7c36.9,36.9,39.4,86.3,39.4,86.3h451.7c0,0,6.4-74.3,30-121.6c30.1-60.5,93.3-110.3,93.3-110.3v-68.4    H4719.8z" class="P5_-1_5"/>
		<path id="Z_5_-1_A1" d="M4424.2,2863.1c71.4,0,132.9-42.3,160.8-103.2c10.3-22.4,16-47.3,16-73.6    c0-97.6-79.2-176.8-176.8-176.8s-176.8,79.2-176.8,176.8c0,26.8,6,52.3,16.7,75.1C4292.3,2821.4,4353.4,2863.1,4424.2,2863.1z" class="P5_-1_6"/>
	</g>
	<g id="Z_5_-1_L">
		<text transform="matrix(1 0 0 1 4275.9932 2709.8879)" style="fill:#6CAFBC; font-family:'Arial';font-weight:bold; font-size:48;">AUDITORIUM</text>
		<text transform="matrix(1 0 0 1 4403.1763 2977.9175)" style="fill:#6CAFBC; font-family:'Arial';font-weight:bold; font-size:48;">HUB</text>
		<text transform="matrix(1 0 0 1 3536.2219 2731.4072)" style="fill:#FFFFFF; font-family:'Arial';font-weight:bold; font-size:44;">BUSINESS CENTER</text>
	</g>
	<g id="Z_5_-1_I">
		
			<use xlink:href="#entree" width="50" height="50" id="sZ_5_-1_I6" x="-25" y="-25" transform="matrix(1 0 0 -1 4587.0703 2836.7727)" style="overflow:visible;"/>
		
			<use xlink:href="#escalier" width="50" height="50" id="sZ_5_-1_I5" x="-25" y="-25" transform="matrix(1 0 0 -1 4268.9995 2349.8892)" style="overflow:visible;"/>
		
			<use xlink:href="#ascenseur" width="50" height="50" id="sZ_5_-1_I4" x="-25" y="-25" transform="matrix(1 0 0 -1 4107.9995 2515.8896)" style="overflow:visible;"/>
		
			<use xlink:href="#escalator" width="50" height="50" id="sZ_5_-1_I3" x="-25" y="-25" transform="matrix(1 0 0 -1 4067.9998 2353.8899)" style="overflow:visible;"/>
		
			<use xlink:href="#WC" width="50" height="50" id="sZ_5_-1_I1" x="-25" y="-25" transform="matrix(1 0 0 -1 4568.5107 2360.4844)" style="overflow:visible;"/>
	</g>
	<g id="Z_5_-1_D">
	</g>
	<g id="Z_5_-1_R">
		
	</g>
</g>
<defs id="defs_5_-1">
<style type="text/css" id="css-common_5_-1">image,text,tspan,use {pointer-events:none;}</style>
<style type="text/css" id="polygons_css_5_-1">.P5_-1_0{fill:none;stroke:#888888;stroke-width:10;stroke-linecap:square;}
.P5_-1_1{fill:#6CAFBC;stroke:#888888;stroke-width:10;stroke-linecap:square;}
.P5_-1_2{fill:#C0C0C0;}
.P5_-1_3{fill:#C0C0C0;stroke:#C0C0C0;stroke-width:5;stroke-linecap:square;}
.P5_-1_4{fill:#E260E6;stroke:#D931DF;stroke-width:5;stroke-linecap:square;}
.P5_-1_5{fill:#FFED47;}
.P5_-1_6{fill:#FFFFFF;}
</style>
</defs>
<symbol id="WC" viewBox="-61 -61 122 122">
	<path style="fill:#009393;" d="M61,0c0-33.7-27.3-61-61-61S-61-33.7-61,0s27.3,61,61,61S61,33.7,61,0z"/>
	<path style="fill:#009393;" d="M0,61c-33.7,0-61-27.3-61-61s27.3-61,61-61c33.7,0,61,27.3,61,61S33.7,61,0,61z M0-52.1   c-28.8,0-52.1,23.3-52.1,52.1S-28.8,52.1,0,52.1c28.8,0,52.1-23.3,52.1-52.1S28.8-52.1,0-52.1z"/>
	<path style="fill:#009393;stroke:#FFFFFF;stroke-width:8;stroke-miterlimit:10;" d="M52.1,0c0-28.8-23.3-52.1-52.1-52.1   S-52.1-28.8-52.1,0S-28.8,52.1,0,52.1S52.1,28.8,52.1,0z"/>
	<g>
		<polygon style="fill:#FFFFFF;" points="4.8,32.5 4.8,-32.7 -1.3,-32.7 -1.3,32.5   "/>
		<path style="fill:#FFFFFF;" d="M1.7-0.1"/>
		<path style="fill:#FFFFFF;" d="M-20.7,22.3c3,0,5.4,2.4,5.4,5.4c0,3-2.4,5.4-5.4,5.4c-3,0-5.4-2.4-5.4-5.4    C-26,24.7-23.6,22.3-20.7,22.3L-20.7,22.3z"/>
		<path style="fill:#FFFFFF;" d="M-20.7,27.7"/>
		<path style="fill:#FFFFFF;" d="M-21.5-11.8v-18.8c0-3.4-5-3.4-5,0v18.8h-6.7l7.2,24.9h-1.2l-4.2-14.2c-1-3.1-5.3-1.8-4.3,1.5    l4.7,15.5c0.5,1.8,2.7,4.9,6.6,4.9h3.5l0,0h3.9c3.8,0,6.1-3.1,6.6-4.9l4.7-15.4C-4.7-2.9-9-4.2-10-1l-4.2,14.2h-1.2l7.2-24.9h-6.7    v-18.8c0-3.3-5-3.3-5,0v18.8L-21.5-11.8L-21.5-11.8z"/>
		<path style="fill:#FFFFFF;" d="M17.7,20.8c-3.8,0-6.8-3.1-6.8-7V-2.8c0-3.2,4.6-3.2,4.7,0v15.2h1.1v-42.1c0-4.3,6.2-4.2,6.2,0    v24.6h1.1v-24.6c0-4.2,6.2-4.3,6.2,0v42.1h1.1V-2.8c0-3.3,4.6-3.3,4.6,0v16.5c0,3.6-2.7,7.1-6.9,7.1L17.7,20.8L17.7,20.8z"/>
		<path style="fill:#FFFFFF;" d="M23.3,22.3c2.9,0,5.4,2.4,5.4,5.4c0,3-2.4,5.4-5.4,5.4c-3,0-5.4-2.4-5.4-5.4    C18,24.7,20.4,22.3,23.3,22.3L23.3,22.3z"/>
		<path style="fill:#FFFFFF;" d="M23.3,27.7"/>
	</g>
</symbol>
<symbol id="ascenseur" viewBox="-61 -61 122 122">
	<path style="fill:#009393;" d="M61,0c0-33.7-27.3-61-61-61S-61-33.7-61,0s27.3,61,61,61S61,33.7,61,0z"/>
	<path style="fill:#009393;" d="M0,61c-33.7,0-61-27.3-61-61s27.3-61,61-61c33.7,0,61,27.3,61,61S33.7,61,0,61z M0-52.1   c-28.8,0-52.1,23.3-52.1,52.1S-28.8,52.1,0,52.1c28.8,0,52.1-23.3,52.1-52.1S28.8-52.1,0-52.1z"/>
	<path style="fill:#009393;stroke:#FFFFFF;stroke-width:8;stroke-miterlimit:10;" d="M52.1,0c0-28.8-23.3-52.1-52.1-52.1   S-52.1-28.8-52.1,0S-28.8,52.1,0,52.1S52.1,28.8,52.1,0z"/>
	<g>
		<path style="fill:#FFFFFF;" d="M18.6,10.1H-18c-3.1,0-5.6-2.5-5.6-5.6v-33.6c0-3.1,2.5-5.6,5.6-5.6h36.6c3.1,0,5.6,2.5,5.6,5.6    V4.5C24.2,7.5,21.7,10.1,18.6,10.1z M19.7-29.2c0-0.6-0.5-1.1-1.1-1.1H-18c-0.6,0-1.1,0.5-1.1,1.1V4.5c0,0.6,0.5,1.1,1.1,1.1h36.6    c0.6,0,1.1-0.5,1.1-1.1V-29.2z"/>
		<path style="fill:#FFFFFF;" d="M-10.2,1.1c1.2,0,2.2-1,2.2-2.2s-1-2.2-2.2-2.2s-2.2,1-2.2,2.2S-11.4,1.1-10.2,1.1z"/>
		<path style="fill:#FFFFFF;" d="M0.3,1.1c1.2,0,2.2-1,2.2-2.2s-1-2.2-2.2-2.2s-2.2,1-2.2,2.2S-0.9,1.1,0.3,1.1z"/>
		<path style="fill:#FFFFFF;" d="M10.8,1.1c1.2,0,2.2-1,2.2-2.2s-1-2.2-2.2-2.2s-2.2,1-2.2,2.2S9.5,1.1,10.8,1.1z"/>
		<path style="fill:#FFFFFF;" d="M-7.2-4.1h-6c-0.8,0-1.5-0.7-1.5-1.6v-8c0-0.7,0.5-1.4,1.1-1.5V-25c0-0.8,0.7-1.5,1.5-1.5    s1.5,0.7,1.5,1.5v9.7h0.7V-25c0-0.8,0.7-1.5,1.5-1.5c0.8,0,1.5,0.7,1.5,1.5v9.8c0.6,0.2,1.1,0.8,1.1,1.5v8    C-5.7-4.9-6.3-4.1-7.2-4.1z"/>
		<path style="fill:#FFFFFF;" d="M3.3-4.1h-6c-0.8,0-1.5-0.7-1.5-1.6v-8c0-0.7,0.5-1.4,1.1-1.5V-25c0-0.8,0.7-1.5,1.5-1.5    s1.5,0.7,1.5,1.5v9.7h0.7V-25c0-0.8,0.7-1.5,1.5-1.5s1.5,0.7,1.5,1.5v9.8c0.6,0.2,1.1,0.8,1.1,1.5v8C4.8-4.9,4.1-4.1,3.3-4.1z"/>
		<path style="fill:#FFFFFF;" d="M13.7-4.1h-6c-0.8,0-1.5-0.7-1.5-1.6v-8c0-0.7,0.5-1.4,1.1-1.5V-25c0-0.8,0.7-1.5,1.5-1.5    s1.5,0.7,1.5,1.5v9.7h0.7V-25c0-0.8,0.7-1.5,1.5-1.5c0.8,0,1.5,0.7,1.5,1.5v9.8c0.6,0.2,1.1,0.8,1.1,1.5v8    C15.2-4.9,14.6-4.1,13.7-4.1z"/>
		<path style="fill:#FFFFFF;" d="M-2.1,28.6l-7.5,7.5c-1.2,1.2-3.1,1.2-4.2,0c0,0,0,0,0,0l-7.5-7.5c-1.2-1.2-1.2-3.1,0-4.2    c1.2-1.2,3.1-1.2,4.2,0l2.4,2.4V16c0-1.6,1.3-3,3-3c1.6,0,3,1.3,3,3v10.7l2.4-2.4c1.2-1.2,3.1-1.2,4.2,0S-0.9,27.4-2.1,28.6z"/>
		<path style="fill:#FFFFFF;" d="M21.8,25.6c-1.2,1.2-3.1,1.2-4.2,0l-2.4-2.4v10.7c0,1.6-1.3,3-3,3c-1.6,0-3-1.3-3-3V23.2l-2.4,2.4    c-1.2,1.2-3.1,1.2-4.2,0c-1.2-1.2-1.2-3.1,0-4.2l7.5-7.5l0,0c0.2-0.2,0.5-0.4,0.7-0.5c1.1-0.6,2.6-0.4,3.5,0.5l0,0l7.5,7.5    C23,22.5,23,24.4,21.8,25.6z"/>
	</g>
</symbol>
<symbol id="entree" viewBox="-61 -61 122 122">
	<path style="fill:#009393;" d="M61,0c0-33.7-27.3-61-61-61S-61-33.7-61,0s27.3,61,61,61S61,33.7,61,0z"/>
	<path style="fill:#009393;" d="M0,61c-33.7,0-61-27.3-61-61s27.3-61,61-61c33.7,0,61,27.3,61,61S33.7,61,0,61z M0-52.1   c-28.8,0-52.1,23.3-52.1,52.1S-28.8,52.1,0,52.1c28.8,0,52.1-23.3,52.1-52.1S28.8-52.1,0-52.1z"/>
	<path style="fill:#009393;stroke:#FFFFFF;stroke-width:8;stroke-miterlimit:10;" d="M52.1,0c0-28.8-23.3-52.1-52.1-52.1   S-52.1-28.8-52.1,0S-28.8,52.1,0,52.1S52.1,28.8,52.1,0z"/>
	<g>
		<path style="fill:#FFFFFF;" d="M4.9,24.2V-28l12.9-4.4H21v60.8L4.9,24.2z M7.2-5c-0.5,0-1,0.7-1,1.7s0.4,1.7,1,1.7s1-0.7,1-1.7    S7.7-5,7.2-5z"/>
		<path style="fill:#FFFFFF;" d="M-21.1,28.4v-60.8h3.3L-4.9-28v52.3L-21.1,28.4z M-8.2-3.4c0,0.9,0.4,1.7,1,1.7s1-0.7,1-1.7    S-6.7-5-7.3-5S-8.2-4.3-8.2-3.4z"/>
		<path style="fill:#FFFFFF;" d="M-25.4,32v-64.4c1.3,0,2.3,0,3.6,0l0,61.4h43.6v-61.4h3.6V32H-25.4z"/>
	</g>
</symbol>
<symbol id="escalator" viewBox="-61 -61 122 122">
	<path style="fill:#009393;" d="M61,0c0-33.7-27.3-61-61-61S-61-33.7-61,0s27.3,61,61,61S61,33.7,61,0z"/>
	<path style="fill:#009393;" d="M0,61c-33.7,0-61-27.3-61-61s27.3-61,61-61c33.7,0,61,27.3,61,61S33.7,61,0,61z M0-52.1   c-28.8,0-52.1,23.3-52.1,52.1S-28.8,52.1,0,52.1c28.8,0,52.1-23.3,52.1-52.1S28.8-52.1,0-52.1z"/>
	<path style="fill:#009393;stroke:#FFFFFF;stroke-width:8;stroke-miterlimit:10;" d="M52.1,0c0-28.8-23.3-52.1-52.1-52.1   S-52.1-28.8-52.1,0S-28.8,52.1,0,52.1S52.1,28.8,52.1,0z"/>
	<g>
		<path style="fill:#FFFFFF;" d="M-5.4,18.6c2.6,0,4.7,2.1,4.7,4.7c0,2.6-2.1,4.7-4.7,4.7c-2.6,0-4.7-2.1-4.7-4.7    C-10.1,20.7-8,18.6-5.4,18.6L-5.4,18.6z"/>
		<path style="fill:#FFFFFF;" d="M-5.4,23.3"/>
		<path style="fill:#FFFFFF;" d="M27.2,22.9H16.2c-2.3,0-5.2-0.9-6.9-2.6L-0.8,10.1v3c0,6.3-9.3,6.3-9.3,0V1h0l-8.8-8.8    c-0.8-0.8-0.9-0.9-2.6-0.9c0,0-5.4,0-5.4,0c-5.4,0-8.6-4.9-8.7-9c0-4.1,3.3-9.3,9.2-9.3c0,0,7.3,0,9.6,0c2.3,0,5,0.9,7.3,3L18.6,4    c0.6,0.5,0.9,0.7,2,0.7c0,0,3.9,0,6.9,0c3.3,0,8,3.8,8,9.2C35.5,19.3,30.8,22.9,27.2,22.9z M26.7,9.4h-5.9c-2.5,0-3.6-0.3-5.1-1.8    l-28.3-28.3c-1.1-1.2-2.6-1.6-4.4-1.6h-9.3c-2.4,0-4.5,2-4.5,4.7c0,2.7,2,4.2,4.1,4.2h6.4c1.9,0,3.1,0.5,4.2,1.6l28.8,28.8    c1.2,1.2,2.4,1.3,4.4,1.3h9.8c2.4,0,4-2.7,4-4.3C30.8,12.4,29.6,9.4,26.7,9.4z"/>
	</g>
</symbol>
<symbol id="escalier" viewBox="-61 -61 122 122">
	<path style="fill:#009393;" d="M61,0c0-33.7-27.3-61-61-61S-61-33.7-61,0s27.3,61,61,61S61,33.7,61,0z"/>
	<path style="fill:#009393;" d="M0,61c-33.7,0-61-27.3-61-61s27.3-61,61-61S61-33.7,61,0S33.7,61,0,61z M0-52.1   c-28.8,0-52.1,23.3-52.1,52.1S-28.8,52.1,0,52.1c28.8,0,52.1-23.3,52.1-52.1S28.8-52.1,0-52.1z"/>
	<path style="fill:#009393;stroke:#FFFFFF;stroke-width:8;stroke-miterlimit:10;" d="M52.1,0c0-28.8-23.3-52.1-52.1-52.1   S-52.1-28.8-52.1,0S-28.8,52.1,0,52.1S52.1,28.8,52.1,0z"/>
	<path style="fill:#FFFFFF;" d="M31.1,21.8c0-1.1-0.9-2-2-2h-9.4v-9.4c0-1.1-0.9-2-2-2H8.3l0-9.3C8.3-2,7.3-3,6.2-3h-9.3v-9.4   c0-1.1-0.9-2-2-2h-9.4v-9.4c0-1.1-0.9-2-2-2h-13.1c-1.1,0-2,0.9-2,2v1.7c0,1.1,0.9,2,2,2h9.4v9.4c0,1.1,0.9,2,2,2h9.4v9.4   c0,1.1,0.9,2,2,2h9.4v9.4c0,1.1,0.9,2,2,2H14v9.4c0,1.1,0.9,2,2,2h13.1c1.1,0,2-0.9,2-2V21.8z"/>
</symbol>
</svg>
