<?xml version="1.0" encoding="utf-8"?>
<!-- Generator: Adobe Illustrator 17.1.0, SVG Export Plug-In . SVG Version: 6.00 Build 0)  -->
<!DOCTYPE svg PUBLIC "-//W3C//DTD SVG 1.1//EN" "http://www.w3.org/Graphics/SVG/1.1/DTD/svg11.dtd">
<svg version="1.1" id="Calque_1" xmlns="http://www.w3.org/2000/svg" xmlns:xlink="http://www.w3.org/1999/xlink" x="0px" y="0px"
	 viewBox="0 0 132.7 132.6" style="enable-background:new 0 0 132.7 132.6;" xml:space="preserve">
<style type="text/css">
	.st0{fill:#009497;}
	.st1{fill:#009497;stroke:#FFFFFF;stroke-width:8;stroke-miterlimit:10;}
	.st2{fill:#FFFFFF;}
</style>
<g>
	<circle class="st0" cx="66.4" cy="66" r="61"/>
	<path class="st0" d="M66.4,5c-33.7,0-61,27.3-61,61s27.3,61,61,61s61-27.3,61-61S100.1,5,66.4,5z M66.4,118.1
		c-28.8,0-52.1-23.3-52.1-52.1s23.3-52.1,52.1-52.1s52.1,23.3,52.1,52.1S95.2,118.1,66.4,118.1z"/>
	<circle class="st1" cx="66.4" cy="66" r="52.1"/>
	<g>
		<g>
			<path class="st2" d="M94.5,91.3v-3.4c0-1.4-0.4-3.6-0.9-4.8l-0.7-1.8h1c1.3,0,2.3-1,2.3-2.3s-1-2.3-2.3-2.3h-2.7l-2-5.2
				c-0.5-1.3-2-2.6-3.3-3c0,0-3.4-1-10.5-1c-7.1,0-10.5,1-10.5,1c-1.3,0.4-2.8,1.7-3.3,3l-2,5.2h-2.7c-1.3,0-2.3,1-2.3,2.3
				s1,2.3,2.3,2.3h1L57,83c-0.5,1.3-0.9,3.5-0.9,4.8v10.8c0,1.6,1.3,2.9,2.9,2.9c1.6,0,2.9-1.3,2.9-2.9v-1.7h26.7v1.7
				c0,1.6,1.3,2.9,2.9,2.9c1.6,0,2.9-1.3,2.9-2.9v-4 M61.8,79.6l2.3-6.4c0.2-0.4,0.7-0.8,1.1-0.8h20c0.5,0,1,0.4,1.1,0.8l2.3,6.4
				c0.2,0.4-0.1,0.8-0.5,0.8H62.4C61.9,80.4,61.7,80,61.8,79.6z M65.4,88.8c0,0.7-0.5,1.2-1.2,1.2h-3.5c-0.6,0-1.2-0.5-1.2-1.2v-2.2
				c0-0.7,0.5-1.2,1.2-1.2l3.5,0.4c0.6,0,1.2,0.5,1.2,1.2V88.8z M91.1,88.8c0,0.7-0.5,1.2-1.2,1.2h-3.5c-0.7,0-1.2-0.5-1.2-1.2v-1.9
				c0-0.7,0.5-1.2,1.2-1.2l3.5-0.4c0.7,0,1.2,0.5,1.2,1.2V88.8L91.1,88.8z"/>
		</g>
		<g>
			<path class="st2" d="M54.4,34h-13c-2.7,0-4.2,1.5-4.2,4.2v41.9c0,2.7,1.5,4.2,4,4.2c2.5,0,4-1.6,4-4.2V66.1h9.7
				c10,0,16.9-6.6,16.9-15.9C71.7,40.6,64.6,34,54.4,34z M54.2,59.4l-9,0V40.7h9c5.3,0,9.1,3.9,9.1,9.3
				C63.3,55.4,59.5,59.4,54.2,59.4z"/>
		</g>
	</g>
</g>
</svg>
