<?xml version="1.0" encoding="utf-8"?>
<!-- Generator: Adobe Illustrator 17.1.0, SVG Export Plug-In . SVG Version: 6.00 Build 0)  -->
<!DOCTYPE svg PUBLIC "-//W3C//DTD SVG 1.1//EN" "http://www.w3.org/Graphics/SVG/1.1/DTD/svg11.dtd">
<svg version="1.1" id="Calque_1" xmlns="http://www.w3.org/2000/svg" xmlns:xlink="http://www.w3.org/1999/xlink" x="0px" y="0px"
	 viewBox="0 0 132.7 132.6" style="enable-background:new 0 0 132.7 132.6;" xml:space="preserve">
<style type="text/css">
	.st0{fill:#009497;}
	.st1{fill:#009497;stroke:#FFFFFF;stroke-width:8;stroke-miterlimit:10;}
	.st2{fill:#FFFFFF;}
</style>
<g>
	<circle class="st0" cx="66.4" cy="65.5" r="61"/>
	<path class="st0" d="M66.4,4.5c-33.7,0-61,27.3-61,61s27.3,61,61,61s61-27.3,61-61S100.1,4.5,66.4,4.5z M66.4,117.6
		c-28.8,0-52.1-23.3-52.1-52.1s23.3-52.1,52.1-52.1s52.1,23.3,52.1,52.1S95.2,117.6,66.4,117.6z"/>
	<circle class="st1" cx="66.4" cy="65.5" r="52.1"/>
	<g>
		<g>
			<path class="st2" d="M99.5,71h-1.1v-3.4c0-0.4-0.4-0.8-0.8-0.8c-0.4,0-0.8,0.4-0.8,0.8V71h-4.4v-3.4c0-0.4-0.4-0.8-0.8-0.8
				c-0.4,0-0.8,0.4-0.8,0.8V71h-1.1c-0.4,0-0.8,0.4-0.8,0.8l0.6,5.9c0,0.4,0.4,0.8,0.8,0.8h1.6l0,2.7c0,0.7,0.5,1.2,1.2,1.3v4.8
				c0,0.4-0.2,1.3-1.2,1.4H83v-3.1c0-1.3-0.4-3.3-0.8-4.4l-0.6-1.7h0.9c1.2,0,2.1-0.9,2.1-2.1s-0.9-2.1-2.1-2.1H80l-1.8-4.7
				c-0.5-1.2-1.8-2.4-3-2.8c0,0-3.2-0.9-9.7-0.9s-9.7,0.9-9.7,0.9c-1.2,0.3-2.6,1.6-3,2.8l-1.8,4.7h-2.5c-1.2,0-2.1,0.9-2.1,2.1
				s0.9,2.1,2.1,2.1h0.9l-0.6,1.7c-0.5,1.2-0.8,3.2-0.8,4.4v10c0,1.5,1.2,2.7,2.7,2.7c1.5,0,2.7-1.2,2.7-2.7v-1.5h24.5v1.5
				c0,1.5,1.2,2.7,2.7,2.7c1.5,0,2.7-1.2,2.7-2.7v-3.7l10.6,0c1.3,0,2.6-1.3,2.7-2.5l0-6.9c0.7,0,1.2-0.6,1.2-1.3l0-2.7h1.4
				c0.4,0,0.8-0.4,0.8-0.8l0.5-5.9C100.3,71.4,99.9,71,99.5,71z M53.1,77.9l2.2-5.8c0.1-0.4,0.6-0.7,1-0.7h18.4c0.4,0,0.9,0.3,1,0.7
				l2.2,5.8c0.1,0.4-0.1,0.7-0.5,0.7H53.6C53.1,78.6,52.9,78.3,53.1,77.9z M56.3,86.3c0,0.6-0.5,1.1-1.1,1.1H52
				c-0.6,0-1.1-0.5-1.1-1.1v-2c0-0.6,0.5-1.1,1.1-1.1l3.3,0.3c0.6,0,1.1,0.5,1.1,1.1V86.3z M80,86.3c0,0.6-0.5,1.1-1.1,1.1h-3.3
				c-0.6,0-1.1-0.5-1.1-1.1v-1.7c0-0.6,0.5-1.1,1.1-1.1l3.3-0.3c0.6,0,1.1,0.5,1.1,1.1V86.3L80,86.3z"/>
		</g>
		<g>
			<path class="st2" d="M51.1,36.1h-12c-2.5,0-3.9,1.4-3.9,3.9v38.5c0,2.4,1.4,3.9,3.7,3.9c2.3,0,3.7-1.5,3.7-3.9V65.5h8.9
				c9.1,0,15.5-6,15.5-14.6C67.1,42.1,60.5,36.1,51.1,36.1z M50.9,59.3l-8.3,0V42.2h8.3c4.8,0,8.4,3.6,8.4,8.6
				C59.3,55.7,55.8,59.3,50.9,59.3z"/>
		</g>
	</g>
</g>
</svg>
