<?xml version="1.0" encoding="utf-8"?>
<!-- Generator: Adobe Illustrator 17.1.0, SVG Export Plug-In . SVG Version: 6.00 Build 0)  -->
<!DOCTYPE svg PUBLIC "-//W3C//DTD SVG 1.1//EN" "http://www.w3.org/Graphics/SVG/1.1/DTD/svg11.dtd">
<svg version="1.1" id="Calque_1" xmlns="http://www.w3.org/2000/svg" xmlns:xlink="http://www.w3.org/1999/xlink" x="0px" y="0px"
	 viewBox="0 0 132.7 132.6" style="enable-background:new 0 0 132.7 132.6;" xml:space="preserve">
<style type="text/css">
	.st0{fill:#404040;}
	.st1{fill:#909090;stroke:#FFFFFF;stroke-width:8;stroke-miterlimit:10;}
	.st2{fill:#FFFFFF;}
</style>
<g>
	<g>
		<circle class="st0" cx="66.4" cy="66.3" r="61"/>
		<path class="st0" d="M66.4,5.3c-33.7,0-61,27.3-61,61s27.3,61,61,61s61-27.3,61-61S100.1,5.3,66.4,5.3z M66.4,118.4
			c-28.8,0-52.1-23.3-52.1-52.1s23.3-52.1,52.1-52.1s52.1,23.3,52.1,52.1S95.2,118.4,66.4,118.4z"/>
		<circle class="st1" cx="66.4" cy="66.3" r="52.1"/>
	</g>
	<g>
		<path class="st2" d="M80.6,80.3v13.4l4.2,4.1V87l8.2,8.3l2.5-2.5l-8.2-8.3h10.9l-4.2-4.2L80.6,80.3L80.6,80.3z"/>
		<path class="st2" d="M52.6,52.3V38.9l-4.2-4.1v10.8l-8.2-8.3l-2.5,2.5l8.2,8.3H35.1l4.2,4.2H52.6L52.6,52.3z"/>
		<path class="st2" d="M80.6,52.3H94l4.1-4.2H87.4l8.3-8.2l-2.5-2.5l-8.3,8.2V34.8l-4.2,4.2V52.3L80.6,52.3z"/>
		<path class="st2" d="M52.6,80.3H39.3l-4.1,4.2h10.8l-8.3,8.2l2.5,2.5l8.3-8.2v10.9l4.2-4.2V80.3L52.6,80.3z"/>
		<path class="st2" d="M57.6,55.2c-2,0-3.6,1.6-3.6,3.6c0,2,1.6,3.6,3.6,3.6c2,0,3.6-1.6,3.6-3.6C61.2,56.9,59.6,55.2,57.6,55.2z
			 M57.6,63c-4.3,0-7.7,6.9-7.7,15.4h15.4C65.3,69.9,61.8,63,57.6,63z"/>
		<path class="st2" d="M76.2,52.7c-1.9,0-3.4,1.5-3.4,3.4c0,1.9,1.5,3.4,3.4,3.4c1.9,0,3.4-1.5,3.4-3.3
			C79.6,54.2,78.1,52.7,76.2,52.7z M76.2,59.9c-4,0-7.2,6.4-7.2,14.4h14.4C83.4,66.4,80.2,59.9,76.2,59.9L76.2,59.9z"/>
		<path class="st2" d="M66.6,49.4c-1.7,0-3,1.3-3,3c0,1.7,1.3,3,3,3c1.7,0,3-1.3,3-3C69.6,50.7,68.2,49.4,66.6,49.4z M66.6,55.9
			c-2.8,0-4.8,3.1-5.8,7.9c1.2,1,2.5,2.9,3.2,4.9l5,0.1c0.5-2.6,1.6-5.1,2.8-6.6C70.7,58.2,69,55.9,66.6,55.9L66.6,55.9z"/>
	</g>
</g>
</svg>
