<?xml version="1.0" encoding="utf-8"?>
<!-- Generator: Adobe Illustrator 17.1.0, SVG Export Plug-In . SVG Version: 6.00 Build 0)  -->
<!DOCTYPE svg PUBLIC "-//W3C//DTD SVG 1.1//EN" "http://www.w3.org/Graphics/SVG/1.1/DTD/svg11.dtd">
<svg version="1.1" id="Calque_1" xmlns="http://www.w3.org/2000/svg" xmlns:xlink="http://www.w3.org/1999/xlink" x="0px" y="0px"
	 viewBox="0 0 132.7 132.6" style="enable-background:new 0 0 132.7 132.6;" xml:space="preserve">
<style type="text/css">
	.st0{fill:#009497;}
	.st1{fill:#009497;stroke:#FFFFFF;stroke-width:8;stroke-miterlimit:10;}
	.st2{fill:#FFFFFF;}
</style>
<g>
	<circle class="st0" cx="66.4" cy="66.3" r="61"/>
	<path class="st0" d="M66.4,5.3c-33.7,0-61,27.3-61,61s27.3,61,61,61c33.7,0,61-27.3,61-61S100.1,5.3,66.4,5.3z M66.4,118.4
		c-28.8,0-52.1-23.3-52.1-52.1s23.3-52.1,52.1-52.1c28.8,0,52.1,23.3,52.1,52.1S95.2,118.4,66.4,118.4z"/>
	<circle class="st1" cx="66.4" cy="66.3" r="52.1"/>
	<g>
		<polygon class="st2" points="71.1,33.9 71.1,99 65,99 65,33.9 		"/>
		<path class="st2" d="M68.1,66.4"/>
		<path class="st2" d="M45.7,44c3,0,5.4-2.4,5.4-5.4c0-3-2.4-5.4-5.4-5.4c-3,0-5.4,2.4-5.4,5.4C40.3,41.6,42.7,44,45.7,44L45.7,44z"
			/>
		<path class="st2" d="M45.7,38.6"/>
		<path class="st2" d="M44.9,78.1v18.8c0,3.4-5,3.4-5,0V78.1h-6.7l7.2-24.9h-1.2L35,67.4c-1,3.1-5.3,1.8-4.3-1.5l4.7-15.5
			c0.5-1.8,2.7-4.9,6.6-4.9h3.5l0,0h3.9c3.8,0,6.1,3.1,6.6,4.9l4.7,15.4c0.9,3.3-3.3,4.7-4.3,1.5l-4.2-14.2h-1.2l7.2,24.9h-6.7v18.8
			c0,3.3-5,3.3-5,0V78.1L44.9,78.1L44.9,78.1z"/>
		<path class="st2" d="M84,45.5c-3.8,0-6.8,3.1-6.8,7v16.6c0,3.2,4.6,3.2,4.7,0V54H83v42.1c0,4.3,6.2,4.2,6.2,0V71.4h1.1v24.6
			c0,4.2,6.2,4.3,6.2,0V54h1.1v15.2c0,3.3,4.6,3.3,4.6,0V52.7c0-3.6-2.7-7.1-6.9-7.1L84,45.5L84,45.5z"/>
		<path class="st2" d="M89.7,44c2.9,0,5.4-2.4,5.4-5.4c0-3-2.4-5.4-5.4-5.4c-3,0-5.4,2.4-5.4,5.4C84.3,41.6,86.7,44,89.7,44L89.7,44
			z"/>
		<path class="st2" d="M89.7,38.6"/>
	</g>
</g>
</svg>
