<?xml version="1.0" encoding="utf-8"?>
<!-- Generator: Adobe Illustrator 18.0.0, SVG Export Plug-In . SVG Version: 6.00 Build 0)  -->
<!DOCTYPE svg PUBLIC "-//W3C//DTD SVG 1.1//EN" "http://www.w3.org/Graphics/SVG/1.1/DTD/svg11.dtd">
<svg xmlns:dc="http://purl.org/dc/elements/1.1/" xmlns="http://www.w3.org/2000/svg" xmlns:svg="http://www.w3.org/2000/svg" xmlns:rdf="http://www.w3.org/1999/02/22-rdf-syntax-ns#" xmlns:cc="http://creativecommons.org/ns#" xmlns:xlink="http://www.w3.org/1999/xlink" version="1.1" id="mapsvg_1_3_-4_0_1" x="0px" y="0px" viewBox="0 0 12700 7500" xml:space="preserve">





<g id="Z_3_-4">
	<g id="Z_3_-4_B">
		<path id="Z_3_-4_B23" d="M5901,4149.6l-195.9-161.5    h0l-699.9-577l-672,815.2l93.3,76.9l-139,168.6l231.8,191.1h0l153,126.1h701.6v0l0,0l384.4-466.3L5901,4149.6z M5901,4149.6    l-195.9-161.5h0l-699.9-577l-672,815.2l93.3,76.9l-139,168.6l231.8,191.1h0l153,126.1h701.6v0l0,0l384.4-466.3L5901,4149.6z" class="P3_-4_0"/>
		<path id="Z_3_-4_B22" d="M5901,4149.6l-195.9-161.5h0l-699.9-577l-672,815.2l93.3,76.9l-139,168.6    l231.8,191.1h0l153,126.1h701.6v0l0,0l384.4-466.3L5901,4149.6z" class="P3_-4_1"/>
		
			<rect id="Z_3_-4_B21" x="5268.2" y="4354.6" transform="matrix(0.6361 -0.7716 0.7716 0.6361 -1367.2769 5930.8857)" width="671.6" height="120.8" class="P3_-4_2"/>
		<polygon id="Z_3_-4_B20" points="4953.8,4789 5112.3,4789 4938.1,4645.8 4938.8,4644.9 4828.3,4553.8     4771.5,4622.7 4770.9,4622.3 4649.2,4770 4672.3,4789 4672.3,4789 4820,4789 4820,4789 4820,4789 4953.8,4789   " class="P3_-4_3"/>
		
			<rect id="Z_3_-4_B19" x="4933" y="3859.5" transform="matrix(0.6361 -0.7716 0.7716 0.6361 -1194.7869 5258.6504)" width="89.1" height="72.9" class="P3_-4_3"/>
		
			<rect id="Z_3_-4_B18" x="5807.1" y="4073.1" transform="matrix(0.6361 -0.7716 0.7716 0.6361 -1065.677 6007.4868)" width="57.8" height="120.8" class="P3_-4_3"/>
		
			<rect id="Z_3_-4_B17" x="4582.8" y="3906.3" transform="matrix(-0.6361 0.7716 -0.7716 -0.6361 10784.8643 3044.7454)" width="183.4" height="318.6" class="P3_-4_2"/>
		<polygon id="Z_3_-4_B16" points="5659.3,4096.8 5183,3704.1 5183,3704.1 4933.3,3498.4 4851.2,3598     5100.8,3803.8 5100.8,3803.8 5577.1,4196.5   " class="P3_-4_2"/>
		
			<rect id="Z_3_-4_B15" x="5114.3" y="3359.7" transform="matrix(-0.6361 0.7716 -0.7716 -0.6361 11253.7842 1934.1577)" width="113" height="522.4" class="P3_-4_3"/>
		<polygon id="Z_3_-4_B24" points="5415.5,4198.7 5104,3942 4989.3,4081.1 5107,4178.1 5107,4178.1     5301,4338.1   " class="P3_-4_2"/>
		<polygon id="Z_3_-4_B14" points="5324.6,4357.5 5394.9,4415.5 5453.5,4344.5 5453.5,4344.5 5498.7,4289.6     5428.5,4231.7   " class="P3_-4_2"/>
		<polygon id="Z_3_-4_B13" points="4920.3,4022.1 4977,3953.3 4921.1,3907.2 4977.8,3838.4 4784.9,3678.5     4671,3816.6   " class="P3_-4_2"/>
		
			<rect id="Z_3_-4_B12" x="4515.7" y="4062.7" transform="matrix(-0.7716 -0.6361 0.6361 -0.7716 5696.8408 10175.1201)" width="318.6" height="4.4" class="P3_-4_4"/>
		
			<rect id="Z_3_-4_B11" x="4703.2" y="3824.6" transform="matrix(-0.7716 -0.6361 0.6361 -0.7716 6117.5815 9850.0176)" width="247.7" height="4.4" class="P3_-4_3"/>
		
			<rect id="Z_3_-4_B9" x="4451.9" y="4351.7" transform="matrix(-0.6361 0.7716 -0.7716 -0.6361 10896.2441 4033.1445)" width="90.3" height="468.7" class="P3_-4_2"/>
		
			<rect id="Z_3_-4_B8" x="4498.6" y="4281.9" transform="matrix(-0.6361 0.7716 -0.7716 -0.6361 10870.0088 3588.7104)" width="180.2" height="151.6" class="P3_-4_2"/>
		
			<rect id="Z_3_-4_B6" x="4511.3" y="4357.5" transform="matrix(-0.7716 -0.6361 0.6361 -0.7716 5353.5171 10641.4326)" width="151.6" height="4.4" class="P3_-4_3"/>
		
			<rect id="Z_3_-4_B5" x="5002.9" y="4134.8" transform="matrix(-0.7716 -0.6361 0.6361 -0.7716 6589.3267 10639.8096)" width="403.5" height="4.4" class="P3_-4_3"/>
		<path id="Z_3_-4_B3" d="M5404.8,4751.5l32.1-39l-93.2-76.8l-32.1,39c0,0-29.3,40-87.7,45.7    c-35.4,3.4-65.7-12.3-84.2-25.2l-19-15.7l0,0l0,0l-348.9-287.6l-47.1,57.1l-68.5,83.1l113.1,93.3l58.4-70.9l245.1,202.1l0,0    l39.4,32.4h261.6l6-7.3L5404.8,4751.5z" class="P3_-4_2"/>
		
			<rect id="Z_3_-4_B4" x="4696.1" y="4507.8" transform="matrix(-0.7716 -0.6361 0.6361 -0.7716 5580.9434 11023.7002)" width="146.6" height="4.4" class="P3_-4_3"/>
		<polygon id="Z_3_-4_B25" points="4515.4,4189 4458.3,4259.3 4432.7,4238.6 4469.7,4192.8 4432.7,4162.8     4399.4,4203.9 4384.1,4191 4437.3,4125.3   " class="P3_-4_5"/>
		<polygon id="Z_3_-4_B27" points="5522.7,4198.7 5462.2,4148.4 5362.8,4270 5379.9,4283.9 5427.6,4225.5     5439.2,4234.9 5466.2,4201.4 5459.7,4196.1 5463,4192.2 5501.1,4225.5   " class="P3_-4_5"/>
		
			<rect id="Z_3_-4_B28" x="5497.8" y="4158" transform="matrix(-0.7716 -0.6361 0.6361 -0.7716 7174.4507 10901.4521)" width="92.9" height="9.6" class="P3_-4_3"/>
		
			<rect id="Z_3_-4_B29" x="5290" y="3959.8" transform="matrix(-0.7716 -0.6361 0.6361 -0.7716 7222.4565 10517.1406)" width="418.5" height="4.4" class="P3_-4_3"/>
		<polygon id="Z_3_-4_B30" points="4427.6,4111.8 4333.2,4226.4 4398.5,4280.8 4469.7,4192.8 4432.7,4162.8     4399.4,4203.9 4384.1,4191 4437.3,4125.3 4515.4,4189 4458.3,4259.3 4461,4261.5 4520.3,4188.2   " class="P3_-4_3"/>
		<polygon id="Z_3_-4_B31" points="5462.2,4148.4 5522.7,4198.7 5525.7,4195 5462.1,4142.2 5425.5,4186.5     5425.5,4186.4 5359.2,4266.8 5362.9,4269.8   " class="P3_-4_3"/>
		<polygon id="Z_3_-4_B32" points="5463,4192.2 5459.7,4196.1 5466.2,4201.4 5439.2,4234.9 5427.6,4225.5     5379.9,4283.8 5383.3,4286.6 5428.5,4231.7 5481.4,4275.6 5513.7,4235.7 5501.1,4225.5   " class="P3_-4_3"/>
		<polygon id="Z_3_-4_B33" points="4928.4,4156.2 4812.8,4296.4 5123.6,4552.6 5239.5,4412.7   " class="P3_-4_2"/>
		<polygon id="Z_3_-4_B34" points="5262.5,4431.7 5147.7,4572.5 5217.3,4629.8 5332.9,4489.6   " class="P3_-4_2"/>
		
			<rect id="Z_3_-4_B7" x="5196.8" y="4527.6" transform="matrix(-0.7716 -0.6361 0.6361 -0.7716 6404.8252 11359.208)" width="89.6" height="4.4" class="P3_-4_4"/>
		
			<rect id="Z_3_-4_B35" x="4825.7" y="4351" transform="matrix(-0.7716 -0.6361 0.6361 -0.7716 6137.5391 10909.9668)" width="403.2" height="4.4" class="P3_-4_4"/>
	</g>
	<g id="Z_3_-4_I">
		
			<use xlink:href="#parking_voiture_handicape" width="132.7" height="132.6" id="sZ_3_-4_I16" x="-66.4" y="-66.3" transform="matrix(0.3767 0 0 -0.3767 5189.6626 4190.0107)" style="overflow:visible;"/>
		
			<use xlink:href="#parking_voiture_handicape" width="132.7" height="132.6" id="sZ_3_-4_I15" x="-66.4" y="-66.3" transform="matrix(0.3767 0 0 -0.3767 5440.3818 4023.6814)" style="overflow:visible;"/>
		
			<use xlink:href="#parking_voiture_handicape" width="132.7" height="132.6" id="sZ_3_-4_I14" x="-66.4" y="-66.3" transform="matrix(0.3767 0 0 -0.3767 5406.9277 4331.8643)" style="overflow:visible;"/>
		
			<use xlink:href="#parking_voiture_handicape" width="132.7" height="132.6" id="sZ_3_-4_I13" x="-66.4" y="-66.3" transform="matrix(0.3767 0 0 -0.3767 4579.4092 4294.6914)" style="overflow:visible;"/>
		
			<use xlink:href="#parking_voiture_handicape" width="132.7" height="132.6" id="sZ_3_-4_I12" x="-66.4" y="-66.3" transform="matrix(0.3767 0 0 -0.3767 4518.1909 4363.8262)" style="overflow:visible;"/>
		
			<use xlink:href="#parking_voiture_handicape" width="132.7" height="132.6" id="sZ_3_-4_I11" x="-66.4" y="-66.3" transform="matrix(0.3767 0 0 -0.3767 4346.5229 4458.4653)" style="overflow:visible;"/>
		
			<use xlink:href="#parking_voiture_handicape" width="132.7" height="132.6" id="sZ_3_-4_I10" x="-66.4" y="-66.3" transform="matrix(0.3767 0 0 -0.3767 4399.6606 4505.5928)" style="overflow:visible;"/>
		
			<use xlink:href="#parking_velo" width="132.7" height="132.6" id="sZ_3_-4_I9" x="-66.4" y="-66.3" transform="matrix(0.3767 0 0 -0.3767 5088.4585 3990.4373)" style="overflow:visible;"/>
		
			<use xlink:href="#parking_velo" width="132.7" height="132.6" id="sZ_3_-4_I8" x="-66.4" y="-66.3" transform="matrix(0.3767 0 0 -0.3767 5375.4731 4369.665)" style="overflow:visible;"/>
		
			<use xlink:href="#parking_velo" width="132.7" height="132.6" id="sZ_3_-4_I7" x="-66.4" y="-66.3" transform="matrix(0.3767 0 0 -0.3767 5528.0874 4087.8074)" style="overflow:visible;"/>
		
			<use xlink:href="#parking_velo" width="132.7" height="132.6" id="sZ_3_-4_I6" x="-66.4" y="-66.3" transform="matrix(0.3767 0 0 -0.3767 4654.8979 4358.2969)" style="overflow:visible;"/>
		
			<use xlink:href="#escalier" width="132.7" height="132.6" id="sZ_3_-4_I5" x="-66.4" y="-66.3" transform="matrix(0.3767 0 0 -0.3767 5859.5991 4148.1753)" style="overflow:visible;"/>
		
			<use xlink:href="#escalier" width="132.7" height="132.6" id="sZ_3_-4_I4" x="-66.4" y="-66.3" transform="matrix(0.3767 0 0 -0.3767 4744.2354 4737.4771)" style="overflow:visible;"/>
		
			<use xlink:href="#escalier" width="132.7" height="132.6" id="sZ_3_-4_I3" x="-66.4" y="-66.3" transform="matrix(0.3767 0 0 -0.3767 4962.2466 3885.8728)" style="overflow:visible;"/>
		
			<use xlink:href="#ascenseur" width="132.7" height="132.6" id="sZ_3_-4_I2" x="-66.4" y="-66.3" transform="matrix(0.3767 0 0 -0.3767 4432.3726 4197.6548)" style="overflow:visible;"/>
		
			<use xlink:href="#ascenseur" width="132.7" height="132.6" id="sZ_3_-4_I1" x="-66.4" y="-66.3" transform="matrix(0.3767 0 0 -0.3767 5473.7065 4237.6841)" style="overflow:visible;"/>
	</g>
	<g id="Z_3_-4_D">
		<g id="Z_3_-4_D3">
			<g>
				
					<line style="fill:none;stroke:#5E5656;stroke-width:3;stroke-linecap:square;" x1="5601.7" y1="3934.1" x2="5696.3" y2="4012.1"/>
				<g>
					<polygon style="fill:#5E5656;" points="5680.9,4015.2 5680.7,4012.2 5695.4,4011.4 5693.5,3996.7 5696.5,3996.3 5698.8,4014.2             "/>
				</g>
			</g>
		</g>
		<g id="Z_3_-4_D2">
			<g>
				<line style="fill:none;stroke:#5E5656;stroke-width:3;stroke-linecap:square;" x1="5563.3" y1="3985.7" x2="5658" y2="4063.7"/>
				<g>
					<polygon style="fill:#5E5656;" points="5563.2,4001.5 5566.2,4001.1 5564.2,3986.4 5579,3985.6 5578.8,3982.6 5560.8,3983.6             "/>
				</g>
			</g>
		</g>
		
			<line id="Z_3_-4_D1" style="fill:none;stroke:#5E5656;stroke-width:3;stroke-linecap:square;" x1="5548" y1="3871.2" x2="5531.5" y2="3969.8"/>
	</g>
	<g id="Z_3_-4_A">
		<rect id="Z_3_-4_A1" x="5122" y="4260" width="10" height="12" class="P3_-4_1"/>
	</g>
	<g id="Z_3_-4_R">
		
		
	</g>
</g>
<symbol id="ascenseur" viewBox="-61 -61 122 122">
	<path style="fill:#009393;" d="M61,0c0-33.7-27.3-61-61-61S-61-33.7-61,0s27.3,61,61,61S61,33.7,61,0z"/>
	<path style="fill:#009393;" d="M0,61c-33.7,0-61-27.3-61-61s27.3-61,61-61c33.7,0,61,27.3,61,61S33.7,61,0,61z M0-52.1   c-28.8,0-52.1,23.3-52.1,52.1S-28.8,52.1,0,52.1c28.8,0,52.1-23.3,52.1-52.1S28.8-52.1,0-52.1z"/>
	<path style="fill:#009393;stroke:#FFFFFF;stroke-width:8;stroke-miterlimit:10;" d="M52.1,0c0-28.8-23.3-52.1-52.1-52.1   S-52.1-28.8-52.1,0S-28.8,52.1,0,52.1S52.1,28.8,52.1,0z"/>
	<g>
		<path style="fill:#FFFFFF;" d="M18.6,10.1H-18c-3.1,0-5.6-2.5-5.6-5.6v-33.6c0-3.1,2.5-5.6,5.6-5.6h36.6c3.1,0,5.6,2.5,5.6,5.6    V4.5C24.2,7.5,21.7,10.1,18.6,10.1z M19.7-29.2c0-0.6-0.5-1.1-1.1-1.1H-18c-0.6,0-1.1,0.5-1.1,1.1V4.5c0,0.6,0.5,1.1,1.1,1.1h36.6    c0.6,0,1.1-0.5,1.1-1.1V-29.2z"/>
		<path style="fill:#FFFFFF;" d="M-10.2,1.1c1.2,0,2.2-1,2.2-2.2s-1-2.2-2.2-2.2s-2.2,1-2.2,2.2S-11.4,1.1-10.2,1.1z"/>
		<path style="fill:#FFFFFF;" d="M0.3,1.1c1.2,0,2.2-1,2.2-2.2s-1-2.2-2.2-2.2s-2.2,1-2.2,2.2S-0.9,1.1,0.3,1.1z"/>
		<path style="fill:#FFFFFF;" d="M10.8,1.1c1.2,0,2.2-1,2.2-2.2s-1-2.2-2.2-2.2s-2.2,1-2.2,2.2S9.5,1.1,10.8,1.1z"/>
		<path style="fill:#FFFFFF;" d="M-7.2-4.1h-6c-0.8,0-1.5-0.7-1.5-1.6v-8c0-0.7,0.5-1.4,1.1-1.5V-25c0-0.8,0.7-1.5,1.5-1.5    s1.5,0.7,1.5,1.5v9.7h0.7V-25c0-0.8,0.7-1.5,1.5-1.5c0.8,0,1.5,0.7,1.5,1.5v9.8c0.6,0.2,1.1,0.8,1.1,1.5v8    C-5.7-4.9-6.3-4.1-7.2-4.1z"/>
		<path style="fill:#FFFFFF;" d="M3.3-4.1h-6c-0.8,0-1.5-0.7-1.5-1.6v-8c0-0.7,0.5-1.4,1.1-1.5V-25c0-0.8,0.7-1.5,1.5-1.5    s1.5,0.7,1.5,1.5v9.7h0.7V-25c0-0.8,0.7-1.5,1.5-1.5s1.5,0.7,1.5,1.5v9.8c0.6,0.2,1.1,0.8,1.1,1.5v8C4.8-4.9,4.1-4.1,3.3-4.1z"/>
		<path style="fill:#FFFFFF;" d="M13.7-4.1h-6c-0.8,0-1.5-0.7-1.5-1.6v-8c0-0.7,0.5-1.4,1.1-1.5V-25c0-0.8,0.7-1.5,1.5-1.5    s1.5,0.7,1.5,1.5v9.7h0.7V-25c0-0.8,0.7-1.5,1.5-1.5c0.8,0,1.5,0.7,1.5,1.5v9.8c0.6,0.2,1.1,0.8,1.1,1.5v8    C15.2-4.9,14.6-4.1,13.7-4.1z"/>
		<path style="fill:#FFFFFF;" d="M-2.1,28.6l-7.5,7.5c-1.2,1.2-3.1,1.2-4.2,0c0,0,0,0,0,0l-7.5-7.5c-1.2-1.2-1.2-3.1,0-4.2    c1.2-1.2,3.1-1.2,4.2,0l2.4,2.4V16c0-1.6,1.3-3,3-3c1.6,0,3,1.3,3,3v10.7l2.4-2.4c1.2-1.2,3.1-1.2,4.2,0S-0.9,27.4-2.1,28.6z"/>
		<path style="fill:#FFFFFF;" d="M21.8,25.6c-1.2,1.2-3.1,1.2-4.2,0l-2.4-2.4v10.7c0,1.6-1.3,3-3,3c-1.6,0-3-1.3-3-3V23.2l-2.4,2.4    c-1.2,1.2-3.1,1.2-4.2,0c-1.2-1.2-1.2-3.1,0-4.2l7.5-7.5l0,0c0.2-0.2,0.5-0.4,0.7-0.5c1.1-0.6,2.6-0.4,3.5,0.5l0,0l7.5,7.5    C23,22.5,23,24.4,21.8,25.6z"/>
	</g>
</symbol>
<symbol id="escalier" viewBox="-61 -61 122 122">
	<path style="fill:#009393;" d="M61,0c0-33.7-27.3-61-61-61S-61-33.7-61,0s27.3,61,61,61S61,33.7,61,0z"/>
	<path style="fill:#009393;" d="M0,61c-33.7,0-61-27.3-61-61s27.3-61,61-61S61-33.7,61,0S33.7,61,0,61z M0-52.1   c-28.8,0-52.1,23.3-52.1,52.1S-28.8,52.1,0,52.1c28.8,0,52.1-23.3,52.1-52.1S28.8-52.1,0-52.1z"/>
	<path style="fill:#009393;stroke:#FFFFFF;stroke-width:8;stroke-miterlimit:10;" d="M52.1,0c0-28.8-23.3-52.1-52.1-52.1   S-52.1-28.8-52.1,0S-28.8,52.1,0,52.1S52.1,28.8,52.1,0z"/>
	<path style="fill:#FFFFFF;" d="M31.1,21.8c0-1.1-0.9-2-2-2h-9.4v-9.4c0-1.1-0.9-2-2-2H8.3l0-9.3C8.3-2,7.3-3,6.2-3h-9.3v-9.4   c0-1.1-0.9-2-2-2h-9.4v-9.4c0-1.1-0.9-2-2-2h-13.1c-1.1,0-2,0.9-2,2v1.7c0,1.1,0.9,2,2,2h9.4v9.4c0,1.1,0.9,2,2,2h9.4v9.4   c0,1.1,0.9,2,2,2h9.4v9.4c0,1.1,0.9,2,2,2H14v9.4c0,1.1,0.9,2,2,2h13.1c1.1,0,2-0.9,2-2V21.8z"/>
</symbol>
<symbol id="parking_velo" viewBox="-61 -61 122 122">
	<path style="fill:#009393;" d="M61,0c0-33.7-27.3-61-61-61S-61-33.7-61,0s27.3,61,61,61S61,33.7,61,0z"/>
	<path style="fill:#009393;" d="M0,61c-33.7,0-61-27.3-61-61s27.3-61,61-61S61-33.7,61,0S33.7,61,0,61z M0-52.1   c-28.8,0-52.1,23.3-52.1,52.1S-28.8,52.1,0,52.1c28.8,0,52.1-23.3,52.1-52.1S28.8-52.1,0-52.1z"/>
	<path style="fill:#009393;stroke:#FFFFFF;stroke-width:8;stroke-miterlimit:10;" d="M52.1,0c0-28.8-23.3-52.1-52.1-52.1   S-52.1-28.8-52.1,0S-28.8,52.1,0,52.1S52.1,28.8,52.1,0z"/>
	<g>
		<g>
			<path style="fill:#FFFFFF;" d="M-14.6,30.7h-12.5c-2.6,0-4.1-1.4-4.1-4.1v-40.2c0-2.5,1.4-4.1,3.8-4.1c2.4,0,3.9,1.5,3.9,4.1     v13.5h9.3C-4.7-0.1,2,6.2,2,15.2C2,24.3-4.8,30.7-14.6,30.7z M-14.9,6.4l-8.7,0v17.9h8.7c5.1,0,8.7-3.8,8.7-9     C-6.1,10.1-9.8,6.4-14.9,6.4z"/>
		</g>
		<g>
			<g>
				<path style="fill:#FFFFFF;" d="M-9.8-34.3c-5.6,0-10.1,4.5-10.1,10.1s4.5,10.1,10.1,10.1c5.6,0,10.1-4.5,10.1-10.1      S-4.2-34.3-9.8-34.3z"/>
			</g>
			<g>
				<path style="fill:#FFFFFF;" d="M21.7-34.3c-5.6,0-10.1,4.5-10.1,10.1s4.5,10.1,10.1,10.1s10.1-4.5,10.1-10.1      S27.3-34.3,21.7-34.3z"/>
			</g>
			<g>
				<path style="fill:#FFFFFF;" d="M21.7-22.4c1,0,1.8-0.8,1.8-1.8s-0.8-1.8-1.8-1.8s-1.8,0.8-1.8,1.8S20.7-22.4,21.7-22.4z"/>
			</g>
			<g>
				<path style="fill:#FFFFFF;" d="M-9.8-22.4c1,0,1.8-0.8,1.8-1.8s-0.8-1.8-1.8-1.8s-1.8,0.8-1.8,1.8S-10.8-22.4-9.8-22.4z"/>
			</g>
			<g>
				<path style="fill:#FFFFFF;" d="M21.7-25.4c-0.5,0-0.9,0.3-1.1,0.8l-5.1,13.9L5.1-25c-0.2-0.3-0.6-0.5-1-0.5h-14      c-0.5,0-0.9,0.3-1.1,0.7c-0.2,0.4-0.2,0.9,0.1,1.2l8.5,10.9c0.2,0.2,0.4,0.3,0.6,0.4l17.1,5.1c0,0,0,0,0.1,0c0.1,0,0.3,0,0.4,0      c0.2,0,0.3-0.1,0.5-0.2c0.1-0.1,0.2-0.1,0.3-0.2l0,0c0,0,0,0,0,0c0.1-0.1,0.2-0.2,0.2-0.4l5.9-16c0.2-0.6-0.1-1.3-0.7-1.5      C22-25.4,21.8-25.4,21.7-25.4z M-7.4-23.1h11l9.2,12.7l-13.4-4L-7.4-23.1z"/>
			</g>
			<g>
				<path style="fill:#FFFFFF;" d="M4.2-25.4c-0.4,0-0.9,0.3-1.1,0.7l-6.5,13.9c-0.3,0.6,0,1.3,0.6,1.6c0.6,0.3,1.3,0,1.6-0.6      l6.5-13.9c0.3-0.6,0-1.3-0.6-1.6C4.5-25.4,4.4-25.4,4.2-25.4z"/>
			</g>
			<g>
				<path style="fill:#FFFFFF;" d="M-5-11.5c-0.5,0-0.9,0.3-1.1,0.7c-0.2,0.6,0,1.3,0.7,1.5l5.3,2.2c0.6,0.2,1.3,0,1.5-0.7      c0.2-0.6,0-1.3-0.6-1.5l-5.3-2.2C-4.7-11.5-4.8-11.5-5-11.5z"/>
			</g>
			<g>
				<path style="fill:#FFFFFF;" d="M15.5-9.7c-0.2,0-0.4,0.1-0.6,0.2c-0.6,0.4-0.7,1.1-0.4,1.6L16-5.5l-0.4,1.6L12-4.3      c-0.6-0.1-1.2,0.4-1.3,1.1c-0.1,0.6,0.4,1.2,1.1,1.3l4.7,0.5c0.6,0.1,1.1-0.3,1.3-0.9l0.7-3.1c0.1-0.3,0-0.6-0.2-0.9l-1.8-2.8      C16.3-9.5,15.9-9.7,15.5-9.7z"/>
			</g>
		</g>
	</g>
</symbol>
<symbol id="parking_voiture_handicape" viewBox="-61 -61 122 122">
	<path style="fill:#009393;" d="M61,0c0-33.7-27.3-61-61-61S-61-33.7-61,0s27.3,61,61,61S61,33.7,61,0z"/>
	<path style="fill:#009393;" d="M0,61c-33.7,0-61-27.3-61-61s27.3-61,61-61S61-33.7,61,0S33.7,61,0,61z M0-52.1   c-28.8,0-52.1,23.3-52.1,52.1S-28.8,52.1,0,52.1c28.8,0,52.1-23.3,52.1-52.1S28.8-52.1,0-52.1z"/>
	<path style="fill:#009393;stroke:#FFFFFF;stroke-width:8;stroke-miterlimit:10;" d="M52.1,0c0-28.8-23.3-52.1-52.1-52.1   S-52.1-28.8-52.1,0S-28.8,52.1,0,52.1S52.1,28.8,52.1,0z"/>
	<g>
		<g>
			<path style="fill:#FFFFFF;" d="M-12.1,31h-12.5c-2.6,0-4-1.4-4-4v-40c0-2.5,1.4-4,3.8-4c2.4,0,3.8,1.5,3.8,4V0.4h9.3     c9.5,0,16.1,6.3,16.1,15.2C4.4,24.6-2.4,31-12.1,31z M-12.3,6.8l-8.6,0v17.8h8.6c5,0,8.7-3.7,8.7-8.9C-3.6,10.5-7.3,6.8-12.3,6.8     z"/>
		</g>
		<g>
			<path style="fill:#FFFFFF;" d="M14.3-7.8c0-1.1,0-2,0-3.1c0.5,0,0.8,0,1.2,0c2.8,0,5.6,0,8.4,0c1.2,0,2.1-0.5,2.7-1.5     c2.1-3.7,4.2-7.3,6.3-11c0.2-0.4,0.4-0.9,0.5-1.4c0.1-1-0.3-1.8-1.2-2.3c-0.8-0.4-1.9-0.2-2.6,0.5c-0.3,0.3-0.6,0.7-0.8,1     c-1.5,2.6-3.1,5.2-4.5,7.9c-0.3,0.6-0.7,0.8-1.3,0.8c-3.9,0-7.7,0-11.6,0c-3,0-4.4,1.3-4.7,4.3C6.4-8.9,6.2-5.1,6-1.4     C5.9,0.9,7.4,2.7,9.5,2.9c2.3,0.1,4-1.4,4.2-3.8C13.8-2,13.9-3,14-4.2c2.2,0,4.4,0,6.5,0c0.4,0,0.9,0,1.3-0.1     c1-0.2,1.6-1,1.5-1.8c-0.1-0.9-0.7-1.6-1.7-1.6c-1.6-0.1-3.1,0-4.7,0C16-7.8,15.1-7.8,14.3-7.8z"/>
			<path style="fill:#FFFFFF;" d="M23.8-21.5c0.7-1.2,1.3-2.2,1.8-3.2c0.1-0.2,0.1-0.6-0.1-0.9c-3-6.3-10.4-9.7-17.2-7.9     c-7,1.8-11.7,8.2-11.3,15.3c0.3,4.9,2.5,8.8,6.4,11.6c0.2,0.1,0.3,0.2,0.6,0.3c0.1-1.1,0.2-2.2,0.2-3.2c0-0.3-0.3-0.7-0.5-1     c-6.3-6.3-3.9-17,4.6-19.8c6.2-2.1,13.1,1.4,15.1,7.7C23.5-22.3,23.6-22,23.8-21.5z"/>
			<path style="fill:#FFFFFF;" d="M9.5,11.6c2.2,0,4-1.7,4-4c0-2.2-1.8-4-4-4c-2.1,0-4,1.8-4,3.9C5.5,9.8,7.3,11.6,9.5,11.6z"/>
		</g>
	</g>
</symbol>
<defs id="defs_3_-4">
<style type="text/css" id="polygons_css_3_-4">.P3_-4_0{fill:#FFFFFF;stroke:#888888;stroke-width:10;stroke-linecap:square;}
.P3_-4_1{fill:#FFFFFF;}
.P3_-4_2{fill:#CAEFF0;}
.P3_-4_3{fill:#C0C0C0;}
.P3_-4_4{fill:#78D6D9;}
.P3_-4_5{fill:#95B5B7;}
.P3_-4_6{fill:#FF0000;}
</style>
</defs>
</svg>
