<?xml version="1.0" encoding="utf-8"?>
<!-- Generator: Adobe Illustrator 20.0.0, SVG Export Plug-In . SVG Version: 6.00 Build 0)  -->
<svg xmlns:cc="http://creativecommons.org/ns#" xmlns:dc="http://purl.org/dc/elements/1.1/" xmlns:rdf="http://www.w3.org/1999/02/22-rdf-syntax-ns#" xmlns="http://www.w3.org/2000/svg" xmlns:svg="http://www.w3.org/2000/svg" xmlns:xlink="http://www.w3.org/1999/xlink" version="1.1" id="mapsvg_1_6_4_0_1" x="0px" y="0px" viewBox="0 0 12700 7500" xml:space="preserve">





<g id="Z_6_4">
	<g id="Z_6_4_B">
		<path id="Z_6_4_B38" d="M11618,2748.9l-649.5-579.1    l-8.5,10.2l-286.9-253.9l9.1-10.2l-470.7-419.6L9986.1,1764l37.9,32.9l-505.2,604.1l-293.9-243.1l12.4-15.2l-535.9-499.8    l-219.5,239.2l816.3,696.7l7-8.4l45.9,38l-20.4,24.6l257.1,212.6l10.5-12.7l401.8,336.7l-8.8,14.3l96,51l200.5,115.8l158.9,220.8    l-104,115.4l-384-320.8l-188,217.9l72.1,62l-26.4,31.8l451.4,381.8l120.1,100.7l193.2,206.2l258.7-236.2l-64-70l-166.8-144    l788-888.9l-12.7-10.7l222.6-254.3L11618,2748.9z M10161.8,2865.8l-346.8-288l102.5-122.7l352-426.2l235.4,209.9L10161.8,2865.8z     M10683.2,3300.1l-253.8-211.7l88.8-162.3l157-288.5l90.2-167.7l365.4,328.6L10683.2,3300.1z" class="P6_4_0"/>
		<path id="Z_6_4_B37" d="M11618,2748.9l-649.5-579.1l-8.5,10.2l-286.9-253.9l9.1-10.2l-470.7-419.6    L9986.1,1764l37.9,32.9l-505.2,604.1l-293.9-243.1l12.4-15.2l-535.9-499.8l-219.5,239.2l816.3,696.7l7-8.4l45.9,38l-20.4,24.6    l257.1,212.6l10.5-12.7l401.8,336.7l-8.8,14.3l96,51l200.5,115.8l158.9,220.8l-104,115.4l-384-320.8l-188,217.9l72.1,62    l-26.4,31.8l451.4,381.8l120.1,100.7l193.2,206.2l258.7-236.2l-64-70l-166.8-144l788-888.9l-12.7-10.7l222.6-254.3L11618,2748.9z     M10161.8,2865.8l-346.8-288l102.5-122.7l352-426.2l235.4,209.9L10161.8,2865.8z M10683.2,3300.1l-253.8-211.7l88.8-162.3    l157-288.5l90.2-167.7l365.4,328.6L10683.2,3300.1z M10585.9,3923l-70.1-58.6l-45.3,54.2l70.1,58.6L10585.9,3923z" class="P6_4_1"/>
		<polygon id="Z_6_4_B43" points="10393.6,1848.5 10391.2,1851.1 10420,1876.7 10380.4,1921.1     10448.9,1981.5 10434.4,1997.7 10343.5,1918.1 10340.5,1921.3 10495.5,2058.2 10554.7,1992   " class="P6_4_2"/>
		<polygon id="Z_6_4_B42" points="10306,1890.8 10301.8,1887.1 10359.3,1822.9 10367.7,1830.3     10370.1,1827.6 10253.3,1723.5 10240.5,1737.8 10260.4,1755.5 10213,1808.6   " class="P6_4_2"/>
		<polygon id="Z_6_4_B40" points="10434.4,1997.7 10448.9,1981.5 10380.4,1921.1 10420,1876.7     10391.2,1851.1 10394.7,1847.2 10371.3,1826.3 10367.7,1830.3 10359.3,1822.9 10301.8,1887.1 10340.4,1921.5 10343.5,1918.1   " class="P6_4_3"/>
		<polygon id="Z_6_4_B36" points="10108,2985.6 10104.2,2990.1 10088.7,2977.1 10048.4,3025.4     10079.2,3051.2 10119.6,3002.9 10123.4,2998.4   " class="P6_4_3"/>
		
			<rect id="Z_6_4_B35" x="10159" y="3077.4" transform="matrix(0.6414 -0.7672 0.7672 0.6414 1260.8958 8949.3418)" width="91.1" height="96.8" class="P6_4_2"/>
		<path id="Z_6_4_B34" d="M10086.4,2967.6l-239.7-200.4l-81.9-68.5l-58.4,69.9l388.9,325.1l58.4-69.9    L10086.4,2967.6z M10079.2,3051.2l-30.9-25.8l40.4-48.3l15.5,12.9l3.8-4.5l15.4,12.9l-3.8,4.5L10079.2,3051.2z" class="P6_4_2"/>
		<polygon id="Z_6_4_B33" points="10969.7,2362.9 10959.6,2374.1 10898.2,2442.8 10981.2,2517     10974.4,2510.9 11034.7,2443.4 11040.4,2448.4 11052.9,2459.6 10995.1,2524.3 10989.4,2519.2 10986.9,2522.1 10996.4,2530.5     11008.7,2516.7 11073.4,2574.5 11132.7,2508.5   " class="P6_4_2"/>
		
			<rect id="Z_6_4_B32" x="10907.7" y="2226.1" transform="matrix(0.6663 -0.7456 0.7456 0.6663 1969.4603 8910.4395)" width="66.8" height="56.9" class="P6_4_2"/>
		
			<rect id="Z_6_4_B31" x="10100.4" y="3048.7" transform="matrix(0.6415 -0.7672 0.7672 0.6415 1277.4814 8886.7705)" width="91.1" height="56.1" class="P6_4_3"/>
		<polygon id="Z_6_4_B30" points="10775.6,4060.3 10669.3,3966.7 10669.3,3966.7 10622.1,3927.3     10564,3996.8 10611.2,4036.2 10731.6,4135.3 10793,4079.3   " class="P6_4_4"/>
		
			<rect id="Z_6_4_B29" x="9668.7" y="2688" transform="matrix(0.6415 -0.7672 0.7672 0.6415 1399.4783 8426.0723)" width="90.8" height="55.7" class="P6_4_3"/>
		<polygon id="Z_6_4_B28" points="10411.8,3199.3 10624.2,3375.1 10685.4,3301.6 10449.4,3105.9     10473.3,3125.8   " class="P6_4_4"/>
		<polygon id="Z_6_4_B26" points="10172.1,2984 10182.9,2971.3 10209.3,2924.6 10154.2,2894.3     10127.5,2947.7   " class="P6_4_2"/>
		<polygon id="Z_6_4_B25" points="9721.8,2663.2 9639,2593.9 9689.5,2533.4 9644.3,2495.6 9534.7,2625.5     9663.4,2733.1   " class="P6_4_2"/>
		<polygon id="Z_6_4_B24" points="9271.9,2404.7 9305.9,2363.5 9268.7,2332.8 9252.4,2352.3 9140.2,2260     9237.3,2142.5 8701.4,1642.7 8481.8,1881.9 9084,2395.8 9298.1,2578.6 9305.1,2570.2 9351,2608.2 9330.6,2632.8 9388.5,2680.6     9457,2597.7 9476.6,2574 9348.4,2468   " class="P6_4_4"/>
		
			<rect id="Z_6_4_B23" x="9402.6" y="2416.7" transform="matrix(0.6373 -0.7706 0.7706 0.6373 1493.8551 8173.709)" width="54.6" height="166.4" class="P6_4_2"/>
		<polygon id="Z_6_4_B22" points="10026.5,3422.6 9958.6,3366 9770.5,3583.9 9820.8,3626.9 9953.8,3468.4     9974.5,3484.8   " class="P6_4_2"/>
		
			<rect id="Z_6_4_B21" x="10457.8" y="3919.8" transform="matrix(0.6412 -0.7674 0.7674 0.6412 670.2122 9508.6025)" width="90.2" height="235.6" class="P6_4_2"/>
		<polygon id="Z_6_4_B27" points="10622.1,3927.3 10609.2,3916.5 10613.3,3911.1 10533.2,3843.6     10515.8,3864.4 10609.3,3942.6   " class="P6_4_2"/>
		<polygon id="Z_6_4_B20" points="10430.4,4066.4 10102.4,3792.3 10040.5,3866.4 10005,3836.7     10387.7,4160.3 10467.8,4245.7 10551.6,4168.3   " class="P6_4_4"/>
		<polygon id="Z_6_4_B18" points="10545,3649.7 10605.4,3581.8 10676.1,3644.8 10614.6,3713.8   " class="P6_4_2"/>
		
			<rect id="Z_6_4_B17" x="10556.7" y="3417.1" transform="matrix(0.6656 -0.7463 0.7463 0.6656 966.8207 9070.3662)" width="97.4" height="78.3" class="P6_4_2"/>
		<polygon id="Z_6_4_B16" points="10823.2,3480.8 10964.7,3322.1 10891.7,3260.8 10752.1,3417.4     10759,3423.3 10642.8,3554.9 10691.8,3598.6 10692.3,3597.9 10719.4,3622.1 10782.2,3551.7 10755.1,3527.5 10808.5,3467.7   " class="P6_4_2"/>
		<polygon id="Z_6_4_B15" points="10798.1,2427.6 10703.2,2343 10516.3,2238.9 10511.1,2244.3 10505,2238.9     10120,2941.6 10370.6,3151.2 10425.3,3085.7 10429.3,3089.1 10765.2,2470.2 10762.6,2467.5   " class="P6_4_4"/>
		<polygon id="Z_6_4_B14" points="10211.5,1496.3 10152.1,1566.8 10074.8,1657.4 10074.8,1657.4     10054.5,1681.3 10054.8,1681.5 9985.5,1764.7 10024,1796.6 10010.6,1812.9 9659.2,2233.5 9658.7,2233.1 9581.8,2325.8     9518.8,2400.9 9613.8,2479.5 9618.3,2474.1 9689.6,2533.2 9676.1,2549.5 9708.2,2576.1 9751.6,2524.2 9815.5,2577.6     10269.4,2029.2 10203.3,1968.9 10263.4,1901.3 10287.2,1874.7 10214.1,1809.6 10261.5,1756.4 10240.5,1737.8 10273.2,1701.1     10386.8,1802.2 10461.1,1718.8   " class="P6_4_4"/>
		<polygon id="Z_6_4_B13" points="10926.3,2324.2 10705.9,2127.2 10649,2191.3 10677.1,2218.8     10662.5,2234.5 10833.5,2387.9 10853.6,2405.7   " class="P6_4_2"/>
		<polygon id="Z_6_4_B11" points="11232.5,2599.6 11456.4,2797.9 11449.9,2805.1 11449.9,2805.1     11418.5,2840.3 11397.3,2864 11397.3,2864 11385,2877.8 11224.9,2734 11237.3,2720.2 11176.2,2666.4   " class="P6_4_2"/>
		
			<rect id="Z_6_4_B10" x="10933.9" y="3156.7" transform="matrix(0.6656 -0.7463 0.7463 0.6656 1288.801 9285.0654)" width="144.1" height="95.2" class="P6_4_2"/>
		
			<rect id="Z_6_4_B8" x="9925.2" y="3380.4" transform="matrix(0.6412 -0.7674 0.7674 0.6412 947.5157 8876.79)" width="81.4" height="89.6" class="P6_4_3"/>
		
			<rect id="Z_6_4_B7" x="9849.8" y="3497.1" transform="matrix(0.6412 -0.7674 0.7674 0.6412 832.8256 8835.7861)" width="30" height="60.5" class="P6_4_3"/>
		<polygon id="Z_6_4_B6" points="10658.3,4205.2 10702.3,4255.7 10741.2,4220.8 10695.5,4171.5   " class="P6_4_3"/>
		<polygon id="Z_6_4_B5" points="10995.1,2524.3 11052.9,2459.6 11040.4,2448.4 11034.7,2443.4     10974.4,2510.9 10981.2,2517 10986.9,2522.1 10989.4,2519.2   " class="P6_4_3"/>
		
			<rect id="Z_6_4_B4" x="10858.7" y="2354.4" transform="matrix(0.6663 -0.7456 0.7456 0.6663 1863.7117 8931.958)" width="107.2" height="58.1" class="P6_4_3"/>
		
			<rect id="Z_6_4_B3" x="11277.2" y="2666" transform="matrix(0.6663 -0.7456 0.7456 0.6663 1771.1 9316.6152)" width="37.3" height="26.6" class="P6_4_3"/>
		<polygon id="Z_6_4_B1" points="10667,3446 10707.5,3481.6 10642.8,3554.9 10602.2,3518.7   " class="P6_4_3"/>
		<polygon id="Z_6_4_B39" points="10442.7,3766.7 10467,3737.7 10536.5,3801.7 10514.3,3827.7   " class="P6_4_2"/>
		<polygon id="Z_6_4_B44" points="10740.9,4220.5 10839.6,4130.3 10793,4079.3 10731.6,4135.3     10694.7,4169.8   " class="P6_4_2"/>
		<polygon id="Z_6_4_B19" points="10657.8,4204.3 10610,4249.1 10593.7,4263.4 10639,4313.5 10702.3,4255.7       " class="P6_4_2"/>
	</g>
	<g id="Z_6_4_A">
		<polygon id="Z_6_4_A103" points="10606.2,2037 10705.9,2127.2 10649,2191.6 10677.1,2218.8 10662.5,2234.5     10833.5,2387.9 10798.1,2427.6 10703.2,2343 10505,2238.9 10495.4,2230.8 10562.1,2156.1 10527.6,2125.4   " class="P6_4_5"/>
		
			<rect id="Z_6_4_A102" x="9318.4" y="2404.3" transform="matrix(0.6373 -0.7706 0.7706 0.6373 1516.6598 8083.3281)" width="53.8" height="52.5" class="P6_4_6"/>
		
			<rect id="Z_6_4_A101" x="9947.6" y="3524" transform="matrix(0.6412 -0.7674 0.7674 0.6412 814.9451 8961.5869)" width="85.6" height="170.8" class="P6_4_6"/>
		<polygon id="Z_6_4_A100" points="10161.8,2865.8 10120,2941.6 10100,2925.2 10073.5,2956.7 9868.2,2785.1     9891,2756.2 9872.5,2740.5 9929.2,2672.7   " class="P6_4_5"/>
		<polygon id="Z_6_4_A99" points="10674.6,3642.8 10716.6,3680.7 10727.1,3668.6 10783.8,3718.9     10613.3,3911.1 10514.3,3827.7   " class="P6_4_5"/>
		<polygon id="Z_6_4_A98" points="10371.2,3708.2 10343.4,3685.8 10282.3,3759.7 10309.1,3783   " class="P6_4_6"/>
		
			<rect id="Z_6_4_A97" x="11225.7" y="2887.2" transform="matrix(0.6656 -0.7463 0.7463 0.6656 1573.0806 9375.2383)" width="46" height="89.9" class="P6_4_6"/>
		
			<rect id="Z_6_4_A96" x="11180.6" y="2930.3" transform="matrix(0.6656 -0.7463 0.7463 0.6656 1530.493 9361.668)" width="63.3" height="85.2" class="P6_4_7"/>
		<polygon id="Z_6_4_A95" points="10511.3,3827.9     10441.9,3769.9 10382.7,3842.8 10452.2,3900.8   " class="P6_4_7"/>
		
			<rect id="Z_6_4_A94" x="10504.6" y="3869.6" transform="matrix(0.6412 -0.7674 0.7674 0.6412 765.6107 9498.5879)" width="70.7" height="121.9" class="P6_4_6"/>
		
			<rect id="Z_6_4_A93" x="10315.3" y="3221.5" transform="matrix(0.6415 -0.7672 0.7672 0.6415 1222.6521 9107.7734)" width="79.4" height="48.8" class="P6_4_8"/>
		
			<rect id="Z_6_4_A92" x="10374.8" y="3243.7" transform="matrix(0.6414 -0.7672 0.7672 0.6414 1205.0421 9174.0332)" width="84.5" height="108.3" class="P6_4_6"/>
		
			<rect id="Z_6_4_A91" x="10283.4" y="1997.1" transform="matrix(0.6647 -0.7471 0.7471 0.6647 1956.0426 8397.0303)" width="99.8" height="44.3" class="P6_4_9"/>
		
			<rect id="Z_6_4_A90" x="11070.9" y="2664.4" transform="matrix(0.6678 -0.7443 0.7443 0.6678 1668.7277 9182.7178)" width="103.3" height="114.8" class="P6_4_6"/>
		
			<rect id="Z_6_4_A89" x="11080.7" y="2532.7" transform="matrix(0.6678 -0.7443 0.7443 0.6678 1789.8158 9128.8086)" width="83.9" height="52.8" class="P6_4_8"/>
		
			<rect id="Z_6_4_A88" x="9710.4" y="2737" transform="matrix(0.6414 -0.7672 0.7672 0.6414 1267.512 8525.0312)" width="87.1" height="339" class="P6_4_6"/>
		
			<rect id="Z_6_4_A87" x="11449.4" y="2700.1" transform="matrix(0.6652 -0.7466 0.7466 0.6652 1818.5319 9501.8135)" width="111.7" height="45.8" class="P6_4_9"/>
		
			<rect id="Z_6_4_A86" x="11217" y="2491.2" transform="matrix(0.6652 -0.7466 0.7466 0.6652 1895.3173 9259.0244)" width="111.7" height="49.4" class="P6_4_9"/>
		
			<rect id="Z_6_4_A85" x="11130.8" y="2416.1" transform="matrix(0.6652 -0.7466 0.7466 0.6652 1923.8303 9168.8643)" width="111.7" height="46" class="P6_4_9"/>
		
			<rect id="Z_6_4_A84" x="11096.4" y="2385.5" transform="matrix(0.6652 -0.7466 0.7466 0.6652 1935.1802 9132.9766)" width="111.7" height="46" class="P6_4_9"/>
		
			<rect id="Z_6_4_A83" x="11026.9" y="2276.4" transform="matrix(0.6652 -0.7466 0.7466 0.6652 1958.1619 9060.3369)" width="111.7" height="140.2" class="P6_4_6"/>
		
			<rect id="Z_6_4_A82" x="11405.3" y="2647.6" transform="matrix(0.6652 -0.7466 0.7466 0.6652 1833.0992 9455.7676)" width="111.7" height="72.2" class="P6_4_6"/>
		
			<rect id="Z_6_4_A81" x="11352" y="2600.9" transform="matrix(0.6652 -0.7466 0.7466 0.6652 1850.7235 9400.04)" width="111.7" height="70.6" class="P6_4_6"/>
		
			<rect id="Z_6_4_A80" x="11173.3" y="2443" transform="matrix(0.6652 -0.7466 0.7466 0.6652 1909.7865 9213.2842)" width="111.7" height="67.9" class="P6_4_6"/>
		
			<rect id="Z_6_4_A79" x="11280.6" y="2512.2" transform="matrix(0.6652 -0.7466 0.7466 0.6652 1874.3329 9325.3994)" width="111.7" height="120.7" class="P6_4_6"/>
		<polygon id="Z_6_4_A78" points="11543.9,2832.2 11544.4,2832.7 11618.7,2749.3 11559.5,2696.5     11485.2,2779.9 11499.1,2792.3 11387,2916.5 11369.8,2901.2 11285.3,2997.5 11362.2,3066.2 11396.7,3027.5 11384,3016.8     11544.5,2832.7   " class="P6_4_6"/>
		<polygon id="Z_6_4_A77" points="10961.8,3366.4 11009.1,3313.4 11083.9,3380.3 11036.9,3433   " class="P6_4_6"/>
		<polygon id="Z_6_4_A76" points="11261.5,3028.6 11287.5,2999.5 11362.2,3066.2     11336.3,3095.3   " class="P6_4_9"/>
		
			<rect id="Z_6_4_A75" x="11038.2" y="3278.8" transform="matrix(0.6633 -0.7484 0.7484 0.6633 1233.6681 9399.7881)" width="48.3" height="100.4" class="P6_4_9"/>
		
			<rect id="Z_6_4_A74" x="11070.5" y="3243.3" transform="matrix(0.6633 -0.7484 0.7484 0.6633 1270.8497 9411.3877)" width="46.7" height="100.4" class="P6_4_9"/>
		
			<rect id="Z_6_4_A73" x="11061.1" y="3118.8" transform="matrix(0.6633 -0.7484 0.7484 0.6633 1401.1218 9451.9893)" width="286" height="100.4" class="P6_4_6"/>
		<polygon id="Z_6_4_A72" points="11005.9,3468 10930.8,3401.4 10946.3,3383.9 10946.3,3383.8     10869.9,3470.3 10888.4,3486.7 10727.1,3668.6 10783.8,3718.9 11021.4,3450.5 11021.4,3450.5   " class="P6_4_6"/>
		<polygon id="Z_6_4_A71" points="10961.7,3366.4 10946.3,3383.9 10930.8,3401.4     11005.9,3468 11021.4,3450.5 11036.9,3433   " class="P6_4_9"/>
		
			<rect id="Z_6_4_A70" x="10121.2" y="3579.3" transform="matrix(0.6412 -0.7674 0.7674 0.6412 883.7711 9096.1025)" width="94.7" height="47.5" class="P6_4_9"/>
		<polygon id="Z_6_4_A69" points="10342.8,3686.1 10308.5,3657.4 10247.9,3731     10282.3,3759.7   " class="P6_4_9"/>
		
			<rect id="Z_6_4_A68" x="9887.3" y="3680.5" transform="matrix(0.6412 -0.7674 0.7674 0.6412 713.6058 8957.7168)" width="96.5" height="70.5" class="P6_4_6"/>
		<polygon id="Z_6_4_A67" points="9883.6,3609.5 9852.6,3583.6 9818.1,3624.9 9842.7,3645.4 9815.3,3678.2     9877.5,3730.2 9939.4,3656.1   " class="P6_4_6"/>
		
			<rect id="Z_6_4_A66" x="9932.8" y="3729.8" transform="matrix(0.6412 -0.7674 0.7674 0.6412 700.7529 9006.3037)" width="96.5" height="48.1" class="P6_4_9"/>
		
			<rect id="Z_6_4_A65" x="9969.3" y="3760.2" transform="matrix(0.6412 -0.7674 0.7674 0.6412 690.4611 9045.2012)" width="96.5" height="48.1" class="P6_4_9"/>
		
			<rect id="Z_6_4_A64" x="10025.9" y="3422.9" transform="matrix(0.6412 -0.7674 0.7674 0.6412 910.6706 8994.3486)" width="94.6" height="201" class="P6_4_6"/>
		
			<rect id="Z_6_4_A63" x="10185.2" y="3596.8" transform="matrix(0.6412 -0.7674 0.7674 0.6412 865.7026 9164.376)" width="94.7" height="119.3" class="P6_4_6"/>
		
			<rect id="Z_6_4_A62" x="9858.8" y="3006.6" transform="matrix(0.6415 -0.7672 0.7672 0.6415 1225.515 8683.3818)" width="87.1" height="48" class="P6_4_9"/>
		
			<rect id="Z_6_4_A61" x="9895.1" y="3037.7" transform="matrix(0.6415 -0.7672 0.7672 0.6415 1215.2673 8722.0293)" width="87.1" height="46.4" class="P6_4_9"/>
		<polygon id="Z_6_4_A60" points="10468.4,3457.3 10482.5,3440 10341.6,3328.3 10304.1,3373.2     10413.2,3524.8 10446.6,3571.3 10460.1,3556.2 10464.3,3559.9 10517.4,3500.4   " class="P6_4_6"/>
		
			<rect id="Z_6_4_A59" x="10071.2" y="3686.8" transform="matrix(0.6412 -0.7674 0.7674 0.6412 780.7344 9090.9531)" width="80.7" height="47.6" class="P6_4_8"/>
		
			<rect id="Z_6_4_A58" x="9546" y="2755.1" transform="matrix(0.6374 -0.7705 0.7705 0.6374 1329.7151 8400.4209)" width="89.4" height="64.4" class="P6_4_7"/>
		
			<rect id="Z_6_4_A57" x="10436.3" y="3324.4" transform="matrix(0.6415 -0.7672 0.7672 0.6415 1188.3506 9236.9951)" width="79.5" height="45.5" class="P6_4_8"/>
		
			<rect id="Z_6_4_A56" x="10472.2" y="3353.2" transform="matrix(0.6415 -0.7672 0.7672 0.6415 1178.1947 9275.3008)" width="79.5" height="48.1" class="P6_4_8"/>
		
			<rect id="Z_6_4_A55" x="11250.5" y="2842.4" transform="matrix(0.6656 -0.7463 0.7463 0.6656 1622.332 9390.793)" width="80.3" height="85.2" class="P6_4_7"/>
		
			<rect id="Z_6_4_A54" x="11019.8" y="3029.5" transform="matrix(0.6656 -0.7463 0.7463 0.6656 1424.4285 9328.1025)" width="203.9" height="89.9" class="P6_4_6"/>
		<polygon id="Z_6_4_A53" points="10470.2,3737.2     10546,3652.2 10612.1,3713 10536.4,3797.9   " class="P6_4_7"/>
		<polygon id="Z_6_4_A52" points="10346.3,3685.9     10445.8,3575.9 10515.6,3638.1 10420.4,3746.3   " class="P6_4_7"/>
		<polygon id="Z_6_4_A51" points="10674.6,3453     10608.5,3393.9 10694.1,3291.1 10760.3,3350.1   " class="P6_4_7"/>
		<polygon id="Z_6_4_A50" points="10420.4,3746.3     10374,3708.5 10312.4,3782.7 10358.8,3821.8   " class="P6_4_7"/>
		
			<rect id="Z_6_4_A49" x="10579.2" y="4098.5" transform="matrix(0.6412 -0.7674 0.7674 0.6412 636.0733 9638.3213)" width="90.6" height="81.1" class="P6_4_6"/>
		<polygon id="Z_6_4_A48" points="10583.2,3561.5     10511.3,3497.5 10445.8,3575.9 10515.6,3637.9   " class="P6_4_7"/>
		<polygon id="Z_6_4_A47" points="9488.5,2645.6     9594.4,2732.3 9537.4,2801.2 9431.3,2712.8   " class="P6_4_7"/>
		
			<rect id="Z_6_4_A46" x="10258.2" y="3156" transform="matrix(0.6414 -0.7672 0.7672 0.6414 1238.0344 9049.5967)" width="84.5" height="88.7" class="P6_4_6"/>
		
			<rect id="Z_6_4_A45" x="10035.1" y="3657.2" transform="matrix(0.6412 -0.7674 0.7674 0.6412 790.9285 9052.4248)" width="80.7" height="46.5" class="P6_4_8"/>
		<polygon id="Z_6_4_A44" points="10363.9,3159.2 10411.8,3199.3 10473.3,3125.8     10449.4,3105.9 10429.3,3089.2 10429.3,3089.1 10425.3,3085.7   " class="P6_4_9"/>
		
			<rect id="Z_6_4_A43" x="9719.4" y="2540.3" transform="matrix(0.6414 -0.7672 0.7672 0.6414 1512.7944 8417.4219)" width="84.2" height="99.9" class="P6_4_7"/>
		
			<rect id="Z_6_4_A42" x="9807.2" y="2599.2" transform="matrix(0.6414 -0.7672 0.7672 0.6414 1487.9717 8511.0469)" width="84.2" height="128.8" class="P6_4_7"/>
		
			<rect id="Z_6_4_A41" x="9269.9" y="2136.6" transform="matrix(0.6373 -0.7706 0.7706 0.6373 1617.6946 8003.9731)" width="83.3" height="293.8" class="P6_4_6"/>
		
			<rect id="Z_6_4_A40" x="9411.5" y="2363.8" transform="matrix(0.6373 -0.7706 0.7706 0.6373 1578.8296 8155.5132)" width="83.3" height="73.5" class="P6_4_9"/>
		
			<rect id="Z_6_4_A39" x="9483.5" y="2403.4" transform="matrix(0.6373 -0.7706 0.7706 0.6373 1570.5817 8218.6963)" width="65.2" height="75" class="P6_4_7"/>
		
			<rect id="Z_6_4_A38" x="9281.7" y="2375.9" transform="matrix(0.6373 -0.7706 0.7706 0.6373 1527.4143 8041.3618)" width="48.8" height="44.4" class="P6_4_8"/>
		
			<rect id="Z_6_4_A37" x="9930.7" y="3067.5" transform="matrix(0.6415 -0.7672 0.7672 0.6415 1205.1879 8760.0439)" width="87.1" height="46.4" class="P6_4_9"/>
		
			<rect id="Z_6_4_A36" x="9967.5" y="3096.7" transform="matrix(0.6415 -0.7672 0.7672 0.6415 1194.6237 8799.4756)" width="87.3" height="50" class="P6_4_9"/>
		<polygon id="Z_6_4_A35" points="10281,3280.3 10058.3,3104.2 10002.5,3171 9824.5,3022.3 10000.1,3169.5     9991.3,3183.8 10087.3,3234.7 10287.7,3350.5 10304.1,3373.2 10341.6,3328.3   " class="P6_4_6"/>
		<polygon id="Z_6_4_A34" points="10040.5,3866.4 10102.4,3792.3 10093.8,3785.1     10066.9,3762.7 10051.4,3781.2 10005,3836.7   " class="P6_4_9"/>
		<polygon id="Z_6_4_A33" points="10593.7,4263.4 10627,4233.1 10551.6,4168.3 10467.8,4245.7     10580.9,4366.5 10639,4313.5   " class="P6_4_6"/>
		
			<rect id="Z_6_4_A32" x="10803.5" y="3164.2" transform="matrix(0.6676 -0.7445 0.7445 0.6676 1204.769 9130.999)" width="48.7" height="104.2" class="P6_4_9"/>
		
			<rect id="Z_6_4_A31" x="10835.9" y="3127.8" transform="matrix(0.6676 -0.7445 0.7445 0.6676 1242.6005 9143.1084)" width="48.7" height="104.4" class="P6_4_9"/>
		
			<rect id="Z_6_4_A30" x="10868.4" y="3091.5" transform="matrix(0.6676 -0.7445 0.7445 0.6676 1280.4314 9155.2188)" width="48.7" height="104.5" class="P6_4_9"/>
		
			<rect id="Z_6_4_A29" x="10901.4" y="3057.1" transform="matrix(0.6676 -0.7445 0.7445 0.6676 1316.2721 9166.4424)" width="43.8" height="104.1" class="P6_4_9"/>
		
			<rect id="Z_6_4_A28" x="10929.7" y="3022.6" transform="matrix(0.6676 -0.7445 0.7445 0.6676 1352.1396 9177.9189)" width="48.6" height="104.3" class="P6_4_9"/>
		
			<rect id="Z_6_4_A27" x="10962.4" y="2986.9" transform="matrix(0.6676 -0.7445 0.7445 0.6676 1389.2535 9189.7998)" width="47" height="104.4" class="P6_4_9"/>
		
			<rect id="Z_6_4_A26" x="11041" y="2898.3" transform="matrix(0.6676 -0.7445 0.7445 0.6676 1481.5905 9219.4053)" width="48.4" height="104.5" class="P6_4_9"/>
		
			<rect id="Z_6_4_A25" x="11073.6" y="2862.8" transform="matrix(0.6676 -0.7445 0.7445 0.6676 1518.5317 9231.2803)" width="46.7" height="104.5" class="P6_4_9"/>
		
			<rect id="Z_6_4_A24" x="11105.5" y="2829.5" transform="matrix(0.6676 -0.7445 0.7445 0.6676 1553.0764 9242.2617)" width="42.2" height="104.8" class="P6_4_9"/>
		
			<rect id="Z_6_4_A23" x="11132" y="2794.4" transform="matrix(0.6676 -0.7445 0.7445 0.6676 1589.5432 9253.9043)" width="51.7" height="105" class="P6_4_9"/>
		
			<rect id="Z_6_4_A22" x="10989.7" y="2942.8" transform="matrix(0.6676 -0.7445 0.7445 0.6676 1435.1467 9204.4707)" width="71.2" height="104.5" class="P6_4_6"/>
		
			<rect id="Z_6_4_A21" x="10713.1" y="3226.7" transform="matrix(0.6676 -0.7445 0.7445 0.6676 1139.9105 9110.291)" width="118.3" height="103.9" class="P6_4_9"/>
		
			<rect id="Z_6_4_A20" x="10662.4" y="1991.7" transform="matrix(0.6652 -0.7466 0.7466 0.6652 2072.4353 8675.3037)" width="96.3" height="69.8" class="P6_4_7"/>
		
			<rect id="Z_6_4_A19" x="10715.4" y="2037.7" transform="matrix(0.6652 -0.7466 0.7466 0.6652 2054.9038 8730.7383)" width="96.3" height="72.3" class="P6_4_7"/>
		
			<rect id="Z_6_4_A18" x="10812.7" y="2066.4" transform="matrix(0.6652 -0.7466 0.7466 0.6652 2022.7646 8832.3809)" width="96.3" height="188.3" class="P6_4_7"/>
		
			<rect id="Z_6_4_A17" x="10394.3" y="1748.8" transform="matrix(0.6652 -0.7466 0.7466 0.6652 2166.4941 8399.6045)" width="111.7" height="70.1" class="P6_4_6"/>
		
			<rect id="Z_6_4_A16" x="10482.4" y="1779.4" transform="matrix(0.6652 -0.7466 0.7466 0.6652 2137.3857 8491.6641)" width="111.7" height="165.9" class="P6_4_6"/>
		
			<rect id="Z_6_4_A15" x="10566.8" y="1907.4" transform="matrix(0.6652 -0.7466 0.7466 0.6652 2109.4883 8579.8506)" width="111.7" height="60.2" class="P6_4_9"/>
		
			<rect id="Z_6_4_A14" x="10611" y="1954" transform="matrix(0.6652 -0.7466 0.7466 0.6652 2088.6697 8623.7236)" width="100.2" height="57.4" class="P6_4_6"/>
		
			<rect id="Z_6_4_A13" x="10443.4" y="2113.9" transform="matrix(0.6647 -0.7471 0.7471 0.6647 1903.3347 8564.3135)" width="99.8" height="95.6" class="P6_4_6"/>
		
			<rect id="Z_6_4_A12" x="10390.7" y="2092" transform="matrix(0.6647 -0.7471 0.7471 0.6647 1920.6908 8509.2197)" width="99.8" height="45.5" class="P6_4_9"/>
		
			<rect id="Z_6_4_A11" x="10355.2" y="2058.5" transform="matrix(0.6647 -0.7471 0.7471 0.6647 1932.368 8472.1641)" width="99.8" height="49.4" class="P6_4_9"/>
		
			<rect id="Z_6_4_A10" x="10318.3" y="2025.7" transform="matrix(0.6647 -0.7471 0.7471 0.6647 1944.52 8433.5996)" width="99.8" height="49.4" class="P6_4_9"/>
		
			<rect id="Z_6_4_A9" x="10226.3" y="1914.2" transform="matrix(0.6647 -0.7471 0.7471 0.6647 1975.0067 8337.4707)" width="100.2" height="108.4" class="P6_4_6"/>
		
			<rect id="Z_6_4_A8" x="10940.3" y="2580.6" transform="matrix(0.6678 -0.7443 0.7443 0.6678 1711.6891 9045.5059)" width="99.9" height="48.7" class="P6_4_9"/>
		
			<rect id="Z_6_4_A7" x="10975.9" y="2613.5" transform="matrix(0.6678 -0.7443 0.7443 0.6678 1699.7357 9082.625)" width="99.9" height="47" class="P6_4_9"/>
		
			<rect id="Z_6_4_A6" x="11010.6" y="2643.6" transform="matrix(0.6678 -0.7443 0.7443 0.6678 1689.1138 9119.7266)" width="103" height="47.7" class="P6_4_9"/>
		
			<rect id="Z_6_4_A5" x="11161.4" y="2744.4" transform="matrix(0.6678 -0.7443 0.7443 0.6678 1639.4197 9267.3535)" width="82.6" height="105" class="P6_4_6"/>
		
			<rect id="Z_6_4_A4" x="10845" y="2482.3" transform="matrix(0.6678 -0.7443 0.7443 0.6678 1735.9703 8935.6152)" width="68.7" height="81" class="P6_4_7"/>
		
			<rect id="Z_6_4_A3" x="10901.3" y="2538.2" transform="matrix(0.6678 -0.7443 0.7443 0.6678 1717.0408 8994.3984)" width="68.7" height="70.5" class="P6_4_7"/>
		
			<rect id="Z_6_4_A2" x="11121.4" y="2568.7" transform="matrix(0.6678 -0.7443 0.7443 0.6678 1775.3685 9173.6992)" width="88.7" height="58.1" class="P6_4_6"/>
		
			<rect id="Z_6_4_A1" x="10217.2" y="3667.2" transform="matrix(0.6412 -0.7674 0.7674 0.6412 739.7566 9248.8799)" width="85.5" height="332.4" class="P6_4_6"/>
		<polygon id="Z_6_4_A104" points="10891.7,3260.8 10922.5,3226.4 10993.5,3289.8 10964.7,3322.1   " class="P6_4_6"/>
	</g>
	<g id="Z_6_4_I">
		
			<use xlink:href="#escalier" width="132.7" height="132.6" id="sZ_6_4_I28" x="-66.4" y="-66.3" transform="matrix(0.3767 0 0 -0.3767 8660.6289 1832.5876)" style="overflow:visible;"/>
		
			<use xlink:href="#escalier" width="132.7" height="132.6" id="sZ_6_4_I27" x="-66.4" y="-66.3" transform="matrix(0.3767 0 0 -0.3767 9831.917 3567.5793)" style="overflow:visible;"/>
		
			<use xlink:href="#escalier" width="132.7" height="132.6" id="sZ_6_4_I26" x="-66.4" y="-66.3" transform="matrix(0.3767 0 0 -0.3767 9904.5449 3474.4224)" style="overflow:visible;"/>
		
			<use xlink:href="#ascenseur" width="132.7" height="132.6" id="sZ_6_4_I25" x="-66.4" y="-66.3" transform="matrix(0.3767 0 0 -0.3767 10656.3311 4233.2925)" style="overflow:visible;"/>
		
			<use xlink:href="#ascenseur" width="132.7" height="132.6" id="sZ_6_4_I23" x="-66.4" y="-66.3" transform="matrix(0.3767 0 0 -0.3767 10909.293 2385.4556)" style="overflow:visible;"/>
		
			<use xlink:href="#WC" width="132.7" height="132.6" id="sZ_6_4_I22" x="-66.4" y="-66.3" transform="matrix(0.3767 0 0 -0.3767 10278.3984 1799.9739)" style="overflow:visible;"/>
		
			<use xlink:href="#WC" width="132.7" height="132.6" id="sZ_6_4_I20" x="-66.4" y="-66.3" transform="matrix(0.3767 0 0 -0.3767 9902.9844 2873.563)" style="overflow:visible;"/>
		
			<use xlink:href="#WC" width="132.7" height="132.6" id="sZ_6_4_I19" x="-66.4" y="-66.3" transform="matrix(0.3767 0 0 -0.3767 10518.5146 4043.3679)" style="overflow:visible;"/>
		
			<use xlink:href="#WC" width="132.7" height="132.6" id="sZ_6_4_I18" x="-66.4" y="-66.3" transform="matrix(0.3767 0 0 -0.3767 11003.9248 3208.1033)" style="overflow:visible;"/>
		
			<use xlink:href="#WC" width="132.7" height="132.6" id="sZ_6_4_I17" x="-66.4" y="-66.3" transform="matrix(0.3767 0 0 -0.3767 11388.4053 2793.613)" style="overflow:visible;"/>
		
			<use xlink:href="#WC" width="132.7" height="132.6" id="sZ_6_4_I16" x="-66.4" y="-66.3" transform="matrix(0.3767 0 0 -0.3767 11228.4541 2656.551)" style="overflow:visible;"/>
		
			<use xlink:href="#WC" width="132.7" height="132.6" id="sZ_6_4_I15" x="-66.4" y="-66.3" transform="matrix(0.3767 0 0 -0.3767 10824.5459 2305.9573)" style="overflow:visible;"/>
		
			<use xlink:href="#escalier" width="132.7" height="132.6" id="sZ_6_4_I14" x="-66.4" y="-66.3" transform="matrix(0.3767 0 0 -0.3767 10048.4717 2980.6611)" style="overflow:visible;"/>
		
			<use xlink:href="#escalier" width="132.7" height="132.6" id="sZ_6_4_I13" x="-66.4" y="-66.3" transform="matrix(0.3767 0 0 -0.3767 9587.2617 2597.7439)" style="overflow:visible;"/>
		
			<use xlink:href="#escalier" width="132.7" height="132.6" id="sZ_6_4_I12" x="-66.4" y="-66.3" transform="matrix(0.3767 0 0 -0.3767 10841.5703 3378.3547)" style="overflow:visible;"/>
		
			<use xlink:href="#escalier" width="132.7" height="132.6" id="sZ_6_4_I11" x="-66.4" y="-66.3" transform="matrix(0.3767 0 0 -0.3767 11308.7627 2724.2964)" style="overflow:visible;"/>
		
			<use xlink:href="#escalier" width="132.7" height="132.6" id="sZ_6_4_I10" x="-66.4" y="-66.3" transform="matrix(0.3767 0 0 -0.3767 11078.4375 2521.2063)" style="overflow:visible;"/>
		
			<use xlink:href="#escalier" width="132.7" height="132.6" id="sZ_6_4_I9" x="-66.4" y="-66.3" transform="matrix(0.3767 0 0 -0.3767 10394.832 1940.1147)" style="overflow:visible;"/>
		
			<use xlink:href="#ascenseur" width="132.7" height="132.6" id="sZ_6_4_I7" x="-66.4" y="-66.3" transform="matrix(0.3767 0 0 -0.3767 10647.7744 3504.5452)" style="overflow:visible;"/>
		
			<use xlink:href="#ascenseur" width="132.7" height="132.6" id="sZ_6_4_I5" x="-66.4" y="-66.3" transform="matrix(0.3767 0 0 -0.3767 10145.4854 3077.1475)" style="overflow:visible;"/>
		
			<use xlink:href="#ascenseur" width="132.7" height="132.6" id="sZ_6_4_I3" x="-66.4" y="-66.3" transform="matrix(0.3767 0 0 -0.3767 9713.5283 2708.397)" style="overflow:visible;"/>
		
			<use xlink:href="#escalier" width="132.7" height="132.6" id="sZ_6_4_I2" x="-66.4" y="-66.3" transform="matrix(0.3767 0 0 -0.3767 10774.7422 4139.3696)" style="overflow:visible;"/>
		
			<use xlink:href="#cafe" width="132.7" height="132.6" id="sZ_6_4_A99" x="-66.4" y="-66.3" transform="matrix(0.3767 0 0 -0.3767 10649.0859 3773.7532)" style="overflow:visible;"/>
		
			<use xlink:href="#cafe" width="132.7" height="132.6" id="sZ_6_4_A100" x="-66.4" y="-66.3" transform="matrix(0.3767 0 0 -0.3767 10005.2344 2817.3237)" style="overflow:visible;"/>
		
			<use xlink:href="#cafe" width="132.7" height="132.6" id="sZ_6_4_A103" x="-66.4" y="-66.3" transform="matrix(0.3767 0 0 -0.3767 10604.3496 2163.8086)" style="overflow:visible;"/>
	</g>
	<g id="Z_6_4_R">
		
		
	</g>
</g>

<symbol id="WC" viewBox="-61 -61 122 122">
	<path style="fill:#009393;" d="M61,0c0-33.7-27.3-61-61-61S-61-33.7-61,0s27.3,61,61,61S61,33.7,61,0z"/>
	<path style="fill:#009393;" d="M0,61c-33.7,0-61-27.3-61-61s27.3-61,61-61c33.7,0,61,27.3,61,61S33.7,61,0,61z M0-52.1   c-28.8,0-52.1,23.3-52.1,52.1S-28.8,52.1,0,52.1c28.8,0,52.1-23.3,52.1-52.1S28.8-52.1,0-52.1z"/>
	<path style="fill:#009393;stroke:#FFFFFF;stroke-width:8;stroke-miterlimit:10;" d="M52.1,0c0-28.8-23.3-52.1-52.1-52.1   S-52.1-28.8-52.1,0S-28.8,52.1,0,52.1S52.1,28.8,52.1,0z"/>
	<g>
		<polygon style="fill:#FFFFFF;" points="4.8,32.5 4.8,-32.7 -1.3,-32.7 -1.3,32.5   "/>
		<path style="fill:#FFFFFF;" d="M1.7-0.1"/>
		<path style="fill:#FFFFFF;" d="M-20.7,22.3c3,0,5.4,2.4,5.4,5.4c0,3-2.4,5.4-5.4,5.4c-3,0-5.4-2.4-5.4-5.4    C-26,24.7-23.6,22.3-20.7,22.3L-20.7,22.3z"/>
		<path style="fill:#FFFFFF;" d="M-20.7,27.7"/>
		<path style="fill:#FFFFFF;" d="M-21.5-11.8v-18.8c0-3.4-5-3.4-5,0v18.8h-6.7l7.2,24.9h-1.2l-4.2-14.2c-1-3.1-5.3-1.8-4.3,1.5    l4.7,15.5c0.5,1.8,2.7,4.9,6.6,4.9h3.5l0,0h3.9c3.8,0,6.1-3.1,6.6-4.9l4.7-15.4C-4.7-2.9-9-4.2-10-1l-4.2,14.2h-1.2l7.2-24.9h-6.7    v-18.8c0-3.3-5-3.3-5,0v18.8L-21.5-11.8L-21.5-11.8z"/>
		<path style="fill:#FFFFFF;" d="M17.7,20.8c-3.8,0-6.8-3.1-6.8-7V-2.8c0-3.2,4.6-3.2,4.7,0v15.2h1.1v-42.1c0-4.3,6.2-4.2,6.2,0    v24.6h1.1v-24.6c0-4.2,6.2-4.3,6.2,0v42.1h1.1V-2.8c0-3.3,4.6-3.3,4.6,0v16.5c0,3.6-2.7,7.1-6.9,7.1L17.7,20.8L17.7,20.8z"/>
		<path style="fill:#FFFFFF;" d="M23.3,22.3c2.9,0,5.4,2.4,5.4,5.4c0,3-2.4,5.4-5.4,5.4c-3,0-5.4-2.4-5.4-5.4    C18,24.7,20.4,22.3,23.3,22.3L23.3,22.3z"/>
		<path style="fill:#FFFFFF;" d="M23.3,27.7"/>
	</g>
</symbol>
<symbol id="ascenseur" viewBox="-61 -61 122 122">
	<path style="fill:#009393;" d="M61,0c0-33.7-27.3-61-61-61S-61-33.7-61,0s27.3,61,61,61S61,33.7,61,0z"/>
	<path style="fill:#009393;" d="M0,61c-33.7,0-61-27.3-61-61s27.3-61,61-61c33.7,0,61,27.3,61,61S33.7,61,0,61z M0-52.1   c-28.8,0-52.1,23.3-52.1,52.1S-28.8,52.1,0,52.1c28.8,0,52.1-23.3,52.1-52.1S28.8-52.1,0-52.1z"/>
	<path style="fill:#009393;stroke:#FFFFFF;stroke-width:8;stroke-miterlimit:10;" d="M52.1,0c0-28.8-23.3-52.1-52.1-52.1   S-52.1-28.8-52.1,0S-28.8,52.1,0,52.1S52.1,28.8,52.1,0z"/>
	<g>
		<path style="fill:#FFFFFF;" d="M18.6,10.1H-18c-3.1,0-5.6-2.5-5.6-5.6v-33.6c0-3.1,2.5-5.6,5.6-5.6h36.6c3.1,0,5.6,2.5,5.6,5.6    V4.5C24.2,7.5,21.7,10.1,18.6,10.1z M19.7-29.2c0-0.6-0.5-1.1-1.1-1.1H-18c-0.6,0-1.1,0.5-1.1,1.1V4.5c0,0.6,0.5,1.1,1.1,1.1h36.6    c0.6,0,1.1-0.5,1.1-1.1V-29.2z"/>
		<path style="fill:#FFFFFF;" d="M-10.2,1.1c1.2,0,2.2-1,2.2-2.2s-1-2.2-2.2-2.2s-2.2,1-2.2,2.2S-11.4,1.1-10.2,1.1z"/>
		<path style="fill:#FFFFFF;" d="M0.3,1.1c1.2,0,2.2-1,2.2-2.2s-1-2.2-2.2-2.2s-2.2,1-2.2,2.2S-0.9,1.1,0.3,1.1z"/>
		<path style="fill:#FFFFFF;" d="M10.8,1.1c1.2,0,2.2-1,2.2-2.2s-1-2.2-2.2-2.2s-2.2,1-2.2,2.2S9.5,1.1,10.8,1.1z"/>
		<path style="fill:#FFFFFF;" d="M-7.2-4.1h-6c-0.8,0-1.5-0.7-1.5-1.6v-8c0-0.7,0.5-1.4,1.1-1.5V-25c0-0.8,0.7-1.5,1.5-1.5    s1.5,0.7,1.5,1.5v9.7h0.7V-25c0-0.8,0.7-1.5,1.5-1.5c0.8,0,1.5,0.7,1.5,1.5v9.8c0.6,0.2,1.1,0.8,1.1,1.5v8    C-5.7-4.9-6.3-4.1-7.2-4.1z"/>
		<path style="fill:#FFFFFF;" d="M3.3-4.1h-6c-0.8,0-1.5-0.7-1.5-1.6v-8c0-0.7,0.5-1.4,1.1-1.5V-25c0-0.8,0.7-1.5,1.5-1.5    s1.5,0.7,1.5,1.5v9.7h0.7V-25c0-0.8,0.7-1.5,1.5-1.5s1.5,0.7,1.5,1.5v9.8c0.6,0.2,1.1,0.8,1.1,1.5v8C4.8-4.9,4.1-4.1,3.3-4.1z"/>
		<path style="fill:#FFFFFF;" d="M13.7-4.1h-6c-0.8,0-1.5-0.7-1.5-1.6v-8c0-0.7,0.5-1.4,1.1-1.5V-25c0-0.8,0.7-1.5,1.5-1.5    s1.5,0.7,1.5,1.5v9.7h0.7V-25c0-0.8,0.7-1.5,1.5-1.5c0.8,0,1.5,0.7,1.5,1.5v9.8c0.6,0.2,1.1,0.8,1.1,1.5v8    C15.2-4.9,14.6-4.1,13.7-4.1z"/>
		<path style="fill:#FFFFFF;" d="M-2.1,28.6l-7.5,7.5c-1.2,1.2-3.1,1.2-4.2,0c0,0,0,0,0,0l-7.5-7.5c-1.2-1.2-1.2-3.1,0-4.2    c1.2-1.2,3.1-1.2,4.2,0l2.4,2.4V16c0-1.6,1.3-3,3-3c1.6,0,3,1.3,3,3v10.7l2.4-2.4c1.2-1.2,3.1-1.2,4.2,0S-0.9,27.4-2.1,28.6z"/>
		<path style="fill:#FFFFFF;" d="M21.8,25.6c-1.2,1.2-3.1,1.2-4.2,0l-2.4-2.4v10.7c0,1.6-1.3,3-3,3c-1.6,0-3-1.3-3-3V23.2l-2.4,2.4    c-1.2,1.2-3.1,1.2-4.2,0c-1.2-1.2-1.2-3.1,0-4.2l7.5-7.5l0,0c0.2-0.2,0.5-0.4,0.7-0.5c1.1-0.6,2.6-0.4,3.5,0.5l0,0l7.5,7.5    C23,22.5,23,24.4,21.8,25.6z"/>
	</g>
</symbol>
<symbol id="cafe" viewBox="-61 -61 122 122">
	<path style="fill:#009393;" d="M61,0c0-33.7-27.3-61-61-61S-61-33.7-61,0s27.3,61,61,61S61,33.7,61,0z"/>
	<path style="fill:#009393;" d="M0,61c-33.7,0-61-27.3-61-61s27.3-61,61-61S61-33.7,61,0S33.7,61,0,61z M0-52.1   c-28.8,0-52.1,23.3-52.1,52.1S-28.8,52.1,0,52.1c28.8,0,52.1-23.3,52.1-52.1S28.8-52.1,0-52.1z"/>
	<path style="fill:none;stroke:#FFFFFF;stroke-width:8;stroke-miterlimit:10;" d="M52.1,0c0-28.8-23.3-52.1-52.1-52.1   S-52.1-28.8-52.1,0S-28.8,52.1,0,52.1S52.1,28.8,52.1,0z"/>
	<g>
		<g>
			<g>
				<path style="fill:#FFFFFF;" d="M-7.8,11.2c-0.3,0-0.6,0.1-0.9,0.4c-0.5,0.5-0.5,1.3,0,1.8c1.6,1.5,1.8,3.6,0.5,5.4      c-2.1,3.3-2,6.4,0.4,8.8c0.5,0.5,1.3,0.5,1.8,0c0.5-0.5,0.5-1.3,0-1.8c-0.6-0.6-2.3-2.3-0.1-5.8c1.8-2.8,1.5-6.2-0.9-8.5      C-7.2,11.3-7.5,11.2-7.8,11.2L-7.8,11.2z"/>
			</g>
		</g>
		<g>
			<g>
				<path style="fill:#FFFFFF;" d="M-1.9,11.2c-0.3,0-0.6,0.1-0.9,0.4c-0.5,0.5-0.5,1.3,0,1.8c1.6,1.5,1.8,3.6,0.5,5.4      c-2.1,3.3-2,6.4,0.4,8.8c0.5,0.5,1.3,0.5,1.8,0c0.5-0.5,0.5-1.3,0-1.8c-0.6-0.6-2.3-2.3-0.1-5.8c1.8-2.8,1.5-6.2-0.9-8.5      C-1.3,11.3-1.6,11.2-1.9,11.2L-1.9,11.2z"/>
			</g>
		</g>
		<g>
			<g>
				<path style="fill:#FFFFFF;" d="M4,11.2c-0.3,0-0.6,0.1-0.9,0.4c-0.5,0.5-0.5,1.3,0,1.8c1.6,1.5,1.8,3.6,0.5,5.4      c-2.1,3.3-2,6.4,0.4,8.8c0.5,0.5,1.3,0.5,1.8,0s0.5-1.3,0-1.8c-0.6-0.6-2.3-2.3-0.1-5.8c1.8-2.8,1.5-6.2-0.9-8.5      C4.6,11.3,4.3,11.2,4,11.2L4,11.2z"/>
			</g>
		</g>
		<path style="fill:#FFFFFF;" d="M-26.6-23.1v-0.8c0-2.1,1.7-3.7,3.7-3.7h42.9c2.1,0,3.7,1.7,3.7,3.7v0.8H-26.6z"/>
		<path style="fill:#FFFFFF;" d="M24.8,6.6h-7.2c-0.1,0-0.1,0-0.2,0c-0.1,0-0.1,0-0.2,0h-38.6c-1.4,0-2.5-1.1-2.5-2.5v-7.8    c0-8.9,6-15.3,14.5-18.1H5.2C13-19.2,18.7-13.7,19.6-6h5.2c2.4,0,4.3,1.9,4.3,4.3v4C29.1,4.7,27.1,6.6,24.8,6.6z M25.8-1.6    c0-0.6-0.5-1.1-1.1-1.1h-5v6.1h5c0.6,0,1.1-0.5,1.1-1.1V-1.6z"/>
	</g>
</symbol>
<symbol id="escalier" viewBox="-61 -61 122 122">
	<path style="fill:#009393;" d="M61,0c0-33.7-27.3-61-61-61S-61-33.7-61,0s27.3,61,61,61S61,33.7,61,0z"/>
	<path style="fill:#009393;" d="M0,61c-33.7,0-61-27.3-61-61s27.3-61,61-61S61-33.7,61,0S33.7,61,0,61z M0-52.1   c-28.8,0-52.1,23.3-52.1,52.1S-28.8,52.1,0,52.1c28.8,0,52.1-23.3,52.1-52.1S28.8-52.1,0-52.1z"/>
	<path style="fill:#009393;stroke:#FFFFFF;stroke-width:8;stroke-miterlimit:10;" d="M52.1,0c0-28.8-23.3-52.1-52.1-52.1   S-52.1-28.8-52.1,0S-28.8,52.1,0,52.1S52.1,28.8,52.1,0z"/>
	<path style="fill:#FFFFFF;" d="M31.1,21.8c0-1.1-0.9-2-2-2h-9.4v-9.4c0-1.1-0.9-2-2-2H8.3l0-9.3C8.3-2,7.3-3,6.2-3h-9.3v-9.4   c0-1.1-0.9-2-2-2h-9.4v-9.4c0-1.1-0.9-2-2-2h-13.1c-1.1,0-2,0.9-2,2v1.7c0,1.1,0.9,2,2,2h9.4v9.4c0,1.1,0.9,2,2,2h9.4v9.4   c0,1.1,0.9,2,2,2h9.4v9.4c0,1.1,0.9,2,2,2H14v9.4c0,1.1,0.9,2,2,2h13.1c1.1,0,2-0.9,2-2V21.8z"/>
</symbol>
<defs id="defs_6_4">
<style type="text/css" id="polygons_css_6_4">.P6_4_0{fill:#6CAFBC;stroke:#888888;stroke-width:10;stroke-linecap:square;}
.P6_4_1{fill:#6CAFBC;}
.P6_4_2{fill:#C0C0C0;}
.P6_4_3{fill:#95B5B7;}
.P6_4_4{fill:#E88B8B;}
.P6_4_5{fill:#FFED47;}
.P6_4_6{fill:#DAEBEE;}
.P6_4_7{fill:#E260E6;stroke:#D931DF;stroke-width:5;stroke-linecap:square;}
.P6_4_8{fill:#B6D7DD;stroke:#B6D7DD;stroke-width:5;stroke-miterlimit:10;}
.P6_4_9{fill:#B6D7DD;}
.P6_4_10{fill:#FF0000;}
.P6_4_11{fill:#E53225;}
</style>
</defs>
</svg>
