<?xml version="1.0" encoding="utf-8"?>
<!-- Generator: Adobe Illustrator 20.0.0, SVG Export Plug-In . SVG Version: 6.00 Build 0)  -->
<svg xmlns:cc="http://creativecommons.org/ns#" xmlns:dc="http://purl.org/dc/elements/1.1/" xmlns:rdf="http://www.w3.org/1999/02/22-rdf-syntax-ns#" xmlns="http://www.w3.org/2000/svg" xmlns:svg="http://www.w3.org/2000/svg" xmlns:xlink="http://www.w3.org/1999/xlink" version="1.1" id="mapsvg_1_6_2_0_1" x="0px" y="0px" viewBox="0 0 12700 7500" xml:space="preserve">





<g id="Z_6_2">
	<g id="Z_6_2_B">
		<path id="Z_6_2_B44" d="M11618,2748.9l-649.5-579.1    l-8.5,10.2l-286.9-253.9l9.1-10.2l-470.7-419.6L9986.1,1764l37.9,32.9l-505.2,604.1l-293.9-243.1l12.4-15.2l-535.9-499.8    l-219.5,239.2l816.3,696.7l7-8.4l45.1,37.6l-19.6,25l257.1,212.6l10.5-12.7l401.8,336.7l-8.8,14.3l96,51l200.5,115.8l158.9,220.8    l-104,115.4l-384-320.8l-188,217.9l72.1,62l-26.4,31.8l451.4,381.8l120.1,100.7l193.2,206.2l258.7-236.2l-64-70l-166.8-144    l788-888.9l-12.7-10.7l222.6-254.3L11618,2748.9z M10161.8,2865.8l-346.8-288l102.5-122.7l352-426.2l235.4,209.9L10161.8,2865.8z     M11022.7,2918l-217.9,241.2l-121.6,140.9l-253.8-211.7l88.8-162.3l157-288.5l90.2-167.7l365.4,328.6L11022.7,2918z" class="P6_2_0"/>
		<path id="Z_6_2_B43" d="M11618,2748.9l-649.5-579.1l-8.5,10.2l-286.9-253.9l9.1-10.2l-470.7-419.6    L9986.1,1764l37.9,32.9l-505.2,604.1l-293.9-243.1l12.4-15.2l-535.9-499.8l-219.5,239.2l816.3,696.7l7-8.4l45.1,37.6l-19.6,25    l257.1,212.6l10.5-12.7l401.8,336.7l-8.8,14.3l96,51l200.5,115.8l158.9,220.8l-104,115.4l-384-320.8l-188,217.9l72.1,62    l-26.4,31.8l451.4,381.8l120.1,100.7l193.2,206.2l258.7-236.2l-64-70l-166.8-144l788-888.9l-12.7-10.7l222.6-254.3L11618,2748.9z     M10161.8,2865.8l-346.8-288l102.5-122.7l352-426.2l235.4,209.9L10161.8,2865.8z M11022.7,2918l-217.9,241.2l-121.6,140.9    l-253.8-211.7l88.8-162.3l157-288.5l90.2-167.7l365.4,328.6L11022.7,2918z" class="P6_2_1"/>
		
			<rect id="Z_6_2_B42" x="9978.2" y="1937.2" transform="matrix(0.6414 -0.7672 0.7672 0.6414 2094.3901 8451.5215)" width="221.1" height="95.9" class="P6_2_2"/>
		<polygon id="Z_6_2_B41" points="11449.9,2805.1 11456.4,2797.9 10969.7,2362.9 10959.6,2374.1     10959.6,2374.1 10898.2,2442.8 10996.4,2530.5 11008.7,2516.7 11217.9,2703.7 11205.5,2717.5 11385,2877.8 11397.3,2864     11397.3,2864 11418.5,2840.3 11449.9,2805.1   " class="P6_2_2"/>
		
			<rect id="Z_6_2_B40" x="10159" y="3077.4" transform="matrix(0.6414 -0.7672 0.7672 0.6414 1260.8993 8949.3428)" width="91.1" height="96.8" class="P6_2_2"/>
		<polygon id="Z_6_2_B39" points="10172.1,2984 10182.9,2971.3 10209.3,2924.6 10146.4,2890 10116.7,2938.9       " class="P6_2_3"/>
		
			<rect id="Z_6_2_B38" x="10277.2" y="2764.5" transform="matrix(0.4818 -0.8763 0.8763 0.4818 2919.1199 10559.8857)" width="220.5" height="95" class="P6_2_2"/>
		<polygon id="Z_6_2_B37" points="10290.8,3086.3 10364,2953.2 10280.8,2907.4 10217,3023.4   " class="P6_2_3"/>
		<polygon id="Z_6_2_B36" points="10791.3,2423.2 10701.7,2341.5 10505,2238.9 10373,2481.7 10562.2,2587.5     10598.5,2523.4 10707.1,2583.1   " class="P6_2_3"/>
		<polygon id="Z_6_2_B35" points="10926.3,2324.2 10703.2,2124.7 10646.9,2190.9 10680.4,2220.9     10665.6,2237.6 10853.8,2405.3 10853.8,2405.3   " class="P6_2_2"/>
		
			<rect id="Z_6_2_B34" x="10566.2" y="3602.3" transform="matrix(0.6656 -0.7463 0.7463 0.6656 824.4059 9140.5811)" width="92.5" height="96.1" class="P6_2_3"/>
		<polygon id="Z_6_2_B33" points="10438.2,3774.2 10466.8,3741.4 10538.5,3805.4 10509.6,3837.9   " class="P6_2_3"/>
		<polygon id="Z_6_2_B45" points="10695.4,4171.5 10740.9,4220.5 10839.6,4130.3 10775.6,4060.3     10709.8,4118.6 10730.5,4139.6   " class="P6_2_2"/>
		<polygon id="Z_6_2_B32" points="10658.2,4205.2 10593.7,4263.4 10639,4313.5 10702.3,4255.7   " class="P6_2_2"/>
		<polygon id="Z_6_2_B31" points="10367.7,1830.3 10370.3,1827.3 10249.7,1719.7 10191.5,1785.9     10302.8,1886.1 10359.3,1822.9   " class="P6_2_2"/>
		<polygon id="Z_6_2_B30" points="10570.7,2006.4 10393.7,1848.2 10391.2,1851.1 10420,1876.7     10380.4,1921.1 10448.9,1981.5 10434.4,1997.7 10343.5,1918.1 10341.4,1920.5 10511.6,2072.6   " class="P6_2_2"/>
		<polygon id="Z_6_2_B29" points="10434.4,1997.7 10448.9,1981.5 10380.4,1921.1 10420,1876.7     10391.2,1851.1 10393.7,1848.2 10371.8,1828.6 10370.3,1827.3 10367.7,1830.3 10359.3,1822.9 10302.8,1886.1 10341.4,1920.5     10343.5,1918.1   " class="P6_2_4"/>
		<polygon id="Z_6_2_B28" points="9852.4,3497.4 9851.2,3496.4 9831.9,3519.4 9876,3556.2 9886,3544.2     9888.4,3546.3 9897.2,3535.8 9897.7,3535.3   " class="P6_2_4"/>
		<polygon id="Z_6_2_B27" points="10709.8,4118.6 10730.4,4139.4 10795.4,4082 10775.6,4060.3   " class="P6_2_4"/>
		
			<rect id="Z_6_2_B26" x="10970.3" y="2472.2" transform="matrix(0.6663 -0.7456 0.7456 0.6663 1821.0304 9043.4795)" width="90.6" height="29.5" class="P6_2_4"/>
		
			<rect id="Z_6_2_B25" x="10906.8" y="2227.2" transform="matrix(0.6663 -0.7456 0.7456 0.6663 1968.3167 8910.1377)" width="66.7" height="57" class="P6_2_2"/>
		
			<rect id="Z_6_2_B24" x="11277.2" y="2666" transform="matrix(0.6663 -0.7456 0.7456 0.6663 1771.1 9316.6152)" width="37.3" height="26.6" class="P6_2_4"/>
		
			<rect id="Z_6_2_B23" x="11086.6" y="2551" transform="matrix(0.6663 -0.7456 0.7456 0.6663 1800.2255 9156.084)" width="88.7" height="31.1" class="P6_2_4"/>
		<polygon id="Z_6_2_B22" points="10874.8,3343.7 10846.5,3318.4 10871.8,3290.1 10871.8,3290.1     10891.7,3267.8 10959.2,3328.2 11088.4,3183.4 11017.3,3120 10752.1,3417.4 10754.2,3419.2 10637.5,3550.1 10691.8,3598.6     10692.3,3597.9 10719.4,3622.1 10782.2,3551.7 10755.1,3527.5 10808.5,3467.7 10823.2,3480.8 10939.4,3350.5 10900.1,3315.4   " class="P6_2_2"/>
		<polygon id="Z_6_2_B21" points="10891.7,3267.8 10871.8,3290.1 10871.8,3290.1 10846.5,3318.4     10874.8,3343.7 10900.1,3315.4 10939.4,3350.5 10959.2,3328.2   " class="P6_2_4"/>
		<polygon id="Z_6_2_B20" points="10658.3,4205.2 10702.3,4255.7 10741.2,4220.8 10695.5,4171.5   " class="P6_2_4"/>
		<path id="Z_6_2_B19" d="M9846.7,2767.1l-81.9-68.5l-58.4,69.9l388.9,325.1l58.4-69.9L9846.7,2767.1z     M10079.2,3051.2l-30.9-25.8l41.8-50l12.6,10.6l2.3-2.8l18.2,15.2l-2.3,2.8L10079.2,3051.2z" class="P6_2_2"/>
		<polygon id="Z_6_2_B18" points="10105.1,2983.2 10102.8,2986 10090.2,2975.4 10048.4,3025.4     10079.2,3051.2 10121,3001.3 10123.4,2998.4   " class="P6_2_4"/>
		<polygon id="Z_6_2_B17" points="9683.6,2631.2 9680.7,2634.8 9637.8,2686 9612.4,2664.7 9655.2,2613.5     9666,2622.5 9669,2619 9672.6,2622 9547.6,2517.5 9489.1,2587.4 9663.4,2733.1 9721.8,2663.2   " class="P6_2_2"/>
		<polygon id="Z_6_2_B16" points="9666,2622.5 9655.2,2613.5 9612.4,2664.7 9637.8,2686 9680.7,2634.8     9683.6,2631.2 9672.6,2622 9669,2619   " class="P6_2_4"/>
		
			<rect id="Z_6_2_B15" x="9668.7" y="2688" transform="matrix(0.6415 -0.7672 0.7672 0.6415 1399.4783 8426.0723)" width="90.8" height="55.7" class="P6_2_4"/>
		<polygon id="Z_6_2_B14" points="9521.7,2611 9491.1,2585.4 9510.7,2561.6 9541.3,2587.2   " class="P6_2_4"/>
		<polygon id="Z_6_2_B13" points="8641,1758.7 8616.3,1787 8590.4,1763.6 8633.2,1717 8670.5,1750.6     8673.8,1746.7 8636.7,1713.2 8550.1,1807.6 8701.4,1932.9 8704.5,1929.2 8689.4,1916.6 8745.1,1849.9 8776.9,1876.4     8757.2,1899.9 8734.5,1927.1 8721.1,1943.1 8718.1,1946.7 8731.3,1957.7 8792.2,1884.2   " class="P6_2_2"/>
		<polygon id="Z_6_2_B12" points="8734.5,1927.1 8757.2,1899.9 8776.9,1876.4 8745.1,1849.9 8689.4,1916.6     8704.5,1929.2 8701.4,1932.9 8718.1,1946.7 8721.1,1943.1   " class="P6_2_4"/>
		<polygon id="Z_6_2_B11" points="8616.3,1787 8590.4,1763.6 8633.2,1717 8670.5,1750.6 8654.3,1770.2     8641,1758.7   " class="P6_2_4"/>
		<polygon id="Z_6_2_B10" points="9374.6,2419.4 9500.8,2524 9465.5,2567.3 9338.3,2463.2   " class="P6_2_3"/>
		<polygon id="Z_6_2_B9" points="8792.2,1884.2 8917.5,2008.8 8867,2069.9 8731.3,1957.7   " class="P6_2_2"/>
		
			<rect id="Z_6_2_B8" x="10100.4" y="3048.7" transform="matrix(0.6415 -0.7672 0.7672 0.6415 1277.4814 8886.7705)" width="91.1" height="56.1" class="P6_2_4"/>
		
			<rect id="Z_6_2_B7" x="10604.9" y="3477.5" transform="matrix(0.6656 -0.7463 0.7463 0.6656 950.1526 9120.1377)" width="95.3" height="44.5" class="P6_2_4"/>
		<polygon id="Z_6_2_B6" points="10546.1,3468.7 10606,3395.5 10667.7,3449.4 10604.2,3520.5   " class="P6_2_2"/>
		<polygon id="Z_6_2_B5" points="10026.5,3422.6 9958.6,3366 9770.5,3583.9 9820.8,3626.9 9888.4,3546.3     9886,3544.2 9876,3556.2 9831.9,3519.4 9851.2,3496.4 9852.4,3497.4 9897.7,3535.3 9897.2,3535.8 9953.8,3468.4 9961.4,3474.4     9963.6,3471.8 9910.7,3427.6 9958.4,3370.5 10021.6,3423.3 9989.1,3462.2 9971.9,3482.8 9974.5,3484.8   " class="P6_2_2"/>
		<polygon id="Z_6_2_B4" points="10021.6,3423.3 9958.4,3370.5 9910.7,3427.6 9963.6,3471.8 9961.4,3474.4     9971.9,3482.8 9989.1,3462.2   " class="P6_2_4"/>
		
			<rect id="Z_6_2_B3" x="10487" y="3941.6" transform="matrix(0.6412 -0.7674 0.7674 0.6412 661.9759 9539.7314)" width="90.2" height="240.9" class="P6_2_2"/>
		<polygon id="Z_6_2_B2" points="10926.3,2324.2 10969.7,2362.9 10898.2,2442.8 10855.3,2403.7   " class="P6_2_4"/>
		<polygon id="Z_6_2_B1" points="9699.4,2525.5 9625.9,2464 9613,2479.4 9636.7,2499.3 9591.1,2553.9     9640.9,2595.5 9688.7,2538.4 9688.7,2538.4   " class="P6_2_2"/>
	</g>
	<g id="Z_6_2_A">
		<polygon id="Z_6_2_A142" points="9927.1,2671 10161.8,2865.8 10116.7,2938.9 10104.2,2928.3 10078.6,2961     9869.2,2785.9 9894.6,2757.4 9872.3,2737.4   " class="P6_2_5"/>
		<polygon id="Z_6_2_A141" points="9914.1,2120 9981,2039.2 10054.6,2100.7 9987.6,2181.5   " class="P6_2_6"/>
		<polygon id="Z_6_A_A141" points="10617.7,2047.7 10703.2,2124.7 10646.9,2190.9 10680.4,2220.9     10665.6,2237.6 10827.3,2381.8 10791.3,2423.2 10701.7,2341.5 10505,2238.9 10495.4,2230.8 10560.7,2158 10538.9,2138.4   " class="P6_2_5"/>
		<polygon id="Z_6_2_A140" points="10783.8,3718.9 10727.1,3668.6 10716.2,3681.5 10679.1,3647.8     10511.7,3835.4 10608.7,3916.3   " class="P6_2_5"/>
		<polygon id="Z_6_2_A138" points="8917.3,2008.8 8960.2,2051.1 8913.1,2108.1 8867,2069.9   " class="P6_2_6"/>
		
			<polygon id="Z_6_2_A139" points="    9030.2,2121.8 9138.6,2226.7 9105.2,2267 8990.5,2170.2   " class="P6_2_7"/>
		
			<rect id="Z_6_2_A137" x="9311.9" y="2406.9" transform="matrix(0.6374 -0.7705 0.7705 0.6374 1515.8344 8077.1113)" width="56.8" height="42" class="P6_2_6"/>
		
			<rect id="Z_6_2_A136" x="9772.1" y="2274.9" transform="matrix(0.6414 -0.7672 0.7672 0.6414 1734.1003 8355.9961)" width="68.6" height="95.9" class="P6_2_6"/>
		
			<rect id="Z_6_2_A135" x="10243.8" y="3827.4" transform="matrix(0.6412 -0.7674 0.7674 0.6412 730.6458 9280.207)" width="90.2" height="62.8" class="P6_2_6"/>
		<polygon id="Z_6_2_A134" points="10655.1,4166.7 10622.5,4139.5 10594.5,4172.9 10618.6,4193   " class="P6_2_6"/>
		<polygon id="Z_6_2_A133" points="10429.4,3088.4 10367.6,3162.5 10305.8,3111 10344,3041.5   " class="P6_2_6"/>
		
			<rect id="Z_6_2_A132" x="10273.1" y="3191.9" transform="matrix(0.6415 -0.7672 0.7672 0.6415 1233.1919 9066.0488)" width="85.1" height="43.6" class="P6_2_7"/>
		
			<rect id="Z_6_2_A131" x="9712.1" y="2381.6" transform="matrix(0.6354 -0.7721 0.7721 0.6354 1725.5051 8512.6328)" width="331.5" height="94.7" class="P6_2_6"/>
		
			<rect id="Z_6_2_A130" x="9974.7" y="2235.1" transform="matrix(0.6361 -0.7716 0.7716 0.6361 1877.2887 8545.9248)" width="47.8" height="95.4" class="P6_2_8"/>
		
			<rect id="Z_6_2_A129" x="9733.6" y="2014.8" transform="matrix(0.6414 -0.7672 0.7672 0.6414 1954.3 8307.0283)" width="261" height="95.9" class="P6_2_6"/>
		
			<rect id="Z_6_2_A128" x="9501.5" y="2267.9" transform="matrix(0.6414 -0.7672 0.7672 0.6414 1684.2313 8235.4209)" width="302" height="95.9" class="P6_2_6"/>
		
			<rect id="Z_6_2_A127" x="9740.7" y="2133.5" transform="matrix(0.6414 -0.7672 0.7672 0.6414 1827.6495 8273.4541)" width="48.4" height="95.9" class="P6_2_8"/>
		<polygon id="Z_6_2_A126" points="9434.4,2331.1 9487.1,2374.4 9436.5,2435.5     9383.8,2392.2   " class="P6_2_8"/>
		
			<rect id="Z_6_2_A125" x="9264.7" y="2139" transform="matrix(0.6374 -0.7705 0.7705 0.6374 1620.6169 7993.9785)" width="79.3" height="272" class="P6_2_6"/>
		<polygon id="Z_6_2_A124" points="8636.7,1713.2 8673.8,1746.7 9174.3,2218.9 9237.3,2142.5 8701.5,1642.9       " class="P6_2_6"/>
		<polygon id="Z_6_2_A123" points="8533.5,1825.7 8692.4,1961 8642.6,2019.3 8481.8,1881.9   " class="P6_2_6"/>
		
			<rect id="Z_6_2_A122" x="8655.8" y="1977.9" transform="matrix(0.6494 -0.7604 0.7604 0.6494 1517.1473 7316.605)" width="76.6" height="69.8" class="P6_2_8"/>
		
			<rect id="Z_6_2_A121" x="8708.8" y="2023.3" transform="matrix(0.6494 -0.7604 0.7604 0.6494 1501.2812 7372.8623)" width="76.6" height="69.8" class="P6_2_8"/>
		
			<rect id="Z_6_2_A120" x="8918.3" y="2213.4" transform="matrix(0.6494 -0.7604 0.7604 0.6494 1438.8199 7594.6587)" width="76.4" height="46.8" class="P6_2_8"/>
		
			<rect id="Z_6_2_A119" x="8817.8" y="2042.8" transform="matrix(0.6494 -0.7604 0.7604 0.6494 1468.6992 7488.3779)" width="76.6" height="216.9" class="P6_2_6"/>
		<polygon id="Z_6_2_A118" points="8999,2223 8949.4,2281 9297.9,2578.7 9305.3,2570 9350.9,2609     9330.6,2632.8 9417,2704.2 9477.5,2633.4 9403.4,2569.8 9408.5,2563.7   " class="P6_2_6"/>
		
			<rect id="Z_6_2_A117" x="9688.4" y="2807.4" transform="matrix(0.6414 -0.7672 0.7672 0.6414 1273.7365 8501.5479)" width="87.1" height="161.4" class="P6_2_6"/>
		<polygon id="Z_6_2_A116" points="10299.1,3258.7 10234.5,3204.7 10211.5,3232.3 10049.9,3097.2     10049.9,3097.2 9859.1,2937.7 9803.2,3004.5 9994.1,3164 9994.1,3164 10000.1,3169.5 9991.3,3183.8 10246.3,3321.7     10258.1,3307.7 10258.1,3307.7   " class="P6_2_6"/>
		
			<rect id="Z_6_2_A115" x="9769" y="2931.2" transform="matrix(0.6415 -0.7672 0.7672 0.6415 1250.9402 8587.4912)" width="87.1" height="48.6" class="P6_2_8"/>
		<polygon id="Z_6_2_A114" points="10299.1,3258.7 10502.9,3429.1 10474.3,3463.4 10467.9,3457.9     10413.2,3524.8 10287.7,3350.5 10246.3,3321.7   " class="P6_2_6"/>
		<polygon id="Z_6_2_A113" points="10276.9,2860.3 10190.8,2812.9 10146.4,2890 10234.1,2938.2     10263.2,2885.3 10263.2,2885.3   " class="P6_2_6"/>
		
			<rect id="Z_6_2_A112" x="10221.8" y="2767.1" transform="matrix(0.4818 -0.8763 0.8763 0.4818 2841.6008 10437.3486)" width="46.5" height="98.3" class="P6_2_8"/>
		
			<rect id="Z_6_2_A111" x="10244.2" y="2726.4" transform="matrix(0.4818 -0.8763 0.8763 0.4818 2888.8916 10435.8623)" width="46.5" height="98.3" class="P6_2_8"/>
		
			<rect id="Z_6_2_A110" x="10289" y="2644.9" transform="matrix(0.4818 -0.8763 0.8763 0.4818 2983.4734 10432.8896)" width="46.5" height="98.3" class="P6_2_8"/>
		
			<rect id="Z_6_2_A109" x="10538" y="2697.4" transform="matrix(0.4818 -0.8763 0.8763 0.4818 3066.5652 10678.2812)" width="46.5" height="98.3" class="P6_2_8"/>
		
			<rect id="Z_6_2_A108" x="10559.8" y="2655.5" transform="matrix(0.4818 -0.8763 0.8763 0.4818 3115.1506 10676.7539)" width="49" height="98.3" class="P6_2_8"/>
		
			<rect id="Z_6_2_A107" x="10584.4" y="2614.3" transform="matrix(0.4818 -0.8763 0.8763 0.4818 3163.0881 10675.2471)" width="45.2" height="98.3" class="P6_2_8"/>
		
			<rect id="Z_6_2_A106" x="10605.4" y="2573.4" transform="matrix(0.4818 -0.8763 0.8763 0.4818 3210.4995 10673.7588)" width="48" height="98.3" class="P6_2_8"/>
		
			<rect id="Z_6_2_A105" x="10628.5" y="2531.4" transform="matrix(0.4818 -0.8763 0.8763 0.4818 3259.3298 10672.2236)" width="48" height="98.3" class="P6_2_8"/>
		
			<rect id="Z_6_2_A104" x="10273.7" y="2540.4" transform="matrix(0.4818 -0.8763 0.8763 0.4818 3104.8708 10429.0693)" width="192.1" height="98.3" class="P6_2_6"/>
		
			<rect id="Z_6_2_A103" x="10298.6" y="2867.3" transform="matrix(0.4818 -0.8763 0.8763 0.4818 2869.98 10684.876)" width="339.9" height="97.4" class="P6_2_6"/>
		<polygon id="Z_6_2_A102" points="10324.8,1597.8 10211.5,1496.3 9986.1,1764 10024.5,1796.3 9942.1,1894.7     10015.7,1956.2 10097.8,1858 10097.8,1858   " class="P6_2_6"/>
		
			<rect id="Z_6_2_A101" x="10310.3" y="1617" transform="matrix(0.6652 -0.7466 0.7466 0.6652 2192.2385 8314.6953)" width="115.9" height="191.4" class="P6_2_6"/>
		<polygon id="Z_6_2_A100" points="10673.1,1926 10682.7,1915.2 10514.4,1765.3 10438,1851 10470,1879.6     10470,1879.6 10649.2,2039.2 10716,1964.2   " class="P6_2_6"/>
		
			<rect id="Z_6_2_A99" x="10221" y="1609.1" transform="matrix(0.6652 -0.7466 0.7466 0.6652 2221.4148 8221.0039)" width="114.8" height="48.4" class="P6_2_8"/>
		
			<rect id="Z_6_2_A98" x="10400.7" y="1767.9" transform="matrix(0.6652 -0.7466 0.7466 0.6652 2163.0432 8408.3633)" width="114.8" height="48.4" class="P6_2_8"/>
		<polygon id="Z_6_2_A97" points="10384.9,2000.2 10303,1926.7 10241.4,1995.5 10202.8,1961.1 9977,2234     10050.6,2294.6 10269.7,2028.9 10319.2,2073.4   " class="P6_2_6"/>
		
			<rect id="Z_6_2_A96" x="10319.7" y="2029.3" transform="matrix(0.668 -0.7442 0.7442 0.668 1915.8582 8397.793)" width="98.3" height="45.2" class="P6_2_8"/>
		
			<rect id="Z_6_2_A95" x="10354.1" y="2059.2" transform="matrix(0.668 -0.7442 0.7442 0.668 1904.5244 8433.3867)" width="98" height="46.4" class="P6_2_8"/>
		
			<rect id="Z_6_2_A94" x="10425.4" y="2073.8" transform="matrix(0.668 -0.7442 0.7442 0.668 1880.7343 8507.4805)" width="97.8" height="144.6" class="P6_2_6"/>
		
			<rect id="Z_6_2_A93" x="11059.5" y="2256.8" transform="matrix(0.6652 -0.7466 0.7466 0.6652 1947.3929 9094.3916)" width="111.7" height="237.4" class="P6_2_6"/>
		
			<rect id="Z_6_2_A92" x="11236.6" y="2461.7" transform="matrix(0.6652 -0.7466 0.7466 0.6652 1888.8662 9279.4463)" width="111.7" height="143.3" class="P6_2_6"/>
		
			<rect id="Z_6_2_A91" x="11442.9" y="2606.2" transform="matrix(0.6652 -0.7466 0.7466 0.6652 1820.6865 9495.0332)" width="111.7" height="222" class="P6_2_6"/>
		
			<rect id="Z_6_2_A90" x="11165.6" y="2446.7" transform="matrix(0.6652 -0.7466 0.7466 0.6652 1912.3151 9205.2754)" width="111.7" height="46.9" class="P6_2_8"/>
		
			<rect id="Z_6_2_A89" x="11307.6" y="2573.2" transform="matrix(0.6652 -0.7466 0.7466 0.6652 1865.4055 9353.6016)" width="111.7" height="46.9" class="P6_2_8"/>
		
			<rect id="Z_6_2_A88" x="11342.5" y="2604.3" transform="matrix(0.6652 -0.7466 0.7466 0.6652 1853.8447 9390.1562)" width="111.7" height="46.9" class="P6_2_8"/>
		
			<rect id="Z_6_2_A87" x="11008.4" y="2550.5" transform="matrix(0.6678 -0.7443 0.7443 0.6678 1688.8081 9116.4814)" width="100" height="231.3" class="P6_2_6"/>
		<polygon id="Z_6_2_A86" points="11264.5,2805.5 11167.1,2718.1 11110.9,2780.8 11130.7,2798.5     11102.3,2830.1 11179.9,2899.8 11223,2851.7   " class="P6_2_6"/>
		
			<rect id="Z_6_2_A85" x="10985.3" y="2881.2" transform="matrix(0.6656 -0.7463 0.7463 0.6656 1514.7212 9248.8184)" width="186.3" height="105.8" class="P6_2_6"/>
		
			<rect id="Z_6_2_A84" x="10978" y="2967.9" transform="matrix(0.6656 -0.7463 0.7463 0.6656 1424.1334 9220.084)" width="46.1" height="105.8" class="P6_2_8"/>
		
			<rect id="Z_6_2_A83" x="10826.8" y="3056" transform="matrix(0.6656 -0.7463 0.7463 0.6656 1331.8812 9190.7041)" width="190.7" height="106.1" class="P6_2_6"/>
		
			<rect id="Z_6_2_A81" x="11315.1" y="2960.9" transform="matrix(0.6656 -0.7463 0.7463 0.6656 1543.9852 9470.9912)" width="51.8" height="103.1" class="P6_2_8"/>
		
			<rect id="Z_6_2_A80" x="11318.9" y="2873.1" transform="matrix(0.6656 -0.7463 0.7463 0.6656 1658.7275 9508.9268)" width="243.7" height="60.7" class="P6_2_6"/>
		<polygon id="Z_6_2_A79" points="11021.2,3293.6 11285.3,2997.5 11362.2,3066.2 11099.2,3363.1   " class="P6_2_6"/>
		<polygon id="Z_6_2_A78" points="10694.1,3287.5 10819.1,3144.9 10898.3,3215.5 10772.1,3357   " class="P6_2_6"/>
		
			<rect id="Z_6_2_A77" x="11022.9" y="3296.8" transform="matrix(0.6633 -0.7484 0.7484 0.6633 1214.7662 9393.876)" width="46.7" height="100.4" class="P6_2_8"/>
		
			<rect id="Z_6_2_A76" x="10990.4" y="3332.5" transform="matrix(0.6633 -0.7484 0.7484 0.6633 1177.4348 9382.2295)" width="48.6" height="100.4" class="P6_2_8"/>
		
			<rect id="Z_6_2_A75" x="10959.7" y="3368.2" transform="matrix(0.6633 -0.7484 0.7484 0.6633 1140.0793 9370.5781)" width="46.8" height="100.4" class="P6_2_8"/>
		<polygon id="Z_6_2_A74" points="10930,3402.6 10818.6,3528.3 10837,3544.6 10727.1,3668.6 10783.8,3718.9     11005.1,3469.2   " class="P6_2_6"/>
		
			<rect id="Z_6_2_A73" x="10477.3" y="3066" transform="matrix(0.6401 -0.7683 0.7683 0.6401 1305.4661 9249.499)" width="96.5" height="330.7" class="P6_2_6"/>
		<polygon id="Z_6_2_A72" points="10413.2,3524.8 10467.9,3457.9 10517.4,3500.4     10464.3,3559.9 10460.1,3556.2 10446.6,3571.3   " class="P6_2_8"/>
		<polygon id="Z_6_2_A71" points="10339.1,3691.9 10343.2,3687.3 10218,3582.6 10157.3,3655.3     10254.5,3736.5 10254.5,3736.5 10301.8,3776 10358,3708.7   " class="P6_2_6"/>
		
			<rect id="Z_6_2_A70" x="10122.1" y="3580" transform="matrix(0.6412 -0.7674 0.7674 0.6412 883.5228 9097.041)" width="94.7" height="47.5" class="P6_2_8"/>
		
			<rect id="Z_6_2_A69" x="9856.3" y="3614.2" transform="matrix(0.6412 -0.7674 0.7674 0.6412 722.3539 8924.6436)" width="96.5" height="151.3" class="P6_2_6"/>
		
			<rect id="Z_6_2_A68" x="9932.8" y="3729.8" transform="matrix(0.6412 -0.7674 0.7674 0.6412 700.7529 9006.3037)" width="96.5" height="48.1" class="P6_2_8"/>
		
			<rect id="Z_6_2_A67" x="10132.4" y="3898.3" transform="matrix(0.6412 -0.7674 0.7674 0.6412 643.3953 9220.4775)" width="98.1" height="47.9" class="P6_2_8"/>
		
			<rect id="Z_6_2_A66" x="10168.7" y="3929.2" transform="matrix(0.6412 -0.7674 0.7674 0.6412 633.1487 9259.2051)" width="98.1" height="46.7" class="P6_2_8"/>
		
			<rect id="Z_6_2_A65" x="10268.2" y="3929.3" transform="matrix(0.6412 -0.7674 0.7674 0.6412 605.0305 9365.4561)" width="98.1" height="212.8" class="P6_2_6"/>
		<polygon id="Z_6_2_A64" points="10194.5,3869.3 10030.5,3732.2 9968.6,3806.3 10131.6,3944.5   " class="P6_2_6"/>
		<polygon id="Z_6_2_A63" points="10775.6,4060.3 10599.8,3908.6 10541.7,3978.1 10709.8,4118.6   " class="P6_2_6"/>
		
			<rect id="Z_6_2_A61" x="10076.1" y="3529" transform="matrix(0.6412 -0.7674 0.7674 0.6412 896.5071 9047.8916)" width="94.6" height="72.5" class="P6_2_6"/>
		
			<rect id="Z_6_2_A60" x="10029.5" y="3502" transform="matrix(0.6412 -0.7674 0.7674 0.6412 909.6553 8998.2061)" width="94.6" height="48.8" class="P6_2_8"/>
		
			<rect id="Z_6_2_A59" x="9979.8" y="3444.4" transform="matrix(0.6412 -0.7674 0.7674 0.6412 923.6938 8945.1367)" width="94.6" height="80.8" class="P6_2_6"/>
		<polygon id="Z_6_2_A57" points="10365.5,4141.6 10387.7,4160.3 10402.3,4175.8     10475.7,4108.6 10430.4,4066.4   " class="P6_2_8"/>
		<polygon id="Z_6_2_A56" points="10512.4,4139.6 10434.1,4209.8 10402.3,4175.8     10475.7,4108.6   " class="P6_2_8"/>
		<polygon id="Z_6_2_A55" points="10580.9,4366.5 10639,4313.5 10593.7,4263.4 10610,4249.1 10512.4,4139.6     10434.1,4209.8   " class="P6_2_6"/>
		
			<rect id="Z_6_2_A54" x="9939.2" y="1896.1" transform="matrix(0.6414 -0.7672 0.7672 0.6414 2080.9629 8340.6191)" width="48.4" height="95.9" class="P6_2_8"/>
		
			<rect id="Z_6_2_A53" x="10266.6" y="2685.7" transform="matrix(0.4818 -0.8763 0.8763 0.4818 2936.1826 10434.376)" width="46.5" height="98.3" class="P6_2_8"/>
		
			<rect id="Z_6_2_A52" x="10104.7" y="3717.6" transform="matrix(0.6412 -0.7674 0.7674 0.6412 770.5832 9129.2725)" width="85.6" height="46" class="P6_2_7"/>
		
			<rect id="Z_6_2_A51" x="10140" y="3747.1" transform="matrix(0.6412 -0.7674 0.7674 0.6412 760.6172 9166.9395)" width="85.6" height="46" class="P6_2_7"/>
		
			<rect id="Z_6_2_A50" x="9916" y="3559" transform="matrix(0.6412 -0.7674 0.7674 0.6412 823.7451 8928.1016)" width="85.8" height="48.4" class="P6_2_7"/>
		
			<rect id="Z_6_2_A49" x="9807.1" y="2597.1" transform="matrix(0.6361 -0.7716 0.7716 0.6361 1530.2109 8567.5908)" width="81.8" height="128.9" class="P6_2_9"/>
		<polygon id="Z_6_2_A48" points="9700.7,2592     9744.8,2538.4 9808.2,2590.3 9815.4,2581.9 9824.4,2589.1 9772.3,2652.1   " class="P6_2_9"/>
		
			<rect id="Z_6_2_A46" x="9697.4" y="2376.4" transform="matrix(0.6414 -0.7672 0.7672 0.6414 1625.8193 8327.2881)" width="48.3" height="95.9" class="P6_2_7"/>
		
			<rect id="Z_6_2_A45" x="9728.4" y="2339.3" transform="matrix(0.6414 -0.7672 0.7672 0.6414 1665.3337 8337.7656)" width="48.3" height="95.9" class="P6_2_7"/>
		
			<rect id="Z_6_2_A47" x="9650.5" y="2420.9" transform="matrix(0.6414 -0.7672 0.7672 0.6414 1578.3478 8314.6992)" width="67.7" height="95.9" class="P6_2_9"/>
		
			<rect id="Z_6_2_A44" x="9882.2" y="2159.3" transform="matrix(0.6414 -0.7672 0.7672 0.6414 1859.9928 8389.4814)" width="45.9" height="91.1" class="P6_2_7"/>
		
			<rect id="Z_6_2_A43" x="9911.7" y="2124.1" transform="matrix(0.6414 -0.7672 0.7672 0.6414 1897.589 8399.4492)" width="45.9" height="91.1" class="P6_2_7"/>
		
			<polygon id="Z_6_2_A42" points="    10144.3,1848.6 10175.1,1811.6 10243.2,1872.5 10212.9,1907.6   " class="P6_2_7"/>
		
			<rect id="Z_6_2_A41" x="9473.9" y="2384.7" transform="matrix(0.6374 -0.7705 0.7705 0.6374 1571.48 8205.9844)" width="62.3" height="97" class="P6_2_9"/>
		
			<polygon id="Z_6_2_A40" points="    8958.9,2052.7 8995.6,2087.7 8953.1,2139.4 8916.3,2107.4   " class="P6_2_7"/>
		
			<polygon id="Z_6_2_A39" points="    8995.6,2087.7 9030.2,2121.8 8990.5,2170.2 8953.1,2139.4   " class="P6_2_7"/>
		
			<rect id="Z_6_2_A38" x="9244" y="2347.7" transform="matrix(0.6374 -0.7705 0.7705 0.6374 1535.3776 8002.0503)" width="52.7" height="43.9" class="P6_2_7"/>
		
			<rect id="Z_6_2_A37" x="9278.5" y="2375.3" transform="matrix(0.6374 -0.7705 0.7705 0.6374 1525.8889 8039.0054)" width="52.7" height="45.7" class="P6_2_7"/>
		
			<rect id="Z_6_2_A36" x="9546" y="2755.1" transform="matrix(0.6374 -0.7705 0.7705 0.6374 1329.7151 8400.4209)" width="89.4" height="64.4" class="P6_2_9"/>
		
			<rect id="Z_6_2_A35" x="9952.2" y="3590.5" transform="matrix(0.6412 -0.7674 0.7674 0.6412 813.5375 8966.6826)" width="85.8" height="45.9" class="P6_2_7"/>
		
			<rect id="Z_6_2_A34" x="10235.1" y="3162.4" transform="matrix(0.6415 -0.7672 0.7672 0.6415 1243.1534 9028.2256)" width="90" height="43.6" class="P6_2_6"/>
		
			<rect id="Z_6_2_A33" x="10433.2" y="3324.7" transform="matrix(0.6415 -0.7672 0.7672 0.6415 1188.0177 9236.9062)" width="85.3" height="45.5" class="P6_2_7"/>
		
			<rect id="Z_6_2_A32" x="10469.1" y="3353.5" transform="matrix(0.6415 -0.7672 0.7672 0.6415 1177.8618 9275.2109)" width="85.3" height="48.1" class="P6_2_7"/>
		
			<polygon id="Z_6_2_A31" points="    10065.4,1673.6 10120.5,1608.2 10169.2,1649.1 10113.1,1713.6   " class="P6_2_7"/>
		
			<rect id="Z_6_2_A30" x="10138.8" y="1687.7" transform="matrix(0.644 -0.765 0.765 0.644 2312.3391 8399.9824)" width="85.5" height="55.5" class="P6_2_7"/>
		
			<rect id="Z_6_2_A28" x="10659.7" y="1990.3" transform="matrix(0.6652 -0.7466 0.7466 0.6652 2072.0574 8674.1318)" width="98.6" height="72.3" class="P6_2_9"/>
		
			<rect id="Z_6_2_A27" x="10209.1" y="1920.5" transform="matrix(0.6652 -0.7466 0.7466 0.6652 1980.979 8305.8564)" width="87.5" height="46.7" class="P6_2_7"/>
		
			<rect id="Z_6_2_A26" x="10713.7" y="2038.3" transform="matrix(0.6652 -0.7466 0.7466 0.6652 2054.2229 8730.5234)" width="98.6" height="72.3" class="P6_2_9"/>
		
			<rect id="Z_6_2_A25" x="10810.9" y="2067" transform="matrix(0.6652 -0.7466 0.7466 0.6652 2022.084 8832.166)" width="98.6" height="188.3" class="P6_2_9"/>
		
			<rect id="Z_6_2_A24" x="10845" y="2482.3" transform="matrix(0.6678 -0.7443 0.7443 0.6678 1735.9703 8935.6152)" width="68.7" height="81" class="P6_2_9"/>
		
			<rect id="Z_6_2_A23" x="10901.3" y="2538.2" transform="matrix(0.6678 -0.7443 0.7443 0.6678 1717.0408 8994.3984)" width="68.7" height="70.5" class="P6_2_9"/>
		
			<rect id="Z_6_2_A22" x="11250.6" y="2837.4" transform="matrix(0.6656 -0.7463 0.7463 0.6656 1622.3202 9390.8291)" width="80.3" height="95.2" class="P6_2_9"/>
		
			<rect id="Z_6_2_A21" x="11178.6" y="2928.9" transform="matrix(0.6656 -0.7463 0.7463 0.6656 1529.53 9361.4297)" width="65.8" height="89.9" class="P6_2_7"/>
		
			<rect id="Z_6_2_A20" x="11150.8" y="2970.8" transform="matrix(0.6656 -0.7463 0.7463 0.6656 1485.7448 9347.542)" width="46.6" height="89.9" class="P6_2_9"/>
		
			<rect id="Z_6_2_A19" x="11065" y="3068.9" transform="matrix(0.6656 -0.7463 0.7463 0.6656 1382.8634 9314.8828)" width="42.4" height="90.6" class="P6_2_7"/>
		<polygon id="Z_6_2_A18" points="10470.3,3741.2     10547.6,3654.4 10614.7,3716.2 10538.4,3801.9   " class="P6_2_9"/>
		<polygon id="Z_6_2_A17" points="10342,3691.2     10461.7,3557.6 10531.5,3619.9 10412.1,3753.7   " class="P6_2_9"/>
		
			<rect id="Z_6_2_A16" x="10482.3" y="3519.8" transform="matrix(0.6656 -0.7463 0.7463 0.6656 862.2518 9041.6846)" width="77.6" height="77.7" class="P6_2_9"/>
		<polygon id="Z_6_2_A15" points="10385.1,3843.1     10437.9,3778 10508.6,3835.3 10453,3900   " class="P6_2_9"/>
		<polygon id="Z_6_2_A14" points="10674.6,3453     10609.3,3395 10694.1,3291.1 10760.3,3350.1   " class="P6_2_9"/>
		
			<rect id="Z_6_2_A13" x="10312.8" y="3729.2" transform="matrix(0.6412 -0.7674 0.7674 0.6412 827.6483 9298.7998)" width="89" height="70.3" class="P6_2_9"/>
		<polygon id="Z_6_2_A12" points="9475.9,2635.2     9594.4,2732.3 9537.4,2801.2 9418.6,2702.3   " class="P6_2_9"/>
		
			<rect id="Z_6_2_A11" x="9811.6" y="2212.4" transform="matrix(0.6414 -0.7672 0.7672 0.6414 1800.7264 8373.6602)" width="94.1" height="95.9" class="P6_2_6"/>
		
			<rect id="Z_6_2_A10" x="10342" y="3872.4" transform="matrix(0.6412 -0.7674 0.7674 0.6412 702.9123 9385.0156)" width="90.2" height="137" class="P6_2_6"/>
		
			<rect id="Z_6_2_A9" x="9159.1" y="2218.6" transform="matrix(0.6374 -0.7705 0.7705 0.6374 1557.8317 7913.5239)" width="56.8" height="165.7" class="P6_2_6"/>
		
			<rect id="Z_6_2_A8" x="9606.1" y="2792.9" transform="matrix(0.6374 -0.7705 0.7705 0.6374 1322.7582 8454.498)" width="77.3" height="57.6" class="P6_2_6"/>
		
			<rect id="Z_6_2_A7" x="10350.1" y="3200.6" transform="matrix(0.6414 -0.7672 0.7672 0.6414 1210.6885 9150.9795)" width="90.2" height="159.3" class="P6_2_6"/>
		
			<rect id="Z_6_2_A6" x="11088.1" y="3018.2" transform="matrix(0.6656 -0.7463 0.7463 0.6656 1433.5143 9330.9551)" width="82.7" height="95.2" class="P6_2_6"/>
		
			<rect id="Z_6_2_A5" x="10026.2" y="3603.2" transform="matrix(0.6412 -0.7674 0.7674 0.6412 792.0776 9048.0127)" width="90.2" height="147.7" class="P6_2_6"/>
		
			<rect id="Z_6_2_A4" x="10188.4" y="3771.8" transform="matrix(0.6412 -0.7674 0.7674 0.6412 746.2792 9221.1162)" width="90.2" height="81.6" class="P6_2_6"/>
		<polygon id="Z_6_2_A3" points="10694.3,4138.5 10652.3,4103.8 10622.5,4139.5 10655.1,4166.7   " class="P6_2_6"/>
		<polygon id="Z_6_2_A2" points="10599.7,3908.7 10531.5,3851.3 10472.7,3920.5 10541.7,3978.1   " class="P6_2_6"/>
		
			<rect id="Z_6_2_A1" x="10428.4" y="2582.5" transform="matrix(0.4818 -0.8763 0.8763 0.4818 3130.4055 10553.2471)" width="118.2" height="95" class="P6_2_6"/>
		<polygon id="Z_6_2_A143" points="10122.9,1869.6 10142.8,1846.4 10214.4,1909.2 10196.5,1931.1   " class="P6_2_6"/>
	</g>
	<g id="Z_6_2_I">
		
			<use xlink:href="#cafe" width="132.7" height="132.6" id="sZ_6_2_A142" x="-66.4" y="-66.3" transform="matrix(0.3767 0 0 -0.3767 10005.5488 2811.6587)" style="overflow:visible;"/>
		
			<use xlink:href="#cafe" width="132.7" height="132.6" id="sZ_6_2_A140" x="-66.4" y="-66.3" transform="matrix(0.3767 0 0 -0.3767 10647.7598 3775.9741)" style="overflow:visible;"/>
		
			<use xlink:href="#WC" width="132.7" height="132.6" id="sZ_6_2_I40" x="-66.4" y="-66.3" transform="matrix(0.3767 0 0 -0.3767 11003.9248 3208.1033)" style="overflow:visible;"/>
		
			<use xlink:href="#WC" width="132.7" height="132.6" id="sZ_6_2_I39" x="-66.4" y="-66.3" transform="matrix(0.3767 0 0 -0.3767 11388.4053 2793.613)" style="overflow:visible;"/>
		
			<use xlink:href="#WC" width="132.7" height="132.6" id="sZ_6_2_I38" x="-66.4" y="-66.3" transform="matrix(0.3767 0 0 -0.3767 11228.4541 2656.551)" style="overflow:visible;"/>
		
			<use xlink:href="#WC" width="132.7" height="132.6" id="sZ_6_2_I37" x="-66.4" y="-66.3" transform="matrix(0.3767 0 0 -0.3767 10824.5459 2305.9573)" style="overflow:visible;"/>
		
			<use xlink:href="#escalier" width="132.7" height="132.6" id="sZ_6_2_I36" x="-66.4" y="-66.3" transform="matrix(0.3767 0 0 -0.3767 10048.4717 2980.6611)" style="overflow:visible;"/>
		
			<use xlink:href="#escalier" width="132.7" height="132.6" id="sZ_6_2_I35" x="-66.4" y="-66.3" transform="matrix(0.3767 0 0 -0.3767 9587.2617 2607.3621)" style="overflow:visible;"/>
		
			<use xlink:href="#escalier" width="132.7" height="132.6" id="sZ_6_2_I34" x="-66.4" y="-66.3" transform="matrix(0.3767 0 0 -0.3767 8661.0928 1832.8699)" style="overflow:visible;"/>
		
			<use xlink:href="#escalier" width="132.7" height="132.6" id="sZ_6_2_I33" x="-66.4" y="-66.3" transform="matrix(0.3767 0 0 -0.3767 10841.5703 3378.3547)" style="overflow:visible;"/>
		
			<use xlink:href="#escalier" width="132.7" height="132.6" id="sZ_6_2_I32" x="-66.4" y="-66.3" transform="matrix(0.3767 0 0 -0.3767 11308.7627 2724.2964)" style="overflow:visible;"/>
		
			<use xlink:href="#escalier" width="132.7" height="132.6" id="sZ_6_2_I31" x="-66.4" y="-66.3" transform="matrix(0.3767 0 0 -0.3767 11078.4375 2521.2063)" style="overflow:visible;"/>
		
			<use xlink:href="#escalier" width="132.7" height="132.6" id="sZ_6_2_I29" x="-66.4" y="-66.3" transform="matrix(0.3767 0 0 -0.3767 9904.5449 3474.4224)" style="overflow:visible;"/>
		
			<use xlink:href="#ascenseur" width="132.7" height="132.6" id="sZ_6_2_I28" x="-66.4" y="-66.3" transform="matrix(0.3767 0 0 -0.3767 10658.2949 4234.3809)" style="overflow:visible;"/>
		
			<use xlink:href="#ascenseur" width="132.7" height="132.6" id="sZ_6_2_I26" x="-66.4" y="-66.3" transform="matrix(0.3767 0 0 -0.3767 10911.46 2383.4995)" style="overflow:visible;"/>
		
			<use xlink:href="#WC" width="132.7" height="132.6" id="sZ_6_2_I25" x="-66.4" y="-66.3" transform="matrix(0.3767 0 0 -0.3767 10278.3984 1799.9739)" style="overflow:visible;"/>
		
			<use xlink:href="#WC" width="132.7" height="132.6" id="sZ_6_2_I24" x="-66.4" y="-66.3" transform="matrix(0.3767 0 0 -0.3767 10082.9238 1990.5156)" style="overflow:visible;"/>
		
			<use xlink:href="#WC" width="132.7" height="132.6" id="sZ_6_2_I23" x="-66.4" y="-66.3" transform="matrix(0.3767 0 0 -0.3767 10382.8623 2813.2502)" style="overflow:visible;"/>
		
			<use xlink:href="#WC" width="132.7" height="132.6" id="sZ_6_2_I22" x="-66.4" y="-66.3" transform="matrix(0.3767 0 0 -0.3767 9892.167 2875.5586)" style="overflow:visible;"/>
		
			<use xlink:href="#WC" width="132.7" height="132.6" id="sZ_6_2_I21" x="-66.4" y="-66.3" transform="matrix(0.3767 0 0 -0.3767 8829.0381 1990.5156)" style="overflow:visible;"/>
		
			<use xlink:href="#WC" width="132.7" height="132.6" id="sZ_6_2_I20" x="-66.4" y="-66.3" transform="matrix(0.3767 0 0 -0.3767 10548.1621 4066.3535)" style="overflow:visible;"/>
		
			<use xlink:href="#escalier" width="132.7" height="132.6" id="sZ_6_2_I19" x="-66.4" y="-66.3" transform="matrix(0.3767 0 0 -0.3767 10393.043 1940.1147)" style="overflow:visible;"/>
		
			<use xlink:href="#ascenseur" width="132.7" height="132.6" id="sZ_6_2_I17" x="-66.4" y="-66.3" transform="matrix(0.3767 0 0 -0.3767 10145.9551 3076.7144)" style="overflow:visible;"/>
		
			<use xlink:href="#ascenseur" width="132.7" height="132.6" id="sZ_6_2_I15" x="-66.4" y="-66.3" transform="matrix(0.3767 0 0 -0.3767 10652.5547 3499.7607)" style="overflow:visible;"/>
		
			<use xlink:href="#ascenseur" width="132.7" height="132.6" id="sZ_6_2_I13" x="-66.4" y="-66.3" transform="matrix(0.3767 0 0 -0.3767 9713.6426 2713.0334)" style="overflow:visible;"/>
		
			<use xlink:href="#escalier" width="132.7" height="132.6" id="sZ_6_2_I12" x="-66.4" y="-66.3" transform="matrix(0.3767 0 0 -0.3767 10774.7422 4139.3696)" style="overflow:visible;"/>
		
			<use xlink:href="#cafe" width="132.7" height="132.6" id="sZ_6_2_A141" x="-66.4" y="-66.3" transform="matrix(0.3767 0 0 -0.3767 10606.9629 2205.7786)" style="overflow:visible;"/>
		
			<use xlink:href="#escalier" width="132.7" height="132.6" id="sZ_6_2_I3" x="-66.4" y="-66.3" transform="matrix(0.3767 0 0 -0.3767 9831.917 3567.5793)" style="overflow:visible;"/>
	</g>
	<g id="Z_6_2_R">
		
		
	</g>
</g>

<symbol id="WC" viewBox="-61 -61 122 122">
	<path style="fill:#009393;" d="M61,0c0-33.7-27.3-61-61-61S-61-33.7-61,0s27.3,61,61,61S61,33.7,61,0z"/>
	<path style="fill:#009393;" d="M0,61c-33.7,0-61-27.3-61-61s27.3-61,61-61c33.7,0,61,27.3,61,61S33.7,61,0,61z M0-52.1   c-28.8,0-52.1,23.3-52.1,52.1S-28.8,52.1,0,52.1c28.8,0,52.1-23.3,52.1-52.1S28.8-52.1,0-52.1z"/>
	<path style="fill:#009393;stroke:#FFFFFF;stroke-width:8;stroke-miterlimit:10;" d="M52.1,0c0-28.8-23.3-52.1-52.1-52.1   S-52.1-28.8-52.1,0S-28.8,52.1,0,52.1S52.1,28.8,52.1,0z"/>
	<g>
		<polygon style="fill:#FFFFFF;" points="4.8,32.5 4.8,-32.7 -1.3,-32.7 -1.3,32.5   "/>
		<path style="fill:#FFFFFF;" d="M1.7-0.1"/>
		<path style="fill:#FFFFFF;" d="M-20.7,22.3c3,0,5.4,2.4,5.4,5.4c0,3-2.4,5.4-5.4,5.4c-3,0-5.4-2.4-5.4-5.4    C-26,24.7-23.6,22.3-20.7,22.3L-20.7,22.3z"/>
		<path style="fill:#FFFFFF;" d="M-20.7,27.7"/>
		<path style="fill:#FFFFFF;" d="M-21.5-11.8v-18.8c0-3.4-5-3.4-5,0v18.8h-6.7l7.2,24.9h-1.2l-4.2-14.2c-1-3.1-5.3-1.8-4.3,1.5    l4.7,15.5c0.5,1.8,2.7,4.9,6.6,4.9h3.5l0,0h3.9c3.8,0,6.1-3.1,6.6-4.9l4.7-15.4C-4.7-2.9-9-4.2-10-1l-4.2,14.2h-1.2l7.2-24.9h-6.7    v-18.8c0-3.3-5-3.3-5,0v18.8L-21.5-11.8L-21.5-11.8z"/>
		<path style="fill:#FFFFFF;" d="M17.7,20.8c-3.8,0-6.8-3.1-6.8-7V-2.8c0-3.2,4.6-3.2,4.7,0v15.2h1.1v-42.1c0-4.3,6.2-4.2,6.2,0    v24.6h1.1v-24.6c0-4.2,6.2-4.3,6.2,0v42.1h1.1V-2.8c0-3.3,4.6-3.3,4.6,0v16.5c0,3.6-2.7,7.1-6.9,7.1L17.7,20.8L17.7,20.8z"/>
		<path style="fill:#FFFFFF;" d="M23.3,22.3c2.9,0,5.4,2.4,5.4,5.4c0,3-2.4,5.4-5.4,5.4c-3,0-5.4-2.4-5.4-5.4    C18,24.7,20.4,22.3,23.3,22.3L23.3,22.3z"/>
		<path style="fill:#FFFFFF;" d="M23.3,27.7"/>
	</g>
</symbol>
<symbol id="ascenseur" viewBox="-61 -61 122 122">
	<path style="fill:#009393;" d="M61,0c0-33.7-27.3-61-61-61S-61-33.7-61,0s27.3,61,61,61S61,33.7,61,0z"/>
	<path style="fill:#009393;" d="M0,61c-33.7,0-61-27.3-61-61s27.3-61,61-61c33.7,0,61,27.3,61,61S33.7,61,0,61z M0-52.1   c-28.8,0-52.1,23.3-52.1,52.1S-28.8,52.1,0,52.1c28.8,0,52.1-23.3,52.1-52.1S28.8-52.1,0-52.1z"/>
	<path style="fill:#009393;stroke:#FFFFFF;stroke-width:8;stroke-miterlimit:10;" d="M52.1,0c0-28.8-23.3-52.1-52.1-52.1   S-52.1-28.8-52.1,0S-28.8,52.1,0,52.1S52.1,28.8,52.1,0z"/>
	<g>
		<path style="fill:#FFFFFF;" d="M18.6,10.1H-18c-3.1,0-5.6-2.5-5.6-5.6v-33.6c0-3.1,2.5-5.6,5.6-5.6h36.6c3.1,0,5.6,2.5,5.6,5.6    V4.5C24.2,7.5,21.7,10.1,18.6,10.1z M19.7-29.2c0-0.6-0.5-1.1-1.1-1.1H-18c-0.6,0-1.1,0.5-1.1,1.1V4.5c0,0.6,0.5,1.1,1.1,1.1h36.6    c0.6,0,1.1-0.5,1.1-1.1V-29.2z"/>
		<path style="fill:#FFFFFF;" d="M-10.2,1.1c1.2,0,2.2-1,2.2-2.2s-1-2.2-2.2-2.2s-2.2,1-2.2,2.2S-11.4,1.1-10.2,1.1z"/>
		<path style="fill:#FFFFFF;" d="M0.3,1.1c1.2,0,2.2-1,2.2-2.2s-1-2.2-2.2-2.2s-2.2,1-2.2,2.2S-0.9,1.1,0.3,1.1z"/>
		<path style="fill:#FFFFFF;" d="M10.8,1.1c1.2,0,2.2-1,2.2-2.2s-1-2.2-2.2-2.2s-2.2,1-2.2,2.2S9.5,1.1,10.8,1.1z"/>
		<path style="fill:#FFFFFF;" d="M-7.2-4.1h-6c-0.8,0-1.5-0.7-1.5-1.6v-8c0-0.7,0.5-1.4,1.1-1.5V-25c0-0.8,0.7-1.5,1.5-1.5    s1.5,0.7,1.5,1.5v9.7h0.7V-25c0-0.8,0.7-1.5,1.5-1.5c0.8,0,1.5,0.7,1.5,1.5v9.8c0.6,0.2,1.1,0.8,1.1,1.5v8    C-5.7-4.9-6.3-4.1-7.2-4.1z"/>
		<path style="fill:#FFFFFF;" d="M3.3-4.1h-6c-0.8,0-1.5-0.7-1.5-1.6v-8c0-0.7,0.5-1.4,1.1-1.5V-25c0-0.8,0.7-1.5,1.5-1.5    s1.5,0.7,1.5,1.5v9.7h0.7V-25c0-0.8,0.7-1.5,1.5-1.5s1.5,0.7,1.5,1.5v9.8c0.6,0.2,1.1,0.8,1.1,1.5v8C4.8-4.9,4.1-4.1,3.3-4.1z"/>
		<path style="fill:#FFFFFF;" d="M13.7-4.1h-6c-0.8,0-1.5-0.7-1.5-1.6v-8c0-0.7,0.5-1.4,1.1-1.5V-25c0-0.8,0.7-1.5,1.5-1.5    s1.5,0.7,1.5,1.5v9.7h0.7V-25c0-0.8,0.7-1.5,1.5-1.5c0.8,0,1.5,0.7,1.5,1.5v9.8c0.6,0.2,1.1,0.8,1.1,1.5v8    C15.2-4.9,14.6-4.1,13.7-4.1z"/>
		<path style="fill:#FFFFFF;" d="M-2.1,28.6l-7.5,7.5c-1.2,1.2-3.1,1.2-4.2,0c0,0,0,0,0,0l-7.5-7.5c-1.2-1.2-1.2-3.1,0-4.2    c1.2-1.2,3.1-1.2,4.2,0l2.4,2.4V16c0-1.6,1.3-3,3-3c1.6,0,3,1.3,3,3v10.7l2.4-2.4c1.2-1.2,3.1-1.2,4.2,0S-0.9,27.4-2.1,28.6z"/>
		<path style="fill:#FFFFFF;" d="M21.8,25.6c-1.2,1.2-3.1,1.2-4.2,0l-2.4-2.4v10.7c0,1.6-1.3,3-3,3c-1.6,0-3-1.3-3-3V23.2l-2.4,2.4    c-1.2,1.2-3.1,1.2-4.2,0c-1.2-1.2-1.2-3.1,0-4.2l7.5-7.5l0,0c0.2-0.2,0.5-0.4,0.7-0.5c1.1-0.6,2.6-0.4,3.5,0.5l0,0l7.5,7.5    C23,22.5,23,24.4,21.8,25.6z"/>
	</g>
</symbol>
<symbol id="cafe" viewBox="-61 -61 122 122">
	<path style="fill:#009393;" d="M61,0c0-33.7-27.3-61-61-61S-61-33.7-61,0s27.3,61,61,61S61,33.7,61,0z"/>
	<path style="fill:#009393;" d="M0,61c-33.7,0-61-27.3-61-61s27.3-61,61-61S61-33.7,61,0S33.7,61,0,61z M0-52.1   c-28.8,0-52.1,23.3-52.1,52.1S-28.8,52.1,0,52.1c28.8,0,52.1-23.3,52.1-52.1S28.8-52.1,0-52.1z"/>
	<path style="fill:none;stroke:#FFFFFF;stroke-width:8;stroke-miterlimit:10;" d="M52.1,0c0-28.8-23.3-52.1-52.1-52.1   S-52.1-28.8-52.1,0S-28.8,52.1,0,52.1S52.1,28.8,52.1,0z"/>
	<g>
		<g>
			<g>
				<path style="fill:#FFFFFF;" d="M-7.8,11.2c-0.3,0-0.6,0.1-0.9,0.4c-0.5,0.5-0.5,1.3,0,1.8c1.6,1.5,1.8,3.6,0.5,5.4      c-2.1,3.3-2,6.4,0.4,8.8c0.5,0.5,1.3,0.5,1.8,0c0.5-0.5,0.5-1.3,0-1.8c-0.6-0.6-2.3-2.3-0.1-5.8c1.8-2.8,1.5-6.2-0.9-8.5      C-7.2,11.3-7.5,11.2-7.8,11.2L-7.8,11.2z"/>
			</g>
		</g>
		<g>
			<g>
				<path style="fill:#FFFFFF;" d="M-1.9,11.2c-0.3,0-0.6,0.1-0.9,0.4c-0.5,0.5-0.5,1.3,0,1.8c1.6,1.5,1.8,3.6,0.5,5.4      c-2.1,3.3-2,6.4,0.4,8.8c0.5,0.5,1.3,0.5,1.8,0c0.5-0.5,0.5-1.3,0-1.8c-0.6-0.6-2.3-2.3-0.1-5.8c1.8-2.8,1.5-6.2-0.9-8.5      C-1.3,11.3-1.6,11.2-1.9,11.2L-1.9,11.2z"/>
			</g>
		</g>
		<g>
			<g>
				<path style="fill:#FFFFFF;" d="M4,11.2c-0.3,0-0.6,0.1-0.9,0.4c-0.5,0.5-0.5,1.3,0,1.8c1.6,1.5,1.8,3.6,0.5,5.4      c-2.1,3.3-2,6.4,0.4,8.8c0.5,0.5,1.3,0.5,1.8,0s0.5-1.3,0-1.8c-0.6-0.6-2.3-2.3-0.1-5.8c1.8-2.8,1.5-6.2-0.9-8.5      C4.6,11.3,4.3,11.2,4,11.2L4,11.2z"/>
			</g>
		</g>
		<path style="fill:#FFFFFF;" d="M-26.6-23.1v-0.8c0-2.1,1.7-3.7,3.7-3.7h42.9c2.1,0,3.7,1.7,3.7,3.7v0.8H-26.6z"/>
		<path style="fill:#FFFFFF;" d="M24.8,6.6h-7.2c-0.1,0-0.1,0-0.2,0c-0.1,0-0.1,0-0.2,0h-38.6c-1.4,0-2.5-1.1-2.5-2.5v-7.8    c0-8.9,6-15.3,14.5-18.1H5.2C13-19.2,18.7-13.7,19.6-6h5.2c2.4,0,4.3,1.9,4.3,4.3v4C29.1,4.7,27.1,6.6,24.8,6.6z M25.8-1.6    c0-0.6-0.5-1.1-1.1-1.1h-5v6.1h5c0.6,0,1.1-0.5,1.1-1.1V-1.6z"/>
	</g>
</symbol>
<symbol id="escalier" viewBox="-61 -61 122 122">
	<path style="fill:#009393;" d="M61,0c0-33.7-27.3-61-61-61S-61-33.7-61,0s27.3,61,61,61S61,33.7,61,0z"/>
	<path style="fill:#009393;" d="M0,61c-33.7,0-61-27.3-61-61s27.3-61,61-61S61-33.7,61,0S33.7,61,0,61z M0-52.1   c-28.8,0-52.1,23.3-52.1,52.1S-28.8,52.1,0,52.1c28.8,0,52.1-23.3,52.1-52.1S28.8-52.1,0-52.1z"/>
	<path style="fill:#009393;stroke:#FFFFFF;stroke-width:8;stroke-miterlimit:10;" d="M52.1,0c0-28.8-23.3-52.1-52.1-52.1   S-52.1-28.8-52.1,0S-28.8,52.1,0,52.1S52.1,28.8,52.1,0z"/>
	<path style="fill:#FFFFFF;" d="M31.1,21.8c0-1.1-0.9-2-2-2h-9.4v-9.4c0-1.1-0.9-2-2-2H8.3l0-9.3C8.3-2,7.3-3,6.2-3h-9.3v-9.4   c0-1.1-0.9-2-2-2h-9.4v-9.4c0-1.1-0.9-2-2-2h-13.1c-1.1,0-2,0.9-2,2v1.7c0,1.1,0.9,2,2,2h9.4v9.4c0,1.1,0.9,2,2,2h9.4v9.4   c0,1.1,0.9,2,2,2h9.4v9.4c0,1.1,0.9,2,2,2H14v9.4c0,1.1,0.9,2,2,2h13.1c1.1,0,2-0.9,2-2V21.8z"/>
</symbol>
<defs id="defs_6_2">
<style type="text/css" id="polygons_css_6_2">.P6_2_0{fill:#6CAFBC;stroke:#888888;stroke-width:10;stroke-linecap:square;}
.P6_2_1{fill:#6CAFBC;}
.P6_2_2{fill:#C0C0C0;}
.P6_2_3{fill:#E88B8B;}
.P6_2_4{fill:#95B5B7;}
.P6_2_5{fill:#FFED47;}
.P6_2_6{fill:#DAEBEE;}
.P6_2_7{fill:#B6D7DD;stroke:#B6D7DD;stroke-width:5;stroke-miterlimit:10;}
.P6_2_8{fill:#B6D7DD;}
.P6_2_9{fill:#E260E6;stroke:#D931DF;stroke-width:5;stroke-linecap:square;}
.P6_2_10{fill:#FF0000;}
.P6_2_11{fill:#E53225;}
</style>
</defs>
</svg>
