<?xml version="1.0" encoding="utf-8"?>
<!-- Generator: Adobe Illustrator 17.1.0, SVG Export Plug-In . SVG Version: 6.00 Build 0)  -->
<!DOCTYPE svg PUBLIC "-//W3C//DTD SVG 1.1//EN" "http://www.w3.org/Graphics/SVG/1.1/DTD/svg11.dtd">
<svg version="1.1" id="Calque_1" xmlns="http://www.w3.org/2000/svg" xmlns:xlink="http://www.w3.org/1999/xlink" x="0px" y="0px"
	 viewBox="0 0 132.7 132.6" style="enable-background:new 0 0 132.7 132.6;" xml:space="preserve">
<g>
	<circle style="fill:#FFFFFF;" cx="66.4" cy="66.3" r="61"/>
	<path style="fill:#C6C6C6;" d="M66.4,5.3c-33.7,0-61,27.3-61,61s27.3,61,61,61s61-27.3,61-61S100.1,5.3,66.4,5.3z M66.4,118.4
		c-28.8,0-52.1-23.3-52.1-52.1s23.3-52.1,52.1-52.1s52.1,23.3,52.1,52.1S95.2,118.4,66.4,118.4z"/>
	<circle style="fill:#C6C6C6;stroke:#FFFFFF;stroke-width:8;stroke-miterlimit:10;" cx="66.4" cy="66.3" r="52.1"/>
	<g>
		<polygon style="fill:#007069;" points="52.5,77 53,76.9 53.5,76.9 54.8,76.7 56.3,76.4 57.7,76.1 59.1,75.6 60.6,75.2 62.1,74.7 
			63.2,74.3 63.7,74.1 64.1,73.8 64.5,73.5 64.9,73.1 65.2,72.6 72.3,57.7 83.7,86.1 83.8,86.4 84,86.7 84.2,87 84.5,87.2 
			84.8,87.4 85.2,87.5 85.5,87.6 85.9,87.6 95.6,87.6 77.8,49.6 67.4,49.6 		"/>
		<polygon style="fill:#C90C0F;" points="102.2,51.9 102.2,45 84.8,54.5 84.7,54.5 84.3,54.7 83.9,54.8 83.6,54.8 83.3,54.7 
			82.9,54.6 82.7,54.5 82.6,54.5 82.7,54.9 83,55.8 83.3,56.7 83.8,57.6 84.3,58.4 84.9,59.1 85.5,59.6 86,59.9 86.4,60 86.9,60 
			87.3,59.9 87.7,59.8 87.9,59.7 88,59.6 		"/>
		<polygon style="fill:#009497;" points="102.2,63.3 102.2,55.2 96.4,58.5 90.9,61.6 85.8,64.4 81.1,67 76.8,69.2 73.1,71.2 
			69.6,72.8 66.5,74.2 63.6,75.5 60.8,76.5 58.1,77.4 55.4,78.2 52.8,78.8 50.2,79.3 47.7,79.8 45.4,80.1 43.4,80.3 41.5,80.4 
			40,80.5 38.6,80.4 36.6,80.2 35.2,79.9 34.2,79.5 33.4,78.9 32.7,78.3 32.2,77.6 31.9,76.7 31.8,75.8 31.9,74.6 32.3,73.3 
			33,71.9 33.8,70.4 34.9,69 36.2,67.6 37.4,66.3 38.7,65.2 40.1,64.1 41.7,62.9 43.3,61.8 44.9,60.9 46.5,59.9 48.2,59.1 
			49.8,58.4 51.5,57.7 53.2,57.1 54.7,56.7 56,56.3 57.3,56.2 58.5,56.1 59.8,56.2 60.5,56.3 60.1,55 59.5,52.9 59,51.4 58.6,50.5 
			58.3,50 58,49.7 57.7,49.5 57.1,49.3 56.3,49.2 55.1,49.2 53.7,49.4 52,49.8 50.3,50.3 48.4,50.9 46.7,51.7 45,52.5 43.4,53.3 
			41.8,54.2 40.2,55.2 38.5,56.3 36.9,57.5 35.4,58.7 34.1,59.8 33,60.9 31.8,62 30.8,63.3 29.8,64.6 29,66 28.3,67.4 27.7,68.9 
			27.4,70.3 27.3,71.8 27.4,73.3 27.7,74.9 28.1,76.5 28.7,78.1 29.4,79.5 30.1,80.7 31,81.9 32.1,83 33.2,84 34.4,84.8 35.8,85.5 
			37.4,86 39.2,86.6 41.3,86.9 43.4,87.1 45.4,87.2 47.4,87.1 49.2,87 50.9,86.7 52.6,86.4 54.3,86.1 55.9,85.7 57.4,85.3 
			59.1,84.8 60.8,84.3 62.5,83.8 64.2,83.2 66,82.5 67.7,81.8 69.4,81.1 71.2,80.3 73,79.3 74.1,78.8 75.5,78 77.4,77 80.2,75.5 
			84.1,73.3 89.2,70.5 95.4,67.1 		"/>
	</g>
</g>
</svg>
